G40	; disable tool radius compensation
G49	; disable tool length compensation
G80	; cancel modal motion
G54	; select coordinate system 1
G90	; disable incremental moves
G21	; metric
F300	; set feedrate
S1000	; set spindle speed
G61	; exact path mode
M3	; start spindle
G04 P3.0	; wait for 3.0 seconds
G0 X22.416500 Y12.361000 Z25.000000
F100	; set feedrate
G1 Z0.000000
F300	; set feedrate
G1 Y12.271400
  X21.580100
  X21.581800 Y12.240100
  X21.613600 Y12.106000
  X21.675100 Y12.001400
  X21.691700 Y11.984900
  X21.708900 Y11.968700
  X21.814000 Y11.911600
  X21.935100 Y11.886800
  X22.001100
  X22.077900 Y11.893300
  X22.161500 Y11.908800
  X22.178100 Y11.913300
  X22.194600 Y11.917400
  X22.276500 Y11.945000
  X22.357600 Y11.981700
  X22.373900 Y11.990200
  Y11.818000
  X22.357200 Y11.811200
  X22.274300 Y11.781700
  X22.190000 Y11.758400
  X22.172800 Y11.754600
  X22.155600 Y11.751100
  X22.069000 Y11.738500
  X21.990700 Y11.732700
  X21.933200
  X21.839000 Y11.742500
  X21.726900 Y11.771500
  X21.628600 Y11.819800
  X21.563200 Y11.868100
  X21.544200 Y11.886800
  X21.525100 Y11.905900
  X21.476400 Y11.971100
  X21.428300 Y12.068800
  X21.399600 Y12.180000
  X21.390000 Y12.273400
  Y12.336700
  X21.399000 Y12.433200
  X21.426400 Y12.548200
  X21.471900 Y12.649200
  X21.517900 Y12.716300
  X21.536000 Y12.736000
  X21.553900 Y12.755400
  X21.615800 Y12.805600
  X21.708500 Y12.855600
  X21.814300 Y12.885700
  X21.903200 Y12.895800
  X21.959300
  X22.038600 Y12.886800
  X22.132500 Y12.859600
  X22.214900 Y12.814400
  X22.269900 Y12.768700
  X22.285700 Y12.751100
  X22.301800 Y12.733400
  X22.342800 Y12.673100
  X22.383600 Y12.581900
  X22.408200 Y12.477800
  X22.416500 Y12.390300
  Y12.361000
G0 Z25.000000
  X23.511900 Y12.826700
F100	; set feedrate
G1 Z0.000000
F300	; set feedrate
G1 Y12.655900
  X23.498900 Y12.663200
  X23.369300 Y12.716000
  X23.356400 Y12.719400
  X23.343500 Y12.723200
  X23.279000 Y12.736100
  X23.220300 Y12.741300
  X23.161400
  X23.043200 Y12.713300
  X22.941500 Y12.647300
  X22.924900 Y12.628400
  X22.908800 Y12.609700
  X22.851800 Y12.494000
  X22.827200 Y12.359100
  Y12.269100
  X22.851800 Y12.134200
  X22.908800 Y12.017700
  X22.924900 Y11.998700
  X22.941500 Y11.980100
  X23.043200 Y11.914900
  X23.161400 Y11.886800
  X23.239600
  X23.343500 Y11.904200
  X23.356400 Y11.907700
  X23.369300 Y11.911500
  X23.434200 Y11.934800
  X23.498900 Y11.965300
  X23.511900 Y11.972500
  Y11.804300
  X23.499300 Y11.798500
  X23.367200 Y11.753800
  X23.353500 Y11.750700
  X23.340100 Y11.747800
  X23.269900 Y11.737500
  X23.202400 Y11.732700
  X23.150300
  X23.061300 Y11.742500
  X22.955600 Y11.772100
  X22.862900 Y11.821600
  X22.800800 Y11.871700
  X22.783100 Y11.891100
  X22.765000 Y11.910500
  X22.718800 Y11.976400
  X22.672600 Y12.075300
  X22.644900 Y12.187700
  X22.635700 Y12.282500
  Y12.346100
  X22.644900 Y12.442300
  X22.672900 Y12.555900
  X22.719400 Y12.655200
  X22.766100 Y12.720700
  X22.784400 Y12.739900
  X22.802800 Y12.758900
  X22.865800 Y12.807800
  X22.961000 Y12.856600
  X23.069900 Y12.886000
  X23.161700 Y12.895800
  X23.233300
  X23.342900 Y12.880900
  X23.356400 Y12.877800
  X23.369700 Y12.875100
  X23.435100 Y12.857000
  X23.499300 Y12.832600
  X23.511900 Y12.826700
G0 Z25.000000
  X24.748100 Y12.429800
F100	; set feedrate
G1 Z0.000000
F300	; set feedrate
G1 Y11.761600
  X24.566400
  Y12.458900
  X24.551000 Y12.561900
  X24.515700 Y12.647000
  X24.505700 Y12.660200
  X24.498200 Y12.669400
  X24.471000 Y12.693600
  X24.428900 Y12.717700
  X24.378900 Y12.732200
  X24.335300 Y12.737000
  X24.288100
  X24.189700 Y12.713600
  X24.103500 Y12.659100
  X24.089400 Y12.643600
  X24.074900 Y12.628000
  X24.025000 Y12.532900
  X24.004000 Y12.423600
  Y11.761600
  X23.820700
  Y12.869400
  X24.004000
  Y12.697200
  X24.014700 Y12.713800
  X24.074700 Y12.784100
  X24.142600 Y12.837800
  X24.157200 Y12.846000
  X24.171900 Y12.854300
  X24.253100 Y12.883400
  X24.335100 Y12.895800
  X24.404300
  X24.529600 Y12.865900
  X24.634200 Y12.796800
  X24.650300 Y12.777200
  X24.666500 Y12.757600
  X24.723500 Y12.631500
  X24.748100 Y12.480300
  Y12.429800
G0 Z25.000000
  X25.540400 Y12.895800
F100	; set feedrate
G1 Z0.000000
F300	; set feedrate
G1 X25.568500
  X25.652900 Y12.886200
  X25.752400 Y12.857300
  X25.838900 Y12.809000
  X25.896300 Y12.760100
  X25.912600 Y12.741300
  X25.929600 Y12.721900
  X25.972200 Y12.656500
  X26.014900 Y12.557200
  X26.040600 Y12.443100
  X26.049200 Y12.346400
  Y12.282000
  X26.040600 Y12.185800
  X26.014900 Y12.071700
  X25.972200 Y11.971900
  X25.929600 Y11.906300
  X25.912600 Y11.886800
  X25.896300 Y11.868300
  X25.838900 Y11.819800
  X25.752400 Y11.771500
  X25.652900 Y11.742500
  X25.568500 Y11.732700
  X25.512200
  X25.427800 Y11.742500
  X25.327900 Y11.771500
  X25.241000 Y11.819800
  X25.183500 Y11.868200
  X25.167200 Y11.886800
  X25.150300 Y11.906300
  X25.108200 Y11.971900
  X25.066000 Y12.071700
  X25.040600 Y12.185800
  X25.032100 Y12.282000
  Y12.346400
  X25.040600 Y12.443100
  X25.066000 Y12.557200
  X25.108200 Y12.656500
  X25.150300 Y12.721900
  X25.167200 Y12.741300
  X25.183500 Y12.760100
  X25.241000 Y12.809000
  X25.327900 Y12.857300
  X25.427800 Y12.886200
  X25.512200 Y12.895800
  X25.540400
G0 Z25.000000
  X26.349300 Y13.299400
F100	; set feedrate
G1 Z0.000000
F300	; set feedrate
G1 X26.531400
  Y11.761600
  X26.349300
  Y13.299400
G0 Z25.000000
  X27.341700 Y12.895800
F100	; set feedrate
G1 Z0.000000
F300	; set feedrate
G1 X27.369700
  X27.454000 Y12.886200
  X27.553800 Y12.857300
  X27.640700 Y12.809000
  X27.698500 Y12.760000
  X27.715000 Y12.741300
  X27.731700 Y12.721900
  X27.773700 Y12.656500
  X27.816100 Y12.557200
  X27.841500 Y12.443100
  X27.850000 Y12.346400
  Y12.282000
  X27.841500 Y12.185800
  X27.816100 Y12.071700
  X27.773700 Y11.971900
  X27.731800 Y11.906300
  X27.715000 Y11.886800
  X27.698500 Y11.868300
  X27.640700 Y11.819800
  X27.553800 Y11.771500
  X27.454000 Y11.742500
  X27.369700 Y11.732700
  X27.313500
  X27.229000 Y11.742500
  X27.129000 Y11.771500
  X27.041900 Y11.819800
  X26.984400 Y11.868200
  X26.968100 Y11.886800
  X26.951300 Y11.906300
  X26.909200 Y11.971900
  X26.866900 Y12.071700
  X26.841500 Y12.185800
  X26.833100 Y12.282000
  Y12.346400
  X26.841500 Y12.443100
  X26.866900 Y12.557200
  X26.909200 Y12.656500
  X26.951300 Y12.721900
  X26.968100 Y12.741300
  X26.984400 Y12.760100
  X27.041900 Y12.809000
  X27.129000 Y12.857300
  X27.229000 Y12.886200
  X27.313500 Y12.895800
  X27.341700
G0 Z25.000000
  X29.061500 Y11.899200
F100	; set feedrate
G1 Z0.000000
F300	; set feedrate
G1 Y11.866200
  X29.053600 Y11.766900
  X29.030300 Y11.653000
  X28.991100 Y11.557200
  X28.951800 Y11.496600
  X28.935800 Y11.479100
  X28.920600 Y11.461900
  X28.865400 Y11.418500
  X28.777900 Y11.375400
  X28.673300 Y11.349700
  X28.582100 Y11.341100
  X28.528500
  X28.458800 Y11.344500
  X28.385100 Y11.352800
  X28.371100 Y11.355200
  X28.356900 Y11.357600
  X28.219000 Y11.394200
  X28.205600 Y11.398900
  Y11.575400
  X28.219000 Y11.568100
  X28.285400 Y11.538100
  X28.351000 Y11.515700
  X28.364000 Y11.512200
  X28.377200 Y11.508800
  X28.486400 Y11.491400
  X28.561900
  X28.679600 Y11.514500
  X28.776400 Y11.569400
  X28.791200 Y11.585200
  X28.806100 Y11.600800
  X28.857500 Y11.702000
  X28.879400 Y11.825300
  Y11.956000
  X28.870100 Y11.939800
  X28.815600 Y11.870900
  X28.750700 Y11.818200
  X28.736300 Y11.809900
  X28.721400 Y11.802000
  X28.639000 Y11.773900
  X28.553800 Y11.761600
  X28.501000
  X28.428200 Y11.771400
  X28.341200 Y11.800700
  X28.264400 Y11.849300
  X28.212400 Y11.898700
  X28.197500 Y11.917200
  X28.181800 Y11.936600
  X28.142400 Y12.001000
  X28.103100 Y12.097300
  X28.079700 Y12.206200
  X28.071900 Y12.297400
  Y12.358500
  X28.079700 Y12.450500
  X28.103100 Y12.559800
  X28.142400 Y12.656100
  X28.181800 Y12.720500
  X28.197500 Y12.739900
  X28.212400 Y12.758400
  X28.264400 Y12.807800
  X28.341200 Y12.856600
  X28.428200 Y12.886000
  X28.501000 Y12.895800
  X28.553800
  X28.639000 Y12.883600
  X28.721400 Y12.855400
  X28.736300 Y12.847400
  X28.750700 Y12.839200
  X28.815600 Y12.786300
  X28.870100 Y12.717700
  X28.879400 Y12.701400
  Y12.869400
  X29.061500
  Y11.899200
G0 Z25.000000
  X29.665100 Y13.380900
F100	; set feedrate
G1 Z0.000000
F300	; set feedrate
G1 X29.861900
  X29.539400 Y13.008700
  X29.388200
  X29.665100 Y13.380900
G0 Z25.000000
  X29.436100 Y12.869400
F100	; set feedrate
G1 Z0.000000
F300	; set feedrate
G1 X29.618200
  Y11.761600
  X29.436100
  Y12.869400
G0 Z25.000000
  X30.865300 Y12.394200
F100	; set feedrate
G1 Z0.000000
F300	; set feedrate
G1 Y11.761600
  X30.683500
  Y11.929500
  X30.673100 Y11.912700
  X30.613200 Y11.841800
  X30.543200 Y11.788900
  X30.527600 Y11.781000
  X30.512100 Y11.773100
  X30.424300 Y11.745000
  X30.331400 Y11.732700
  X30.262400
  X30.148100 Y11.756500
  X30.047100 Y11.811800
  X30.030300 Y11.827600
  X30.013800 Y11.843800
  X29.955100 Y11.940400
  X29.929700 Y12.048100
  Y12.105900
  X29.937400 Y12.171500
  X29.960800 Y12.247800
  X29.999900 Y12.312600
  X30.039700 Y12.354000
  X30.054900 Y12.365200
  X30.075700 Y12.381000
  X30.210700 Y12.436400
  X30.374000 Y12.460100
  X30.683500
  Y12.492900
  X30.678300 Y12.537500
  X30.662600 Y12.589700
  X30.636800 Y12.634700
  X30.610600 Y12.664200
  X30.600700 Y12.672500
  X30.586800 Y12.683900
  X30.501500 Y12.724000
  X30.402200 Y12.741300
  X30.345700
  X30.275100 Y12.736100
  X30.199200 Y12.723200
  X30.184300 Y12.719400
  X30.169300 Y12.715600
  X30.095700 Y12.690500
  X30.024600 Y12.657900
  X30.010800 Y12.650300
  Y12.818500
  X30.027400 Y12.825100
  X30.189300 Y12.873300
  X30.205100 Y12.876400
  X30.220700 Y12.879500
  X30.346700 Y12.895800
  X30.416700
  X30.501000 Y12.888100
  X30.598200 Y12.864800
  X30.680100 Y12.826000
  X30.732100 Y12.787100
  X30.746700 Y12.771600
  X30.761500 Y12.755800
  X30.798300 Y12.700800
  X30.835400 Y12.614400
  X30.857800 Y12.512200
  X30.865300 Y12.423700
  Y12.394200
G0 Z25.000000
  X31.945800 Y12.836500
F100	; set feedrate
G1 Z0.000000
F300	; set feedrate
G1 Y12.664000
  X31.933100 Y12.670600
  X31.867400 Y12.698900
  X31.799700 Y12.720200
  X31.786000 Y12.723300
  X31.772100 Y12.726800
  X31.701100 Y12.738900
  X31.635400 Y12.744100
  X31.597600
  X31.550100 Y12.741300
  X31.495000 Y12.733100
  X31.447900 Y12.719700
  X31.418600 Y12.706900
  X31.409600 Y12.701400
  X31.398500 Y12.694600
  X31.360000 Y12.649800
  X31.343600 Y12.595400
  Y12.563100
  X31.355300 Y12.520600
  X31.383300 Y12.484000
  X31.391700 Y12.478100
  X31.399600 Y12.472000
  X31.464000 Y12.442700
  X31.561500 Y12.414800
  X31.586000 Y12.409300
  X31.648100 Y12.395600
  X31.680400 Y12.388700
  X31.814300 Y12.345700
  X31.910100 Y12.291100
  X31.923600 Y12.278400
  X31.933500 Y12.269000
  X31.959000 Y12.236500
  X31.984600 Y12.187400
  X31.999900 Y12.131100
  X32.005000 Y12.083400
  Y12.032900
  X31.974600 Y11.929100
  X31.902900 Y11.838500
  X31.882200 Y11.823700
  X31.861900 Y11.808500
  X31.737600 Y11.755500
  X31.595000 Y11.732700
  X31.524700
  X31.456500 Y11.737500
  X31.377500 Y11.747800
  X31.361300 Y11.750700
  X31.345400 Y11.753400
  X31.263200 Y11.772200
  X31.176700 Y11.797100
  X31.158700 Y11.802900
  Y11.990200
  X31.175700 Y11.981700
  X31.259000 Y11.944300
  X31.341100 Y11.916000
  X31.357400 Y11.911900
  X31.373900 Y11.907400
  X31.455400 Y11.891900
  X31.527600 Y11.885400
  X31.580100
  X31.665100 Y11.895900
  X31.737200 Y11.920900
  X31.748600 Y11.928100
  X31.760300 Y11.935700
  X31.801200 Y11.982200
  X31.818700 Y12.035900
  Y12.070000
  X31.805800 Y12.119000
  X31.776200 Y12.160100
  X31.768100 Y12.166600
  X31.760700 Y12.172400
  X31.735600 Y12.186200
  X31.688500 Y12.205800
  X31.626700 Y12.225100
  X31.569400 Y12.239600
  X31.550400 Y12.243900
  X31.486800 Y12.257600
  X31.458600 Y12.263500
  X31.341000 Y12.302700
  X31.254300 Y12.354600
  X31.241700 Y12.366600
  X31.232500 Y12.375800
  X31.209000 Y12.407100
  X31.185800 Y12.454400
  X31.171800 Y12.508400
  X31.167200 Y12.554000
  Y12.603800
  X31.194900 Y12.707700
  X31.259000 Y12.796000
  X31.277200 Y12.810100
  X31.295800 Y12.824300
  X31.411700 Y12.874200
  X31.546700 Y12.895800
  X31.616100
  X31.689700 Y12.891800
  X31.766900 Y12.883000
  X31.781800 Y12.880600
  X31.796500 Y12.878200
  X31.867400 Y12.862000
  X31.933300 Y12.841300
  X31.945800 Y12.836500
G0 Z25.000000
  X32.946200 Y13.237300
F100	; set feedrate
G1 Z0.000000
F300	; set feedrate
G1 X33.146000
  Y11.929500
  X33.865300
  Y11.761600
  X32.946200
  Y13.237300
G0 Z25.000000
  X32.211800 Y10.047100
F100	; set feedrate
G1 Z0.000000
F300	; set feedrate
G1 Y10.025900
  X32.202200 Y9.962130
  X32.174700 Y9.882820
  X32.131400 Y9.810990
  X32.073900 Y9.748320
  X32.004300 Y9.696610
  X31.924600 Y9.657500
  X31.836400 Y9.632760
  X31.765400 Y9.624140
  X31.718200
  X31.647200 Y9.632760
  X31.559200 Y9.657500
  X31.479600 Y9.696610
  X31.410300 Y9.748320
  X31.352900 Y9.810990
  X31.309900 Y9.882820
  X31.282500 Y9.962130
  X31.273100 Y10.025900
  Y10.068400
  X31.282500 Y10.132300
  X31.309900 Y10.211600
  X31.352900 Y10.283500
  X31.410300 Y10.346200
  X31.479600 Y10.398000
  X31.559200 Y10.437100
  X31.647200 Y10.461800
  X31.718200 Y10.470400
  X31.765400
  X31.836400 Y10.461800
  X31.924600 Y10.437100
  X32.004300 Y10.398000
  X32.073900 Y10.346200
  X32.131400 Y10.283500
  X32.174700 Y10.211600
  X32.202200 Y10.132300
  X32.211800 Y10.068400
  Y10.047100
G0 Z25.000000
  X32.856700
F100	; set feedrate
G1 Z0.000000
F300	; set feedrate
G1 Y9.990940
  X32.834000 Y9.822380
  X32.769200 Y9.613070
  X32.666400 Y9.423720
  X32.530300 Y9.258790
  X32.365300 Y9.122670
  X32.175800 Y9.019920
  X31.966500 Y8.955030
  X31.798100 Y8.932350
  X31.685800
  X31.517500 Y8.955030
  X31.308500 Y9.019920
  X31.119300 Y9.122670
  X30.954400 Y9.258790
  X30.818300 Y9.423720
  X30.715700 Y9.613070
  X30.650800 Y9.822380
  X30.628200 Y9.990940
  Y10.103300
  X30.650800 Y10.271500
  X30.715700 Y10.480600
  X30.818300 Y10.669700
  X30.954400 Y10.834600
  X31.119300 Y10.970600
  X31.308500 Y11.073300
  X31.517500 Y11.138200
  X31.685800 Y11.160800
  X31.798100
  X31.966500 Y11.138200
  X32.175800 Y11.073300
  X32.365300 Y10.970600
  X32.530300 Y10.834600
  X32.666400 Y10.669700
  X32.769200 Y10.480600
  X32.834000 Y10.271500
  X32.856700 Y10.103300
  Y10.047100
G0 Z25.000000
  X34.066400 Y13.299400
F100	; set feedrate
G1 Z0.000000
F300	; set feedrate
G1 X34.248300
  Y13.069300
  X34.066400
  Y13.299400
G0 Z25.000000
  Y12.869400
F100	; set feedrate
G1 Z0.000000
F300	; set feedrate
G1 X34.248300
  Y11.761600
  X34.066400
  Y12.869400
G0 Z25.000000
  X34.805000 Y12.701400
F100	; set feedrate
G1 Z0.000000
F300	; set feedrate
G1 X34.814700 Y12.717700
  X34.870300 Y12.786900
  X34.935300 Y12.839500
  X34.949700 Y12.847400
  X34.964200 Y12.855400
  X35.045700 Y12.883600
  X35.130800 Y12.895800
  X35.183300
  X35.255600 Y12.885700
  X35.342100 Y12.855600
  X35.418900 Y12.805600
  X35.471000 Y12.754900
  X35.485800 Y12.736000
  X35.501800 Y12.715900
  X35.541700 Y12.649100
  X35.581300 Y12.549800
  X35.604700 Y12.438100
  X35.612600 Y12.345100
  Y12.283100
  X35.604700 Y12.190200
  X35.581300 Y12.078800
  X35.541700 Y11.980000
  X35.501800 Y11.913800
  X35.485800 Y11.893900
  X35.471100 Y11.874700
  X35.418900 Y11.823300
  X35.342100 Y11.772900
  X35.255600 Y11.742800
  X35.183300 Y11.732700
  X35.130800
  X35.045700 Y11.745000
  X34.964200 Y11.773100
  X34.949700 Y11.781000
  X34.935300 Y11.788900
  X34.870300 Y11.841600
  X34.814700 Y11.911600
  X34.805000 Y11.928100
  Y11.761600
  X34.621900
  Y13.299400
  X34.805000
  Y12.701400
G0 Z25.000000
  X36.556500 Y12.698600
F100	; set feedrate
G1 Z0.000000
F300	; set feedrate
G1 X36.551400 Y12.701700
  X36.495300 Y12.723400
  X36.489200 Y12.724700
  X36.483300 Y12.726100
  X36.428800 Y12.733200
  X36.376300
  X36.273700 Y12.708200
  X36.186200 Y12.649500
  X36.172100 Y12.632600
  X36.158600 Y12.616000
  X36.111400 Y12.511000
  X36.091000 Y12.387100
  Y11.761600
  X35.907500
  Y12.869400
  X36.091000
  Y12.697200
  X36.100600 Y12.714100
  X36.156900 Y12.785100
  X36.224600 Y12.838100
  X36.239900 Y12.846000
  X36.255300 Y12.854300
  X36.341800 Y12.883400
  X36.432500 Y12.895800
  X36.473200
  X36.500600 Y12.893300
  X36.504400 Y12.893000
  X36.508200 Y12.892600
  X36.550700 Y12.886600
  X36.555100 Y12.885900
  X36.556500 Y12.698600
G0 Z25.000000
  X37.649600 Y12.361000
F100	; set feedrate
G1 Z0.000000
F300	; set feedrate
G1 Y12.271400
  X36.813100
  X36.815000 Y12.240100
  X36.847100 Y12.106000
  X36.909000 Y12.001400
  X36.926000 Y11.984900
  X36.942800 Y11.968700
  X37.047500 Y11.911600
  X37.168300 Y11.886800
  X37.234300
  X37.311800 Y11.893300
  X37.394900 Y11.908800
  X37.411000 Y11.913300
  X37.427500 Y11.917400
  X37.509900 Y11.945000
  X37.591000 Y11.981700
  X37.606800 Y11.990200
  Y11.818000
  X37.590600 Y11.811200
  X37.424000 Y11.758400
  X37.406800 Y11.754600
  X37.389600 Y11.751100
  X37.303200 Y11.738500
  X37.223800 Y11.732700
  X37.166000
  X37.071900 Y11.742500
  X36.960300 Y11.771500
  X36.862100 Y11.819800
  X36.796400 Y11.868100
  X36.777100 Y11.886800
  X36.758200 Y11.905900
  X36.710100 Y11.971100
  X36.662200 Y12.068800
  X36.633500 Y12.180000
  X36.624000 Y12.273400
  Y12.336700
  X36.633100 Y12.433200
  X36.660300 Y12.548200
  X36.706000 Y12.649200
  X36.751800 Y12.716300
  X36.770000 Y12.736000
  X36.787900 Y12.755300
  X36.850000 Y12.805600
  X36.942600 Y12.855600
  X37.047900 Y12.885700
  X37.136400 Y12.895800
  X37.192400
  X37.272100 Y12.886800
  X37.366400 Y12.859600
  X37.448900 Y12.814400
  X37.503900 Y12.768700
  X37.519700 Y12.751100
  X37.535800 Y12.733500
  X37.576700 Y12.673100
  X37.617200 Y12.581900
  X37.641400 Y12.477800
  X37.649600 Y12.390300
  Y12.361000
G0 Z25.000000
  X38.653900 Y12.836500
F100	; set feedrate
G1 Z0.000000
F300	; set feedrate
G1 Y12.664000
  X38.641100 Y12.670600
  X38.575600 Y12.698900
  X38.507800 Y12.720200
  X38.494000 Y12.723300
  X38.480300 Y12.726800
  X38.409600 Y12.738900
  X38.343800 Y12.744100
  X38.306100
  X38.258600 Y12.741300
  X38.203300 Y12.733100
  X38.156400 Y12.719700
  X38.126900 Y12.706900
  X38.118100 Y12.701400
  X38.106900 Y12.694600
  X38.068200 Y12.649800
  X38.051700 Y12.595400
  Y12.563100
  X38.063300 Y12.520600
  X38.091700 Y12.484000
  X38.100000 Y12.478100
  X38.107900 Y12.472000
  X38.172200 Y12.442700
  X38.269900 Y12.414800
  X38.294400 Y12.409300
  X38.356400 Y12.395600
  X38.388800 Y12.388700
  X38.522100 Y12.345700
  X38.618200 Y12.291100
  X38.631900 Y12.278400
  X38.641800 Y12.269000
  X38.667200 Y12.236500
  X38.692600 Y12.187400
  X38.707900 Y12.131100
  X38.713100 Y12.083400
  Y12.032900
  X38.682800 Y11.929100
  X38.611400 Y11.838500
  X38.590700 Y11.823700
  X38.570300 Y11.808500
  X38.445800 Y11.755500
  X38.303100 Y11.732700
  X38.232900
  X38.164700 Y11.737500
  X38.085800 Y11.747800
  X38.069700 Y11.750700
  X38.053800 Y11.753400
  X37.971500 Y11.772200
  X37.885100 Y11.797100
  X37.867200 Y11.802900
  Y11.990200
  X37.884000 Y11.981700
  X37.967400 Y11.944300
  X38.049300 Y11.916000
  X38.065400 Y11.911900
  X38.081900 Y11.907400
  X38.163600 Y11.891900
  X38.235700 Y11.885400
  X38.288200
  X38.373300 Y11.895900
  X38.445700 Y11.920900
  X38.457100 Y11.928100
  X38.468800 Y11.935700
  X38.509700 Y11.982200
  X38.527200 Y12.035900
  Y12.070000
  X38.514000 Y12.119000
  X38.484300 Y12.160100
  X38.476100 Y12.166600
  X38.468800 Y12.172500
  X38.443900 Y12.186200
  X38.396700 Y12.205800
  X38.334300 Y12.225100
  X38.276400 Y12.239600
  X38.256900 Y12.243900
  X38.195300 Y12.257600
  X38.166900 Y12.263500
  X38.049200 Y12.302700
  X37.962500 Y12.354600
  X37.949700 Y12.366600
  X37.940600 Y12.375800
  X37.917200 Y12.407100
  X37.893900 Y12.454400
  X37.880000 Y12.508400
  X37.875300 Y12.554000
  Y12.603800
  X37.903100 Y12.707700
  X37.967400 Y12.796000
  X37.985700 Y12.810100
  X38.004300 Y12.824300
  X38.120000 Y12.874200
  X38.254700 Y12.895800
  X38.324300
  X38.398100 Y12.891800
  X38.475000 Y12.883000
  X38.489900 Y12.880600
  X38.504600 Y12.878200
  X38.575600 Y12.862000
  X38.641500 Y12.841300
  X38.653900 Y12.836500
G0 Z25.000000
  X37.238100 Y19.146100
F100	; set feedrate
G1 Z0.000000
F300	; set feedrate
G1 Y15.729000
  X36.312100
  Y19.115700
  X36.311800 Y19.209600
  X36.291500 Y19.490700
  X36.232600 Y19.816900
  X36.134700 Y20.093300
  X36.037800 Y20.267400
  X35.997200 Y20.318900
  X35.958300 Y20.366900
  X35.818600 Y20.492600
  X35.602400 Y20.617500
  X35.347400 Y20.692900
  X35.126400 Y20.718200
  X35.052800
  X34.962800 Y20.718100
  X34.692900 Y20.687800
  X34.374700 Y20.597800
  X34.097200 Y20.447900
  X33.912400 Y20.296200
  X33.859400 Y20.237900
  X33.804700 Y20.178100
  X33.666800 Y19.974700
  X33.530600 Y19.669400
  X33.449400 Y19.321000
  X33.422800 Y19.026800
  Y15.729000
  X32.482900
  Y23.606800
  X33.422800
  Y20.511000
  X33.463100 Y20.573100
  X33.596700 Y20.751100
  X33.786300 Y20.959600
  X33.991000 Y21.135700
  X34.153500 Y21.247400
  X34.210600 Y21.279300
  X34.267200 Y21.310700
  X34.445800 Y21.389400
  X34.698800 Y21.469000
  X34.969200 Y21.517400
  X35.185000 Y21.533800
  X35.256900
  X35.316000 Y21.533300
  X35.493300 Y21.523100
  X35.715300 Y21.494000
  X35.922500 Y21.446700
  X36.115000 Y21.380600
  X36.292600 Y21.295800
  X36.455600 Y21.192200
  X36.603500 Y21.069700
  X36.705400 Y20.965100
  X36.736400 Y20.927800
  X36.767600 Y20.889400
  X36.852600 Y20.767100
  X36.954000 Y20.588800
  X37.040100 Y20.392600
  X37.111000 Y20.179000
  X37.166400 Y19.947500
  X37.206100 Y19.698200
  X37.230000 Y19.431100
  X37.238100 Y19.217400
  Y19.146100
G0 Z25.000000
  X30.720700 Y21.243600
F100	; set feedrate
G1 Z0.000000
F300	; set feedrate
G1 Y20.359000
  X30.654300 Y20.391900
  X30.316500 Y20.533800
  X29.969600 Y20.642900
  X29.898500 Y20.659600
  X29.827100 Y20.676200
  X29.464000 Y20.734700
  X29.127200 Y20.759900
  X29.015000
  X28.933200 Y20.759700
  X28.687800 Y20.746100
  X28.405400 Y20.706100
  X28.167100 Y20.639900
  X28.017600 Y20.574900
  X27.971800 Y20.546700
  X27.930600 Y20.521100
  X27.818700 Y20.425300
  X27.710100 Y20.279200
  X27.645600 Y20.107200
  X27.624200 Y19.958100
  Y19.908200
  X27.623800 Y19.869600
  X27.638800 Y19.753100
  X27.685700 Y19.617100
  X27.764200 Y19.499400
  X27.843900 Y19.421000
  X27.873500 Y19.398900
  X27.909200 Y19.371900
  X28.028700 Y19.307100
  X28.247900 Y19.218100
  X28.530400 Y19.131400
  X28.788900 Y19.066000
  X28.875700 Y19.046700
  X29.196000 Y18.975300
  X29.311800 Y18.949700
  X29.655300 Y18.856400
  X30.044200 Y18.717200
  X30.361700 Y18.556800
  X30.551400 Y18.426000
  X30.607100 Y18.374200
  X30.657900 Y18.326400
  X30.789400 Y18.160300
  X30.920000 Y17.908800
  X30.998700 Y17.619300
  X31.025000 Y17.373300
  Y17.291200
  X31.024900 Y17.243100
  X31.014700 Y17.098100
  X30.985100 Y16.915400
  X30.936200 Y16.743300
  X30.867800 Y16.581700
  X30.779900 Y16.430400
  X30.672500 Y16.289600
  X30.545400 Y16.159000
  X30.436800 Y16.066700
  X30.398700 Y16.038500
  X30.359200 Y16.009300
  X30.234400 Y15.930000
  X30.055700 Y15.836000
  X29.862500 Y15.756700
  X29.654600 Y15.691800
  X29.432200 Y15.641500
  X29.195100 Y15.605600
  X28.943300 Y15.584000
  X28.743500 Y15.576900
  X28.676900
  X28.600600 Y15.576800
  X28.210600 Y15.598500
  X27.808500 Y15.649000
  X27.726300 Y15.663500
  X27.642800 Y15.677600
  X27.217100 Y15.771000
  X26.775600 Y15.893900
  X26.684300 Y15.922600
  Y16.890000
  X26.769600 Y16.844400
  X27.196800 Y16.653200
  X27.621000 Y16.508200
  X27.704700 Y16.485700
  X27.788200 Y16.462800
  X28.204400 Y16.383900
  X28.576100 Y16.351000
  X28.700100
  X28.777400 Y16.350400
  X29.009300 Y16.363600
  X29.282400 Y16.406300
  X29.518200 Y16.477800
  X29.669200 Y16.547800
  X29.715600 Y16.577400
  X29.757200 Y16.603900
  X29.870800 Y16.701900
  X29.981900 Y16.849900
  X30.048800 Y17.021100
  X30.071000 Y17.166900
  Y17.215600
  X30.070400 Y17.260400
  X30.053600 Y17.395000
  X30.005600 Y17.552400
  X29.926000 Y17.687500
  X29.845000 Y17.776000
  X29.814000 Y17.800400
  X29.776000 Y17.830300
  X29.646900 Y17.901000
  X29.403600 Y17.999900
  X29.083900 Y18.096900
  X28.786900 Y18.170600
  X28.687400 Y18.192100
  X28.361800 Y18.268300
  X28.259900 Y18.289000
  X27.957600 Y18.370000
  X27.614900 Y18.497900
  X27.332800 Y18.650800
  X27.161100 Y18.778300
  X27.110700 Y18.827800
  X27.063200 Y18.873900
  X26.941300 Y19.033800
  X26.821100 Y19.275000
  X26.749400 Y19.551500
  X26.725700 Y19.785300
  Y19.863100
  X26.725400 Y19.911500
  X26.733500 Y20.056500
  X26.759700 Y20.239000
  X26.803900 Y20.410400
  X26.866300 Y20.570700
  X26.946500 Y20.719700
  X27.044600 Y20.857500
  X27.160300 Y20.983700
  X27.258600 Y21.071700
  X27.293500 Y21.098300
  X27.329000 Y21.125700
  X27.441900 Y21.199600
  X27.605800 Y21.287600
  X27.785000 Y21.362500
  X27.979300 Y21.423900
  X28.188600 Y21.471800
  X28.412900 Y21.506100
  X28.652100 Y21.526800
  X28.842400 Y21.533800
  X28.905800
  X28.991100 Y21.532600
  X29.406300 Y21.513900
  X29.803100 Y21.473200
  X29.879200 Y21.461000
  X29.954300 Y21.448200
  X30.316300 Y21.369200
  X30.656500 Y21.267800
  X30.720700 Y21.243600
G0 Z25.000000
  X22.911900 Y21.533800
F100	; set feedrate
G1 Z0.000000
F300	; set feedrate
G1 X22.985600 Y21.533300
  X23.206000 Y21.520100
  X23.484400 Y21.482500
  X23.747100 Y21.420700
  X23.993800 Y21.334600
  X24.224300 Y21.223900
  X24.438700 Y21.088600
  X24.636700 Y20.928600
  X24.775600 Y20.792200
  X24.818200 Y20.743600
  X24.861400 Y20.694200
  X24.980400 Y20.536500
  X25.121000 Y20.310400
  X25.240000 Y20.065400
  X25.337500 Y19.801400
  X25.413300 Y19.518300
  X25.467500 Y19.216400
  X25.500000 Y18.895400
  X25.511000 Y18.640400
  Y18.470600
  X25.500000 Y18.215800
  X25.467500 Y17.895400
  X25.413500 Y17.594000
  X25.337600 Y17.311500
  X25.240300 Y17.048100
  X25.121200 Y16.803200
  X24.980600 Y16.577100
  X24.861500 Y16.419200
  X24.818200 Y16.369600
  X24.775600 Y16.320800
  X24.636700 Y16.183700
  X24.439000 Y16.022600
  X24.225100 Y15.886400
  X23.995000 Y15.774900
  X23.748800 Y15.688200
  X23.486100 Y15.626400
  X23.207200 Y15.589300
  X22.985800 Y15.576900
  X22.837600
  X22.614400 Y15.589300
  X22.334000 Y15.626400
  X22.070600 Y15.688200
  X21.824000 Y15.775000
  X21.594200 Y15.886500
  X21.380800 Y16.022800
  X21.184000 Y16.183700
  X21.045800 Y16.320800
  X21.003300 Y16.369600
  X20.960000 Y16.419200
  X20.841000 Y16.577100
  X20.700400 Y16.803300
  X20.581800 Y17.048300
  X20.484900 Y17.312200
  X20.409700 Y17.594900
  X20.356000 Y17.896400
  X20.323900 Y18.216500
  X20.313200 Y18.470700
  Y18.555400
  X20.312900 Y18.640300
  X20.322900 Y18.894700
  X20.354700 Y19.215400
  X20.408600 Y19.517400
  X20.484300 Y19.800600
  X20.581800 Y20.064900
  X20.700800 Y20.310100
  X20.841400 Y20.536400
  X20.960100 Y20.694200
  X21.003300 Y20.743600
  X21.045700 Y20.792200
  X21.183500 Y20.928800
  X21.380600 Y21.089200
  X21.594300 Y21.225000
  X21.824700 Y21.336100
  X22.071900 Y21.422500
  X22.335600 Y21.484300
  X22.615600 Y21.521400
  X22.837900 Y21.533800
  X22.911900
G0 Z25.000000
  X23.627900 Y26.824900
F100	; set feedrate
G1 Z0.000000
F300	; set feedrate
G1 Y26.783900
  X23.611400 Y26.661000
  X23.563900 Y26.508300
  X23.488600 Y26.370300
  X23.389200 Y26.249900
  X23.268500 Y26.150600
  X23.130100 Y26.075700
  X22.977400 Y26.028300
  X22.854400 Y26.011700
  X22.772400
  X22.649600 Y26.028300
  X22.496900 Y26.075700
  X22.358700 Y26.150600
  X22.238500 Y26.249900
  X22.139200 Y26.370300
  X22.064200 Y26.508300
  X22.016800 Y26.661000
  X22.000300 Y26.783900
  Y26.865800
  X22.016800 Y26.988700
  X22.064200 Y27.141400
  X22.139200 Y27.279600
  X22.238500 Y27.399900
  X22.358700 Y27.499200
  X22.496900 Y27.574200
  X22.649600 Y27.621500
  X22.772400 Y27.638100
  X22.854400
  X22.977400 Y27.621500
  X23.130100 Y27.574200
  X23.268500 Y27.499200
  X23.389200 Y27.399900
  X23.488600 Y27.279600
  X23.563900 Y27.141400
  X23.611400 Y26.988700
  X23.627900 Y26.865800
  Y26.824900
G0 Z25.000000
  X15.821400 Y26.553600
F100	; set feedrate
G1 Z0.000000
F300	; set feedrate
G1 X22.524200 Y23.494300
  X22.562600 Y14.203600
  X15.782500 Y17.878800
  X15.821400 Y26.553600
G0 Z25.000000
  X9.464310 Y13.299400
F100	; set feedrate
G1 Z0.000000
F300	; set feedrate
G1 X9.646380
  Y13.069300
  X9.464310
  Y13.299400
G0 Z25.000000
  X9.115780 Y12.836500
F100	; set feedrate
G1 Z0.000000
F300	; set feedrate
G1 Y12.664000
  X9.102600 Y12.670600
  X9.036630 Y12.698900
  X8.968640 Y12.720200
  X8.954540 Y12.723300
  X8.940750 Y12.726800
  X8.870560 Y12.738900
  X8.805240 Y12.744100
  X8.767530
  X8.719720 Y12.741300
  X8.664560 Y12.733100
  X8.617830 Y12.719700
  X8.588540 Y12.706900
  X8.579540 Y12.701400
  X8.571500 Y12.696600
  X8.549810 Y12.678200
  X8.528750 Y12.649800
  X8.516280 Y12.616200
  X8.512150 Y12.587000
  Y12.563100
  X8.524420 Y12.520600
  X8.552510 Y12.484000
  X8.560490 Y12.478100
  X8.568680 Y12.472000
  X8.633850 Y12.442700
  X8.731500 Y12.414800
  X8.755970 Y12.409300
  X8.818030 Y12.395600
  X8.850370 Y12.388700
  X8.983510 Y12.345700
  X9.078720 Y12.291100
  X9.092130 Y12.278400
  X9.102210 Y12.269100
  X9.128420 Y12.236500
  X9.154290 Y12.187400
  X9.169820 Y12.131100
  X9.175030 Y12.083400
  Y12.032900
  X9.144210 Y11.929100
  X9.072640 Y11.838500
  X9.052310 Y11.823700
  X9.032010 Y11.808500
  X8.907610 Y11.755500
  X8.765030 Y11.732700
  X8.694720
  X8.626460 Y11.737500
  X8.547690 Y11.747800
  X8.531570 Y11.750700
  X8.515350 Y11.753400
  X8.432240 Y11.772200
  X8.346360 Y11.797100
  X8.328720 Y11.802900
  Y11.990200
  X8.345260 Y11.981700
  X8.428000 Y11.944300
  X8.510740 Y11.916000
  X8.527350 Y11.911900
  X8.543460 Y11.907400
  X8.624180 Y11.891900
  X8.696290 Y11.885400
  X8.735510
  X8.781250 Y11.888100
  X8.834360 Y11.895900
  X8.879990 Y11.909300
  X8.909440 Y11.922500
  X8.918570 Y11.928100
  X8.929900 Y11.935700
  X8.970210 Y11.982200
  X8.987740 Y12.035900
  Y12.070000
  X8.975260 Y12.119000
  X8.946240 Y12.160100
  X8.937990 Y12.166600
  X8.930610 Y12.172400
  X8.905600 Y12.186200
  X8.858350 Y12.205800
  X8.796060 Y12.225100
  X8.738280 Y12.239600
  X8.718920 Y12.243900
  X8.655390 Y12.257600
  X8.627170 Y12.263500
  X8.509710 Y12.302700
  X8.423930 Y12.354600
  X8.411630 Y12.366600
  X8.402400 Y12.375800
  X8.378750 Y12.407100
  X8.355040 Y12.454400
  X8.340600 Y12.508400
  X8.335780 Y12.554000
  Y12.603800
  X8.363610 Y12.707700
  X8.428650 Y12.796000
  X8.447260 Y12.810100
  X8.465500 Y12.824300
  X8.580570 Y12.874200
  X8.716310 Y12.895800
  X8.786140
  X8.859690 Y12.891800
  X8.936900 Y12.883000
  X8.951710 Y12.880600
  X8.966530 Y12.878200
  X9.036780 Y12.862000
  X9.102970 Y12.841300
  X9.115780 Y12.836500
G0 Z25.000000
  X6.555330 Y12.453400
F100	; set feedrate
G1 Z0.000000
F300	; set feedrate
G1 X6.565970 Y12.450000
  X6.618490 Y12.419700
  X6.670460 Y12.372700
  X6.680880 Y12.361000
  X6.690810 Y12.349000
  X6.741540 Y12.276100
  X6.792970 Y12.185900
  X6.803330 Y12.165200
  X7.005810 Y11.761600
  X6.790960
  X6.602210 Y12.140500
  X6.593750 Y12.157800
  X6.566030 Y12.208500
  X6.530060 Y12.263800
  X6.494680 Y12.306900
  X6.469350 Y12.330900
  X6.460070 Y12.337700
  X6.448790 Y12.345500
  X6.378960 Y12.373500
  X6.299260 Y12.385700
  X6.055070
  Y11.761600
  X5.855420
  Y13.237300
  X6.335560
  X6.424690 Y13.230800
  X6.527180 Y13.211300
  X6.613330 Y13.178200
  X6.667580 Y13.145200
  X6.683380 Y13.131500
  X6.698790 Y13.118500
  X6.738560 Y13.071900
  X6.777780 Y12.999000
  X6.801170 Y12.912800
  X6.808970 Y12.837900
  Y12.780900
  X6.792490 Y12.684900
  X6.754670 Y12.596700
  X6.744030 Y12.581500
  X6.735940 Y12.570100
  X6.707510 Y12.538800
  X6.664070 Y12.503400
  X6.613390 Y12.475100
  X6.570100 Y12.457800
  X6.555330 Y12.453400
G0 Z25.000000
  X8.111060 Y12.361000
F100	; set feedrate
G1 Z0.000000
F300	; set feedrate
G1 Y12.271400
  X7.274630
  X7.276750 Y12.240100
  X7.308970 Y12.106000
  X7.370670 Y12.001400
  X7.387530 Y11.984900
  X7.404460 Y11.968700
  X7.508680 Y11.911600
  X7.629720 Y11.886800
  X7.695900
  X7.773440 Y11.893300
  X7.856440 Y11.908800
  X7.872610 Y11.913300
  X7.889170 Y11.917400
  X7.971140 Y11.945000
  X8.052190 Y11.981700
  X8.068360 Y11.990200
  Y11.818000
  X8.052190 Y11.811200
  X7.969400 Y11.781700
  X7.884500 Y11.758400
  X7.867290 Y11.754600
  X7.850370 Y11.751100
  X7.764170 Y11.738500
  X7.685390 Y11.732700
  X7.627760
  X7.533530 Y11.742500
  X7.421560 Y11.771500
  X7.323240 Y11.819800
  X7.257970 Y11.868100
  X7.238990 Y11.886800
  X7.219940 Y11.905900
  X7.171220 Y11.971100
  X7.122940 Y12.068800
  X7.094070 Y12.180000
  X7.084470 Y12.273400
  Y12.336700
  X7.093530 Y12.433200
  X7.120820 Y12.548200
  X7.166440 Y12.649200
  X7.212350 Y12.716300
  X7.230530 Y12.736000
  X7.248580 Y12.755300
  X7.310870 Y12.805600
  X7.403540 Y12.855600
  X7.508900 Y12.885700
  X7.597760 Y12.895800
  X7.653810
  X7.733070 Y12.886800
  X7.827040 Y12.859600
  X7.909350 Y12.814400
  X7.964360 Y12.768700
  X7.980190 Y12.751100
  X7.996360 Y12.733400
  X8.037220 Y12.673100
  X8.078130 Y12.581900
  X8.102750 Y12.477800
  X8.111060 Y12.390300
  Y12.361000
G0 Z25.000000
  X9.464310 Y12.869400
F100	; set feedrate
G1 Z0.000000
F300	; set feedrate
G1 X9.646380
  Y11.761600
  X9.464310
  Y12.869400
G0 Z25.000000
  X10.755500 Y12.701400
F100	; set feedrate
G1 Z0.000000
F300	; set feedrate
G1 Y13.299400
  X10.937500
  Y11.761600
  X10.755500
  Y11.928100
  X10.745800 Y11.911600
  X10.690400 Y11.841600
  X10.625300 Y11.788900
  X10.610800 Y11.781000
  X10.596000 Y11.773100
  X10.514200 Y11.745000
  X10.428400 Y11.732700
  X10.376000
  X10.304400 Y11.742800
  X10.218200 Y11.772900
  X10.141200 Y11.823300
  X10.088500 Y11.874700
  X10.073600 Y11.893900
  X10.057700 Y11.913800
  X10.018300 Y11.980000
  X9.979110 Y12.078800
  X9.955740 Y12.190200
  X9.947970 Y12.283100
  Y12.345100
  X9.955740 Y12.438100
  X9.979110 Y12.549800
  X10.018300 Y12.649100
  X10.057800 Y12.715900
  X10.073600 Y12.736000
  X10.088500 Y12.754900
  X10.141200 Y12.805600
  X10.218200 Y12.855600
  X10.304400 Y12.885700
  X10.376000 Y12.895800
  X10.428400
  X10.514200 Y12.883600
  X10.596000 Y12.855400
  X10.610800 Y12.847400
  X10.625300 Y12.839500
  X10.690400 Y12.786900
  X10.745800 Y12.717700
  X10.755500 Y12.701400
G0 Z25.000000
  X12.259000 Y12.361000
F100	; set feedrate
G1 Z0.000000
F300	; set feedrate
G1 Y12.271400
  X11.422600
  X11.424600 Y12.240100
  X11.456800 Y12.106000
  X11.518600 Y12.001400
  X11.535500 Y11.984900
  X11.552400 Y11.968700
  X11.657200 Y11.911600
  X11.777800 Y11.886800
  X11.843900
  X11.921400 Y11.893300
  X12.004400 Y11.908800
  X12.020600 Y11.913300
  X12.037100 Y11.917400
  X12.119500 Y11.945000
  X12.200500 Y11.981700
  X12.216400 Y11.990200
  Y11.818000
  X12.200100 Y11.811200
  X12.033200 Y11.758400
  X12.016300 Y11.754600
  X11.999100 Y11.751100
  X11.912800 Y11.738500
  X11.833500 Y11.732700
  X11.775800
  X11.681700 Y11.742500
  X11.570000 Y11.771500
  X11.471700 Y11.819800
  X11.405900 Y11.868100
  X11.386600 Y11.886800
  X11.367800 Y11.905900
  X11.319700 Y11.971100
  X11.272000 Y12.068800
  X11.243300 Y12.180000
  X11.233800 Y12.273400
  Y12.336700
  X11.242800 Y12.433200
  X11.270100 Y12.548200
  X11.315700 Y12.649200
  X11.361700 Y12.716300
  X11.379900 Y12.736000
  X11.397700 Y12.755300
  X11.459600 Y12.805600
  X11.552300 Y12.855600
  X11.657500 Y12.885700
  X11.745900 Y12.895800
  X11.801900
  X11.881300 Y12.886800
  X11.975800 Y12.859600
  X12.058500 Y12.814400
  X12.113700 Y12.768700
  X12.129600 Y12.751100
  X12.145700 Y12.733500
  X12.186400 Y12.673100
  X12.226800 Y12.581900
  X12.251000 Y12.477800
  X12.259000 Y12.390300
  Y12.361000
G0 Z25.000000
  X13.478600 Y12.429800
F100	; set feedrate
G1 Z0.000000
F300	; set feedrate
G1 Y11.761600
  X13.296600
  Y12.458900
  X13.281100 Y12.561900
  X13.245100 Y12.647000
  X13.234800 Y12.660200
  X13.227400 Y12.669500
  X13.200600 Y12.693600
  X13.158500 Y12.717700
  X13.108700 Y12.732200
  X13.065700 Y12.737000
  X13.018400
  X12.919500 Y12.713600
  X12.832600 Y12.659100
  X12.818500 Y12.643600
  X12.804400 Y12.628000
  X12.755400 Y12.532900
  X12.734600 Y12.423600
  Y11.761600
  X12.551100
  Y12.869400
  X12.734600
  Y12.697200
  X12.745200 Y12.713800
  X12.804700 Y12.784100
  X12.872500 Y12.837800
  X12.887300 Y12.846000
  X12.902100 Y12.854300
  X12.982600 Y12.883400
  X13.064100 Y12.895800
  X13.133300
  X13.259300 Y12.865900
  X13.364300 Y12.796800
  X13.380900 Y12.777200
  X13.397000 Y12.757600
  X13.453900 Y12.631500
  X13.478600 Y12.480300
  Y12.429800
G0 Z25.000000
  X14.637500 Y12.826700
F100	; set feedrate
G1 Z0.000000
F300	; set feedrate
G1 Y12.655900
  X14.624700 Y12.663200
  X14.496200 Y12.716000
  X14.483300 Y12.719400
  X14.470100 Y12.723200
  X14.405100 Y12.736100
  X14.345700 Y12.741300
  X14.286800
  X14.169300 Y12.713300
  X14.068100 Y12.647300
  X14.051800 Y12.628400
  X14.035600 Y12.609700
  X13.978600 Y12.494000
  X13.954200 Y12.359100
  Y12.269100
  X13.978600 Y12.134200
  X14.035600 Y12.017700
  X14.051800 Y11.998700
  X14.068100 Y11.980100
  X14.169300 Y11.914900
  X14.286800 Y11.886800
  X14.345700
  X14.405100 Y11.892100
  X14.470100 Y11.904200
  X14.483300 Y11.907700
  X14.496200 Y11.911500
  X14.560800 Y11.934800
  X14.624700 Y11.965300
  X14.637500 Y11.972500
  Y11.804300
  X14.625100 Y11.798500
  X14.560600 Y11.773400
  X14.493900 Y11.753800
  X14.480400 Y11.750700
  X14.466700 Y11.747800
  X14.396300 Y11.737500
  X14.329200 Y11.732700
  X14.277200
  X14.188200 Y11.742500
  X14.082500 Y11.772100
  X13.989900 Y11.821600
  X13.927800 Y11.871700
  X13.910000 Y11.891100
  X13.891700 Y11.910400
  X13.845000 Y11.976400
  X13.799000 Y12.075300
  X13.771600 Y12.187700
  X13.762600 Y12.282500
  Y12.346100
  X13.771800 Y12.442300
  X13.799500 Y12.555900
  X13.845600 Y12.655200
  X13.891800 Y12.720700
  X13.910000 Y12.739900
  X13.928500 Y12.758800
  X13.991900 Y12.807800
  X14.087200 Y12.856600
  X14.196300 Y12.886000
  X14.288500 Y12.895800
  X14.360300
  X14.469700 Y12.880900
  X14.483300 Y12.877800
  X14.496700 Y12.875100
  X14.561900 Y12.857000
  X14.625100 Y12.832600
  X14.637500 Y12.826700
G0 Z25.000000
  X14.954600 Y13.299400
F100	; set feedrate
G1 Z0.000000
F300	; set feedrate
G1 X15.136300
  Y13.069300
  X14.954600
  Y13.299400
G0 Z25.000000
  Y12.869400
F100	; set feedrate
G1 Z0.000000
F300	; set feedrate
G1 X15.136300
  Y11.761600
  X14.954600
  Y12.869400
G0 Z25.000000
  X16.383300 Y12.394200
F100	; set feedrate
G1 Z0.000000
F300	; set feedrate
G1 Y11.761600
  X16.201700
  Y11.929500
  X16.191300 Y11.912700
  X16.131500 Y11.841800
  X16.061300 Y11.788900
  X16.045700 Y11.781000
  X16.030300 Y11.773100
  X15.942500 Y11.745000
  X15.849600 Y11.732700
  X15.780400
  X15.666000 Y11.756500
  X15.564900 Y11.811800
  X15.548300 Y11.827600
  X15.531500 Y11.843800
  X15.472800 Y11.940400
  X15.447800 Y12.048100
  Y12.105900
  X15.455600 Y12.171500
  X15.478700 Y12.247800
  X15.517500 Y12.312600
  X15.556900 Y12.354000
  X15.571900 Y12.365200
  X15.592900 Y12.381000
  X15.728600 Y12.436400
  X15.892100 Y12.460100
  X16.201700
  Y12.492900
  X16.196400 Y12.537500
  X16.180800 Y12.589700
  X16.154600 Y12.634700
  X16.127900 Y12.664300
  X16.117800 Y12.672500
  X16.104200 Y12.683900
  X16.019400 Y12.724000
  X15.920400 Y12.741300
  X15.863900
  X15.793300 Y12.736100
  X15.716500 Y12.723200
  X15.701400 Y12.719400
  X15.686500 Y12.715600
  X15.613700 Y12.690500
  X15.543100 Y12.657900
  X15.529300 Y12.650300
  Y12.818500
  X15.545800 Y12.825100
  X15.627200 Y12.852700
  X15.706400 Y12.873300
  X15.721900 Y12.876400
  X15.737800 Y12.879500
  X15.815100 Y12.890700
  X15.882800 Y12.895800
  X15.933300
  X16.017600 Y12.888100
  X16.115100 Y12.864800
  X16.197500 Y12.826000
  X16.249900 Y12.787100
  X16.264900 Y12.771600
  X16.279700 Y12.755800
  X16.316500 Y12.700800
  X16.353600 Y12.614400
  X16.375800 Y12.512200
  X16.383300 Y12.423700
  Y12.394200
G0 Z25.000000
  X18.129600 Y12.701400
F100	; set feedrate
G1 Z0.000000
F300	; set feedrate
G1 Y13.299400
  X18.312800
  Y11.761600
  X18.129600
  Y11.928100
  X18.120300 Y11.911600
  X18.065300 Y11.841600
  X17.999400 Y11.788900
  X17.984600 Y11.781000
  X17.970100 Y11.773100
  X17.888700 Y11.745000
  X17.803800 Y11.732700
  X17.751500
  X17.679700 Y11.742800
  X17.593200 Y11.772900
  X17.515800 Y11.823300
  X17.462500 Y11.874700
  X17.447400 Y11.893900
  X17.431800 Y11.913900
  X17.392900 Y11.980000
  X17.353700 Y12.078800
  X17.330000 Y12.190200
  X17.322100 Y12.283100
  Y12.345100
  X17.330000 Y12.438100
  X17.353700 Y12.549800
  X17.392900 Y12.649100
  X17.431800 Y12.715800
  X17.447400 Y12.736000
  X17.462500 Y12.754900
  X17.515800 Y12.805600
  X17.593200 Y12.855600
  X17.679700 Y12.885700
  X17.751500 Y12.895800
  X17.803800
  X17.888700 Y12.883600
  X17.970100 Y12.855400
  X17.984600 Y12.847400
  X17.999400 Y12.839500
  X18.065300 Y12.786900
  X18.120300 Y12.717700
  X18.129600 Y12.701400
G0 Z25.000000
  X19.634200 Y12.361000
F100	; set feedrate
G1 Z0.000000
F300	; set feedrate
G1 Y12.271400
  X18.797800
  X18.799900 Y12.240100
  X18.832100 Y12.106000
  X18.893700 Y12.001400
  X18.910700 Y11.984900
  X18.927600 Y11.968700
  X19.031800 Y11.911600
  X19.152900 Y11.886800
  X19.218800
  X19.295700 Y11.893300
  X19.379200 Y11.908800
  X19.395700 Y11.913300
  X19.412200 Y11.917400
  X19.494300 Y11.945000
  X19.575400 Y11.981700
  X19.591500 Y11.990200
  Y11.818000
  X19.575400 Y11.811200
  X19.492500 Y11.781700
  X19.407600 Y11.758400
  X19.390400 Y11.754600
  X19.373500 Y11.751100
  X19.287200 Y11.738500
  X19.208500 Y11.732700
  X19.150800
  X19.056800 Y11.742500
  X18.944900 Y11.771500
  X18.846500 Y11.819800
  X18.781300 Y11.868100
  X18.762200 Y11.886800
  X18.743100 Y11.905900
  X18.694300 Y11.971100
  X18.646100 Y12.068800
  X18.617200 Y12.180000
  X18.607600 Y12.273400
  Y12.336700
  X18.616700 Y12.433200
  X18.644000 Y12.548200
  X18.689600 Y12.649200
  X18.735600 Y12.716300
  X18.753800 Y12.736000
  X18.771500 Y12.755300
  X18.833600 Y12.805600
  X18.926200 Y12.855600
  X19.031900 Y12.885700
  X19.120800 Y12.895800
  X19.176900
  X19.256200 Y12.886800
  X19.350100 Y12.859600
  X19.432500 Y12.814400
  X19.487500 Y12.768700
  X19.503300 Y12.751100
  X19.519400 Y12.733400
  X19.560400 Y12.673100
  X19.601300 Y12.581900
  X19.626000 Y12.477800
  X19.634200 Y12.390300
  Y12.361000
G0 Z25.000000
  X20.380000 Y13.237300
F100	; set feedrate
G1 Z0.000000
F300	; set feedrate
G1 X21.628500
  Y13.069300
  X21.104600
  Y11.761600
  X20.903500
  Y13.069300
  X20.380000
  Y13.237300
G0 Z25.000000
  X18.776500 Y16.427600
F100	; set feedrate
G1 Z0.000000
F300	; set feedrate
G1 Y16.340000
  X18.766400 Y16.077500
  X18.736100 Y15.750800
  X18.685700 Y15.447400
  X18.615100 Y15.167200
  X18.524600 Y14.910300
  X18.413800 Y14.676400
  X18.282900 Y14.465600
  X18.172400 Y14.322200
  X18.131800 Y14.277800
  X18.091500 Y14.233900
  X17.959000 Y14.111900
  X17.765400 Y13.968500
  X17.550600 Y13.847300
  X17.314700 Y13.748300
  X17.057400 Y13.671500
  X16.778700 Y13.616700
  X16.478600 Y13.583900
  X16.237400 Y13.573000
  X16.156900
  X16.074400 Y13.572100
  X15.677800 Y13.590400
  X15.301000 Y13.635400
  X15.228200 Y13.647800
  X15.154700 Y13.660100
  X14.796900 Y13.742200
  X14.449000 Y13.851300
  X14.380600 Y13.877000
  Y14.789200
  X14.448500 Y14.751100
  X14.789000 Y14.591900
  X15.127500 Y14.472900
  X15.194600 Y14.454900
  X15.261300 Y14.436700
  X15.600000 Y14.373500
  X15.910300 Y14.346800
  X16.013700
  X16.069400 Y14.346700
  X16.236500 Y14.353600
  X16.444900 Y14.375700
  X16.638900 Y14.412900
  X16.818500 Y14.465100
  X16.983700 Y14.532400
  X17.134400 Y14.614600
  X17.270700 Y14.711500
  X17.363900 Y14.793500
  X17.392500 Y14.823200
  X17.421000 Y14.852800
  X17.499200 Y14.948800
  X17.591900 Y15.090100
  X17.670600 Y15.247100
  X17.735100 Y15.419600
  X17.785400 Y15.607400
  X17.821400 Y15.810600
  X17.843100 Y16.028600
  X17.850400 Y16.203500
  Y16.724000
  X17.815000 Y16.663100
  X17.694700 Y16.488600
  X17.519600 Y16.286000
  X17.324600 Y16.115600
  X17.165100 Y16.007200
  X17.109000 Y15.976400
  X17.052200 Y15.944600
  X16.872100 Y15.866500
  X16.612900 Y15.789400
  X16.331500 Y15.744000
  X16.103700 Y15.729000
  X15.964000
  X15.772600 Y15.741400
  X15.530000 Y15.778700
  X15.300400 Y15.840800
  X15.083500 Y15.927600
  X14.879200 Y16.039400
  X14.687800 Y16.176000
  X14.508900 Y16.337400
  X14.381800 Y16.475000
  X14.342800 Y16.523500
  X14.302500 Y16.573100
  X14.191700 Y16.730000
  X14.061200 Y16.952600
  X13.951200 Y17.191700
  X13.861600 Y17.446800
  X13.792100 Y17.718200
  X13.742600 Y18.005600
  X13.713100 Y18.309200
  X13.703200 Y18.548900
  Y18.628800
  X13.702800 Y18.708800
  X13.712100 Y18.948500
  X13.741600 Y19.252500
  X13.791400 Y19.540700
  X13.861700 Y19.812800
  X13.952100 Y20.068900
  X14.062400 Y20.308600
  X14.192800 Y20.532100
  X14.302800 Y20.689300
  X14.342800 Y20.739000
  X14.381500 Y20.787400
  X14.507800 Y20.924300
  X14.686300 Y21.085300
  X14.877800 Y21.221800
  X15.082400 Y21.333800
  X15.299700 Y21.421100
  X15.529900 Y21.483600
  X15.772600 Y21.521100
  X15.964000 Y21.533800
  X16.027900
  X16.103700 Y21.532900
  X16.331100 Y21.516400
  X16.612600 Y21.470100
  X16.871900 Y21.393900
  X17.052100 Y21.317200
  X17.109000 Y21.286100
  X17.165100 Y21.255300
  X17.324700 Y21.146400
  X17.520100 Y20.975400
  X17.695400 Y20.772800
  X17.815300 Y20.599300
  X17.850400 Y20.538800
  Y21.395400
  X18.776500
  Y16.427600
G0 Z25.000000
  X15.821400 Y26.553600
F100	; set feedrate
G1 Z0.000000
F300	; set feedrate
G1 X22.524200 Y23.494300
  X22.562600 Y14.203600
  X15.782500 Y17.878800
  X15.821400 Y26.553600
G0 Z25.000000
  X12.549600 Y18.798900
F100	; set feedrate
G1 Z0.000000
F300	; set feedrate
G1 Y18.341200
  X8.264260
  X8.267680 Y18.282500
  X8.285860 Y18.106900
  X8.322210 Y17.887200
  X8.373100 Y17.681800
  X8.438530 Y17.490700
  X8.518330 Y17.314000
  X8.612570 Y17.151800
  X8.721030 Y17.003900
  X8.811250 Y16.901900
  X8.843690 Y16.870300
  X8.875820 Y16.838800
  X8.979490 Y16.751700
  X9.128150 Y16.648700
  X9.289650 Y16.561900
  X9.464030 Y16.491000
  X9.651100 Y16.435700
  X9.850970 Y16.396400
  X10.063500 Y16.372800
  X10.232500 Y16.364900
  X10.288800
  X10.377900 Y16.364000
  X10.816500 Y16.396400
  X11.244800 Y16.474300
  X11.328700 Y16.496100
  X11.412500 Y16.517800
  X11.830200 Y16.659900
  X12.245800 Y16.846300
  X12.328500 Y16.890000
  Y16.005400
  X12.244900 Y15.969600
  X11.821100 Y15.819400
  X11.389300 Y15.704700
  X11.301600 Y15.686500
  X11.213800 Y15.667200
  X10.771700 Y15.602600
  X10.369000 Y15.576900
  X10.152100
  X9.904190 Y15.589200
  X9.591530 Y15.626200
  X9.296710 Y15.687900
  X9.019640 Y15.774300
  X8.760250 Y15.885400
  X8.518560 Y16.021400
  X8.294430 Y16.181800
  X8.136830 Y16.318200
  X8.087830 Y16.367100
  X8.038510 Y16.415600
  X7.901320 Y16.572100
  X7.740130 Y16.795100
  X7.604060 Y17.036200
  X7.493000 Y17.295000
  X7.406900 Y17.571400
  X7.345540 Y17.865300
  X7.308810 Y18.176400
  X7.296600 Y18.422600
  Y18.504600
  X7.296220 Y18.589200
  X7.307240 Y18.842800
  X7.341960 Y19.163500
  X7.400610 Y19.466800
  X7.483010 Y19.752400
  X7.589140 Y20.020300
  X7.718750 Y20.270100
  X7.871810 Y20.501900
  X8.001310 Y20.664700
  X8.048130 Y20.715600
  X8.094070 Y20.766000
  X8.242940 Y20.907200
  X8.454750 Y21.073500
  X8.683490 Y21.214000
  X8.928930 Y21.329200
  X9.190920 Y21.418600
  X9.469290 Y21.482600
  X9.764000 Y21.521000
  X9.997070 Y21.533800
  X10.074800
  X10.144200 Y21.533300
  X10.352200 Y21.521000
  X10.615200 Y21.485800
  X10.863700 Y21.428300
  X11.097600 Y21.348200
  X11.316700 Y21.245300
  X11.520900 Y21.119300
  X11.710100 Y20.970300
  X11.843000 Y20.843300
  X11.884100 Y20.798100
  X11.925400 Y20.751800
  X12.039900 Y20.604700
  X12.175000 Y20.395400
  X12.289400 Y20.170100
  X12.383000 Y19.928900
  X12.455900 Y19.671200
  X12.507900 Y19.397100
  X12.539200 Y19.106400
  X12.549600 Y18.875700
  Y18.798900
G0 Z25.000000
  X6.935440 Y20.524900
F100	; set feedrate
G1 Z0.000000
F300	; set feedrate
G1 X6.908640 Y20.539900
  X6.770830 Y20.604600
  X6.625220 Y20.653600
  X6.594510 Y20.660800
  X6.563750 Y20.668100
  X6.400760 Y20.693500
  X6.241380 Y20.704400
  X6.140190
  X5.996040 Y20.696100
  X5.815810 Y20.671900
  X5.647460 Y20.631700
  X5.490830 Y20.575400
  X5.345760 Y20.503200
  X5.212240 Y20.414900
  X5.090000 Y20.310300
  X5.004930 Y20.221400
  X4.979060 Y20.189700
  X4.952260 Y20.157400
  X4.879350 Y20.053900
  X4.793290 Y19.904000
  X4.720760 Y19.740300
  X4.661740 Y19.562500
  X4.616000 Y19.370800
  X4.583500 Y19.165000
  X4.564010 Y18.945300
  X4.557610 Y18.769900
  Y15.729000
  X3.617740
  Y21.395400
  X4.557610
  Y20.511000
  X4.592890 Y20.573600
  X4.714420 Y20.753100
  X4.894040 Y20.962500
  X5.096030 Y21.138900
  X5.261610 Y21.250400
  X5.319990 Y21.281800
  X5.379500 Y21.313100
  X5.566890 Y21.390400
  X5.839510 Y21.469300
  X6.137640 Y21.517500
  X6.379990 Y21.533800
  X6.460830
  X6.476350 Y21.532600
  X6.561080 Y21.528600
  X6.653490 Y21.522100
  X6.672850 Y21.519900
  X6.691400 Y21.516400
  X6.794110 Y21.501000
  X6.906850 Y21.483100
  X6.930440 Y21.478300
  X6.935440 Y20.524900
G0 Z25.000000
  X4.460890 Y24.161000
F100	; set feedrate
G1 Z0.000000
F300	; set feedrate
G1 Y24.115800
  X4.443250 Y23.980000
  X4.392850 Y23.811300
  X4.313040 Y23.658500
  X4.207360 Y23.525300
  X4.079260 Y23.415300
  X3.932180 Y23.332400
  X3.769690 Y23.279700
  X3.638780 Y23.261400
  X3.551540
  X3.420680 Y23.279700
  X3.258250 Y23.332400
  X3.111280 Y23.415300
  X2.983180 Y23.525300
  X2.877560 Y23.658500
  X2.797790 Y23.811300
  X2.747350 Y23.980000
  X2.729820 Y24.115800
  Y24.206400
  X2.747350 Y24.342500
  X2.797790 Y24.511500
  X2.877560 Y24.664400
  X2.983180 Y24.797600
  X3.111280 Y24.907500
  X3.258250 Y24.990300
  X3.420680 Y25.042800
  X3.551540 Y25.061000
  X3.638780
  X3.769690 Y25.042800
  X3.932180 Y24.990300
  X4.079260 Y24.907500
  X4.207360 Y24.797600
  X4.313040 Y24.664400
  X4.392850 Y24.511500
  X4.443250 Y24.342500
  X4.460890 Y24.206400
  Y24.161000
G0 Z25.000000
  X5.491320
F100	; set feedrate
G1 Z0.000000
F300	; set feedrate
G1 Y24.108700
  X5.481010 Y23.952100
  X5.450470 Y23.746700
  X5.400220 Y23.546100
  X5.330890 Y23.351900
  X5.242890 Y23.165600
  X5.136830 Y22.988100
  X5.013180 Y22.821300
  X4.909500 Y22.702900
  X4.872560 Y22.666000
  X4.835610 Y22.629000
  X4.717390 Y22.525400
  X4.550290 Y22.401700
  X4.372670 Y22.295400
  X4.185930 Y22.207100
  X3.991490 Y22.137400
  X3.790750 Y22.086900
  X3.585120 Y22.056300
  X3.428330 Y22.045800
  X3.323790
  X3.166990 Y22.056300
  X2.961430 Y22.086900
  X2.760690 Y22.137400
  X2.566290 Y22.207100
  X2.379560 Y22.295400
  X2.201930 Y22.401700
  X2.034830 Y22.525400
  X1.916560 Y22.629000
  X1.879610 Y22.666000
  X1.842610 Y22.702900
  X1.739040 Y22.821300
  X1.615460 Y22.988100
  X1.509390 Y23.165600
  X1.421390 Y23.351900
  X1.351940 Y23.546100
  X1.301700 Y23.746700
  X1.271160 Y23.952100
  X1.260850 Y24.108700
  Y24.215100
  X1.271760 Y24.377500
  X1.303770 Y24.587500
  X1.355900 Y24.790300
  X1.427030 Y24.984600
  X1.516060 Y25.169600
  X1.622010 Y25.344000
  X1.743760 Y25.506800
  X1.880320 Y25.656900
  X2.030490 Y25.793500
  X2.193310 Y25.915100
  X2.367740 Y26.021100
  X2.552630 Y26.110100
  X2.746960 Y26.181300
  X2.949710 Y26.233300
  X3.159780 Y26.265400
  X3.322000 Y26.276300
  X3.430120
  X3.592390 Y26.265400
  X3.802510 Y26.233300
  X4.005260 Y26.181300
  X4.199600 Y26.110100
  X4.384560 Y26.021100
  X4.558920 Y25.915100
  X4.721740 Y25.793500
  X4.871960 Y25.656900
  X5.008460 Y25.506800
  X5.130150 Y25.344000
  X5.236110 Y25.169600
  X5.325140 Y24.984600
  X5.396210 Y24.790300
  X5.448350 Y24.587500
  X5.480360 Y24.377500
  X5.491320 Y24.215100
  Y24.161000
G0 Z25.000000
  X37.467500 Y12.414600
F100	; set feedrate
G1 Z0.000000
F300	; set feedrate
G1 X37.467100 Y12.439500
  X37.445600 Y12.548400
  X37.397200 Y12.638000
  X37.383500 Y12.653100
  X37.373700 Y12.663800
  X37.339700 Y12.691900
  X37.289200 Y12.719400
  X37.232100 Y12.735800
  X37.184300 Y12.741300
  X37.133900
  X37.031000 Y12.719800
  X36.939700 Y12.670000
  X36.924600 Y12.655900
  X36.909300 Y12.641500
  X36.852500 Y12.552200
  X36.821900 Y12.439700
  X36.819700 Y12.413500
  X37.467500 Y12.414600
G0 Z25.000000
  X35.423900 Y12.314100
F100	; set feedrate
G1 Z0.000000
F300	; set feedrate
G1 Y12.358800
  X35.403200 Y12.492900
  X35.355000 Y12.609400
  X35.341300 Y12.628400
  X35.327400 Y12.647700
  X35.243600 Y12.714500
  X35.147200 Y12.742700
  X35.082800
  X34.986100 Y12.714500
  X34.901700 Y12.647700
  X34.887900 Y12.628400
  X34.874000 Y12.609400
  X34.825700 Y12.492900
  X34.805000 Y12.358800
  Y12.269400
  X34.825700 Y12.135100
  X34.874000 Y12.018000
  X34.887900 Y11.998700
  X34.901700 Y11.979800
  X34.986100 Y11.913600
  X35.082800 Y11.885400
  X35.147200
  X35.243600 Y11.913600
  X35.327400 Y11.979800
  X35.341300 Y11.998700
  X35.355000 Y12.018000
  X35.403200 Y12.135100
  X35.423900 Y12.269400
  Y12.314100
G0 Z25.000000
  X30.502900 Y12.318300
F100	; set feedrate
G1 Z0.000000
F300	; set feedrate
G1 X30.456100
  X30.315800 Y12.305700
  X30.211100 Y12.275800
  X30.197100 Y12.267100
  X30.186900 Y12.261300
  X30.159900 Y12.238100
  X30.133100 Y12.200000
  X30.116800 Y12.152900
  X30.111400 Y12.110600
  Y12.074700
  X30.127600 Y12.009400
  X30.164400 Y11.951900
  X30.174900 Y11.942200
  X30.185600 Y11.932900
  X30.250400 Y11.899800
  X30.325000 Y11.885400
  X30.383700
  X30.485400 Y11.912200
  X30.576000 Y11.974100
  X30.591100 Y11.991600
  X30.606700 Y12.009500
  X30.660600 Y12.117500
  X30.683500 Y12.238200
  Y12.318300
  X30.502900
G0 Z25.000000
  X28.879400 Y12.327800
F100	; set feedrate
G1 Z0.000000
F300	; set feedrate
G1 Y12.371800
  X28.859400 Y12.503700
  X28.811900 Y12.616900
  X28.798300 Y12.635100
  X28.784700 Y12.653100
  X28.700400 Y12.715900
  X28.602100 Y12.742700
  X28.536700
  X28.439000 Y12.715900
  X28.354400 Y12.653100
  X28.340800 Y12.635100
  X28.327400 Y12.616900
  X28.280600 Y12.503700
  X28.260700 Y12.371800
  Y12.284200
  X28.280600 Y12.153400
  X28.327400 Y12.041300
  X28.340800 Y12.023400
  X28.354400 Y12.005200
  X28.439000 Y11.941500
  X28.536700 Y11.914400
  X28.602100
  X28.700400 Y11.941500
  X28.784700 Y12.005200
  X28.798300 Y12.023400
  X28.811900 Y12.041300
  X28.859400 Y12.153400
  X28.879400 Y12.284200
  Y12.327800
G0 Z25.000000
  X27.341700 Y12.741300
F100	; set feedrate
G1 Z0.000000
F300	; set feedrate
G1 X27.308900
  X27.210600 Y12.712600
  X27.124300 Y12.645900
  X27.110300 Y12.627000
  X27.096100 Y12.608000
  X27.046200 Y12.491700
  X27.024600 Y12.358500
  Y12.269700
  X27.046000 Y12.136500
  X27.095000 Y12.020400
  X27.108900 Y12.001500
  X27.123300 Y11.982600
  X27.210300 Y11.915800
  X27.308700 Y11.886800
  X27.374200
  X27.471700 Y11.915900
  X27.557500 Y11.983300
  X27.571700 Y12.002600
  X27.585800 Y12.021500
  X27.635600 Y12.137700
  X27.657100 Y12.270000
  Y12.358200
  X27.635600 Y12.490400
  X27.585800 Y12.606600
  X27.571700 Y12.625500
  X27.557500 Y12.644900
  X27.471700 Y12.712400
  X27.374200 Y12.741300
  X27.341700
G0 Z25.000000
  X25.540400
F100	; set feedrate
G1 Z0.000000
F300	; set feedrate
G1 X25.507600
  X25.409200 Y12.712600
  X25.323100 Y12.645900
  X25.309000 Y12.627000
  X25.294900 Y12.608000
  X25.245100 Y12.491700
  X25.223600 Y12.358500
  Y12.269700
  X25.245000 Y12.136500
  X25.293800 Y12.020400
  X25.307500 Y12.001500
  X25.321700 Y11.982600
  X25.408500 Y11.915800
  X25.507500 Y11.886800
  X25.572900
  X25.670700 Y11.915900
  X25.756700 Y11.983300
  X25.770800 Y12.002600
  X25.784900 Y12.021500
  X25.834600 Y12.137700
  X25.856100 Y12.270000
  Y12.358200
  X25.834600 Y12.490400
  X25.784900 Y12.606600
  X25.770800 Y12.625500
  X25.756700 Y12.644900
  X25.670700 Y12.712400
  X25.572900 Y12.741300
  X25.540400
G0 Z25.000000
  X22.234600 Y12.414600
F100	; set feedrate
G1 Z0.000000
F300	; set feedrate
G1 X22.234200 Y12.439500
  X22.212100 Y12.548400
  X22.163900 Y12.638000
  X22.150600 Y12.653100
  X22.140600 Y12.663800
  X22.106100 Y12.691900
  X22.055400 Y12.719400
  X21.998200 Y12.735800
  X21.950300 Y12.741300
  X21.900100
  X21.797800 Y12.719800
  X21.705700 Y12.670000
  X21.690300 Y12.655900
  X21.675000 Y12.641500
  X21.618800 Y12.552200
  X21.588100 Y12.439700
  X21.585800 Y12.413500
  X22.234600 Y12.414600
G0 Z25.000000
  X19.452500
F100	; set feedrate
G1 Z0.000000
F300	; set feedrate
G1 X19.452100 Y12.439500
  X19.430000 Y12.548400
  X19.381700 Y12.638000
  X19.368200 Y12.653100
  X19.358500 Y12.663900
  X19.324400 Y12.691900
  X19.273600 Y12.719400
  X19.216000 Y12.735800
  X19.167900 Y12.741300
  X19.117800
  X19.015600 Y12.719800
  X18.923600 Y12.670000
  X18.908200 Y12.655900
  X18.893100 Y12.641500
  X18.836500 Y12.552200
  X18.805800 Y12.439700
  X18.803300 Y12.413500
  X19.452500 Y12.414600
G0 Z25.000000
  X17.510800 Y12.314100
F100	; set feedrate
G1 Z0.000000
F300	; set feedrate
G1 Y12.269400
  X17.531300 Y12.135100
  X17.578600 Y12.018000
  X17.591900 Y11.998700
  X17.605700 Y11.979800
  X17.690100 Y11.913600
  X17.787100 Y11.885400
  X17.851700
  X17.948600 Y11.913600
  X18.032900 Y11.979800
  X18.046700 Y11.998700
  X18.060400 Y12.018000
  X18.108700 Y12.135100
  X18.129600 Y12.269400
  Y12.358800
  X18.108700 Y12.492900
  X18.060400 Y12.609400
  X18.046700 Y12.628400
  X18.032900 Y12.647700
  X17.948600 Y12.714500
  X17.851700 Y12.742700
  X17.787100
  X17.690100 Y12.714500
  X17.605700 Y12.647700
  X17.591900 Y12.628400
  X17.578600 Y12.609400
  X17.531300 Y12.492900
  X17.510800 Y12.358800
  Y12.314100
G0 Z25.000000
  X16.019600 Y12.318300
F100	; set feedrate
G1 Z0.000000
F300	; set feedrate
G1 X15.973200
  X15.833800 Y12.305700
  X15.729300 Y12.275800
  X15.715100 Y12.267100
  X15.705100 Y12.261300
  X15.678100 Y12.238100
  X15.651300 Y12.200000
  X15.635100 Y12.152900
  X15.629900 Y12.110600
  Y12.074700
  X15.645300 Y12.009400
  X15.682400 Y11.951900
  X15.692900 Y11.942200
  X15.703600 Y11.932900
  X15.768500 Y11.899800
  X15.842200 Y11.885400
  X15.900800
  X16.002900 Y11.912200
  X16.094000 Y11.974100
  X16.109300 Y11.991600
  X16.124400 Y12.009500
  X16.178200 Y12.117500
  X16.201700 Y12.238200
  Y12.318300
  X16.019600
G0 Z25.000000
  X12.077000 Y12.414600
F100	; set feedrate
G1 Z0.000000
F300	; set feedrate
G1 X12.076600 Y12.439500
  X12.055100 Y12.548400
  X12.006800 Y12.638000
  X11.993100 Y12.653100
  X11.983300 Y12.663800
  X11.949400 Y12.691900
  X11.899100 Y12.719400
  X11.842000 Y12.735800
  X11.794200 Y12.741300
  X11.743800
  X11.640600 Y12.719800
  X11.549200 Y12.670000
  X11.534100 Y12.655900
  X11.518900 Y12.641500
  X11.462100 Y12.552200
  X11.431400 Y12.439700
  X11.429300 Y12.413500
  X12.077000 Y12.414600
G0 Z25.000000
  X10.135300 Y12.314100
F100	; set feedrate
G1 Z0.000000
F300	; set feedrate
G1 Y12.269400
  X10.156100 Y12.135100
  X10.204400 Y12.018000
  X10.218200 Y11.998700
  X10.231900 Y11.979800
  X10.316300 Y11.913600
  X10.413100 Y11.885400
  X10.477800
  X10.574800 Y11.913600
  X10.659200 Y11.979800
  X10.673000 Y11.998700
  X10.686700 Y12.018000
  X10.734800 Y12.135100
  X10.755500 Y12.269400
  Y12.358800
  X10.734800 Y12.492900
  X10.686700 Y12.609400
  X10.673000 Y12.628400
  X10.659200 Y12.647700
  X10.574800 Y12.714500
  X10.477800 Y12.742700
  X10.413100
  X10.316300 Y12.714500
  X10.231900 Y12.647700
  X10.218200 Y12.628400
  X10.204400 Y12.609400
  X10.156100 Y12.492900
  X10.135300 Y12.358800
  Y12.314100
G0 Z25.000000
  X7.929360 Y12.414600
F100	; set feedrate
G1 Z0.000000
F300	; set feedrate
G1 X7.928990 Y12.439500
  X7.906900 Y12.548400
  X7.858510 Y12.638000
  X7.845060 Y12.653100
  X7.835290 Y12.663900
  X7.801220 Y12.691900
  X7.750430 Y12.719400
  X7.692820 Y12.735800
  X7.644810 Y12.741300
  X7.594670
  X7.492350 Y12.719800
  X7.400440 Y12.670000
  X7.385040 Y12.655900
  X7.369850 Y12.641500
  X7.313470 Y12.552200
  X7.282670 Y12.439700
  X7.280280 Y12.413500
  X7.929360 Y12.414600
G0 Z25.000000
  X6.055070 Y13.073600
F100	; set feedrate
G1 Z0.000000
F300	; set feedrate
G1 Y12.549700
  X6.322810
  X6.373690 Y12.553900
  X6.432720 Y12.566300
  X6.482690 Y12.587100
  X6.514380 Y12.607700
  X6.523540 Y12.616000
  X6.532710 Y12.624200
  X6.556150 Y12.653200
  X6.579370 Y12.698500
  X6.593320 Y12.751700
  X6.597990 Y12.797600
  Y12.828000
  X6.593320 Y12.873100
  X6.579370 Y12.925600
  X6.556150 Y12.970300
  X6.532670 Y12.999200
  X6.523540 Y13.007300
  X6.514380 Y13.015700
  X6.482690 Y13.036200
  X6.432720 Y13.057000
  X6.373690 Y13.069400
  X6.322810 Y13.073600
  X6.055070
G0 Z25.000000
  X11.623400 Y19.073600
F100	; set feedrate
G1 Z0.000000
F300	; set feedrate
G1 X11.621900 Y19.163900
  X11.592100 Y19.434300
  X11.510500 Y19.758200
  X11.378200 Y20.044200
  X11.246400 Y20.235000
  X11.194600 Y20.291200
  X11.143400 Y20.346000
  X10.967400 Y20.489300
  X10.707300 Y20.631400
  X10.413600 Y20.717200
  X10.167800 Y20.746000
  X10.085900
  X9.992740 Y20.745800
  X9.713370 Y20.718100
  X9.381290 Y20.635700
  X9.088760 Y20.498500
  X8.892740 Y20.360400
  X8.835010 Y20.306300
  X8.776580 Y20.251500
  X8.624140 Y20.063100
  X8.464310 Y19.776100
  X8.354710 Y19.444900
  X8.303060 Y19.163200
  X8.294650 Y19.068500
  X11.623400 Y19.073600
G0 Z25.000000
  X17.850400 Y18.628800
F100	; set feedrate
G1 Z0.000000
F300	; set feedrate
G1 X17.850100 Y18.690100
  X17.843200 Y18.874300
  X17.823500 Y19.106100
  X17.790700 Y19.324000
  X17.745000 Y19.528100
  X17.686400 Y19.717900
  X17.614700 Y19.893600
  X17.529900 Y20.054900
  X17.458300 Y20.166400
  X17.431900 Y20.201700
  X17.406300 Y20.235800
  X17.321700 Y20.332500
  X17.201100 Y20.445800
  X17.070100 Y20.541800
  X16.928800 Y20.620300
  X16.776800 Y20.681300
  X16.614400 Y20.725000
  X16.441500 Y20.751100
  X16.303800 Y20.759900
  X16.257900
  X16.212100 Y20.759700
  X16.074600 Y20.750800
  X15.902100 Y20.724400
  X15.740300 Y20.680800
  X15.589300 Y20.619900
  X15.448800 Y20.541500
  X15.318700 Y20.445700
  X15.198900 Y20.332500
  X15.114900 Y20.235800
  X15.089300 Y20.201700
  X15.062600 Y20.166400
  X14.990400 Y20.055000
  X14.905000 Y19.894000
  X14.833100 Y19.718800
  X14.774400 Y19.529300
  X14.728900 Y19.325600
  X14.696700 Y19.107600
  X14.677400 Y18.875300
  X14.670800 Y18.690400
  Y18.628800
  X14.670700 Y18.567200
  X14.676800 Y18.382400
  X14.696100 Y18.150700
  X14.728600 Y17.933500
  X14.774600 Y17.730700
  X14.833800 Y17.542200
  X14.905800 Y17.367800
  X14.991100 Y17.207500
  X15.062900 Y17.096300
  X15.089300 Y17.061000
  X15.114600 Y17.026700
  X15.198200 Y16.929000
  X15.318100 Y16.815100
  X15.448500 Y16.719000
  X15.589600 Y16.640800
  X15.741100 Y16.580300
  X15.903100 Y16.537200
  X16.075400 Y16.511400
  X16.212400 Y16.502900
  X16.257900
  X16.303600 Y16.502600
  X16.440600 Y16.510700
  X16.613200 Y16.536400
  X16.775700 Y16.579900
  X16.927900 Y16.641100
  X17.069700 Y16.720000
  X17.201100 Y16.816400
  X17.321900 Y16.930100
  X17.406400 Y17.026900
  X17.431900 Y17.061000
  X17.458300 Y17.096000
  X17.529600 Y17.206400
  X17.614400 Y17.366500
  X17.686300 Y17.541200
  X17.745300 Y17.730400
  X17.791100 Y17.934000
  X17.824000 Y18.151500
  X17.843800 Y18.383200
  X17.850400 Y18.567400
  Y18.628800
G0 Z25.000000
  X22.914600 Y20.746000
F100	; set feedrate
G1 Z0.000000
F300	; set feedrate
G1 X22.868900 Y20.745800
  X22.732100 Y20.736500
  X22.559400 Y20.708900
  X22.396500 Y20.663200
  X22.243600 Y20.599200
  X22.100600 Y20.516800
  X21.967200 Y20.416400
  X21.843600 Y20.297500
  X21.756400 Y20.196000
  X21.729900 Y20.160300
  X21.702200 Y20.123300
  X21.626800 Y20.006900
  X21.537900 Y19.840300
  X21.462900 Y19.660000
  X21.401900 Y19.466200
  X21.354900 Y19.258900
  X21.321300 Y19.037900
  X21.301200 Y18.803500
  X21.294600 Y18.617400
  Y18.555400
  X21.294400 Y18.493300
  X21.300700 Y18.306700
  X21.320700 Y18.071900
  X21.354400 Y17.851000
  X21.402100 Y17.643600
  X21.463100 Y17.450000
  X21.537800 Y17.270000
  X21.626000 Y17.103500
  X21.700300 Y16.987200
  X21.727500 Y16.950400
  X21.753600 Y16.914300
  X21.839900 Y16.811900
  X21.962800 Y16.692400
  X22.096100 Y16.591700
  X22.239600 Y16.509600
  X22.393300 Y16.446100
  X22.557200 Y16.400800
  X22.731000 Y16.373900
  X22.868600 Y16.364900
  X22.914600
  X22.959900 Y16.364600
  X23.095700 Y16.373100
  X23.267100 Y16.400100
  X23.429000 Y16.446000
  X23.581400 Y16.510600
  X23.724000 Y16.593600
  X23.856900 Y16.695100
  X23.980400 Y16.815000
  X24.067500 Y16.917100
  X24.094000 Y16.952900
  X24.149300 Y17.027500
  X24.284400 Y17.273500
  X24.420400 Y17.647500
  X24.502200 Y18.074900
  X24.529400 Y18.435300
  Y18.555400
  X24.529000 Y18.674900
  X24.501400 Y19.032800
  X24.419900 Y19.459000
  X24.284200 Y19.833300
  X24.149200 Y20.080400
  X24.094000 Y20.155300
  X24.067500 Y20.191000
  X23.980400 Y20.292800
  X23.857100 Y20.412400
  X23.724000 Y20.513900
  X23.581500 Y20.597100
  X23.429200 Y20.662100
  X23.267400 Y20.708600
  X23.095700 Y20.736700
  X22.959900 Y20.746000
  X22.914600
G0 Z25.000000
  X16.073200 Y27.096500
F100	; set feedrate
G1 Z0.000000
F300	; set feedrate
G1 X22.853300 Y23.920100
  X29.554700 Y27.096500
  X22.736100 Y29.729700
  X16.073200 Y27.096500
G0 Z25.000000
  X29.845700 Y26.558900
F100	; set feedrate
G1 Z0.000000
F300	; set feedrate
G1 X23.065700 Y23.461100
  Y14.203600
  X29.806900 Y17.766900
  X29.845700 Y26.558900
  X23.065700 Y23.461100
  Y14.203600
  X29.806900 Y17.766900
  X29.845700 Y26.558900
M5	; stop spindle
G0 Z25.000000
M2	; end program
