G40	; disable tool radius compensation
G49	; disable tool length compensation
G80	; cancel modal motion
G54	; select coordinate system 1
G90	; disable incremental moves
G21	; metric
F300	; set feedrate
S1000	; set spindle speed
G61	; exact path mode
M3	; start spindle
G04 P3.0	; wait for 3.0 seconds
G0 X32.211800 Y10.047100 Z25.000000
F100	; set feedrate
G1 Z0.000000
F300	; set feedrate
G1 Y10.025900
  X32.202200 Y9.962130
  X32.174700 Y9.882820
  X32.131400 Y9.810990
  X32.073900 Y9.748320
  X32.004300 Y9.696610
  X31.924600 Y9.657500
  X31.836400 Y9.632760
  X31.765400 Y9.624140
  X31.718200
  X31.647200 Y9.632760
  X31.559200 Y9.657500
  X31.479600 Y9.696610
  X31.410300 Y9.748320
  X31.352900 Y9.810990
  X31.309900 Y9.882820
  X31.282500 Y9.962130
  X31.273100 Y10.025900
  Y10.068400
  X31.282500 Y10.132300
  X31.309900 Y10.211600
  X31.352900 Y10.283500
  X31.410300 Y10.346200
  X31.479600 Y10.398000
  X31.559200 Y10.437100
  X31.647200 Y10.461800
  X31.718200 Y10.470400
  X31.765400
  X31.836400 Y10.461800
  X31.924600 Y10.437100
  X32.004300 Y10.398000
  X32.073900 Y10.346200
  X32.131400 Y10.283500
  X32.174700 Y10.211600
  X32.202200 Y10.132300
  X32.211800 Y10.068400
  Y10.047100
G0 Z25.000000
  X32.856700
F100	; set feedrate
G1 Z0.000000
F300	; set feedrate
G1 Y9.990940
  X32.834000 Y9.822380
  X32.769200 Y9.613070
  X32.666400 Y9.423720
  X32.530300 Y9.258790
  X32.365300 Y9.122670
  X32.175800 Y9.019920
  X31.966500 Y8.955030
  X31.798100 Y8.932350
  X31.685800
  X31.517500 Y8.955030
  X31.308500 Y9.019920
  X31.119300 Y9.122670
  X30.954400 Y9.258790
  X30.818300 Y9.423720
  X30.715700 Y9.613070
  X30.650800 Y9.822380
  X30.628200 Y9.990940
  Y10.103300
  X30.650800 Y10.271500
  X30.715700 Y10.480600
  X30.818300 Y10.669700
  X30.954400 Y10.834600
  X31.119300 Y10.970600
  X31.308500 Y11.073300
  X31.517500 Y11.138200
  X31.685800 Y11.160800
  X31.798100
  X31.966500 Y11.138200
  X32.175800 Y11.073300
  X32.365300 Y10.970600
  X32.530300 Y10.834600
  X32.666400 Y10.669700
  X32.769200 Y10.480600
  X32.834000 Y10.271500
  X32.856700 Y10.103300
  Y10.047100
G0 Z25.000000
  X37.238100 Y19.146100
F100	; set feedrate
G1 Z0.000000
F300	; set feedrate
G1 Y15.729000
  X36.312100
  Y19.115700
  X36.311800 Y19.209600
  X36.291500 Y19.490700
  X36.232600 Y19.816900
  X36.134700 Y20.093300
  X36.037800 Y20.267400
  X35.997200 Y20.318900
  X35.958300 Y20.366900
  X35.818600 Y20.492600
  X35.602400 Y20.617500
  X35.347400 Y20.692900
  X35.126400 Y20.718200
  X35.052800
  X34.962800 Y20.718100
  X34.692900 Y20.687800
  X34.374700 Y20.597800
  X34.097200 Y20.447900
  X33.912400 Y20.296200
  X33.859400 Y20.237900
  X33.804700 Y20.178100
  X33.666800 Y19.974700
  X33.530600 Y19.669400
  X33.449400 Y19.321000
  X33.422800 Y19.026800
  Y15.729000
  X32.482900
  Y23.606800
  X33.422800
  Y20.511000
  X33.463100 Y20.573100
  X33.596700 Y20.751100
  X33.786300 Y20.959600
  X33.991000 Y21.135700
  X34.153500 Y21.247400
  X34.210600 Y21.279300
  X34.267200 Y21.310700
  X34.445800 Y21.389400
  X34.698800 Y21.469000
  X34.969200 Y21.517400
  X35.185000 Y21.533800
  X35.256900
  X35.316000 Y21.533300
  X35.493300 Y21.523100
  X35.715300 Y21.494000
  X35.922500 Y21.446700
  X36.115000 Y21.380600
  X36.292600 Y21.295800
  X36.455600 Y21.192200
  X36.603500 Y21.069700
  X36.705400 Y20.965100
  X36.736400 Y20.927800
  X36.767600 Y20.889400
  X36.852600 Y20.767100
  X36.954000 Y20.588800
  X37.040100 Y20.392600
  X37.111000 Y20.179000
  X37.166400 Y19.947500
  X37.206100 Y19.698200
  X37.230000 Y19.431100
  X37.238100 Y19.217400
  Y19.146100
G0 Z25.000000
  X30.720700 Y21.243600
F100	; set feedrate
G1 Z0.000000
F300	; set feedrate
G1 Y20.359000
  X30.654300 Y20.391900
  X30.316500 Y20.533800
  X29.969600 Y20.642900
  X29.898500 Y20.659600
  X29.827100 Y20.676200
  X29.464000 Y20.734700
  X29.127200 Y20.759900
  X29.015000
  X28.933200 Y20.759700
  X28.687800 Y20.746100
  X28.405400 Y20.706100
  X28.167100 Y20.639900
  X28.017600 Y20.574900
  X27.971800 Y20.546700
  X27.930600 Y20.521100
  X27.818700 Y20.425300
  X27.710100 Y20.279200
  X27.645600 Y20.107200
  X27.624200 Y19.958100
  Y19.908200
  X27.623800 Y19.869600
  X27.638800 Y19.753100
  X27.685700 Y19.617100
  X27.764200 Y19.499400
  X27.843900 Y19.421000
  X27.873500 Y19.398900
  X27.909200 Y19.371900
  X28.028700 Y19.307100
  X28.247900 Y19.218100
  X28.530400 Y19.131400
  X28.788900 Y19.066000
  X28.875700 Y19.046700
  X29.196000 Y18.975300
  X29.311800 Y18.949700
  X29.655300 Y18.856400
  X30.044200 Y18.717200
  X30.361700 Y18.556800
  X30.551400 Y18.426000
  X30.607100 Y18.374200
  X30.657900 Y18.326400
  X30.789400 Y18.160300
  X30.920000 Y17.908800
  X30.998700 Y17.619300
  X31.025000 Y17.373300
  Y17.291200
  X31.024900 Y17.243100
  X31.014700 Y17.098100
  X30.985100 Y16.915400
  X30.936200 Y16.743300
  X30.867800 Y16.581700
  X30.779900 Y16.430400
  X30.672500 Y16.289600
  X30.545400 Y16.159000
  X30.436800 Y16.066700
  X30.398700 Y16.038500
  X30.359200 Y16.009300
  X30.234400 Y15.930000
  X30.055700 Y15.836000
  X29.862500 Y15.756700
  X29.654600 Y15.691800
  X29.432200 Y15.641500
  X29.195100 Y15.605600
  X28.943300 Y15.584000
  X28.743500 Y15.576900
  X28.676900
  X28.600600 Y15.576800
  X28.210600 Y15.598500
  X27.808500 Y15.649000
  X27.726300 Y15.663500
  X27.642800 Y15.677600
  X27.217100 Y15.771000
  X26.775600 Y15.893900
  X26.684300 Y15.922600
  Y16.890000
  X26.769600 Y16.844400
  X27.196800 Y16.653200
  X27.621000 Y16.508200
  X27.704700 Y16.485700
  X27.788200 Y16.462800
  X28.204400 Y16.383900
  X28.576100 Y16.351000
  X28.700100
  X28.777400 Y16.350400
  X29.009300 Y16.363600
  X29.282400 Y16.406300
  X29.518200 Y16.477800
  X29.669200 Y16.547800
  X29.715600 Y16.577400
  X29.757200 Y16.603900
  X29.870800 Y16.701900
  X29.981900 Y16.849900
  X30.048800 Y17.021100
  X30.071000 Y17.166900
  Y17.215600
  X30.070400 Y17.260400
  X30.053600 Y17.395000
  X30.005600 Y17.552400
  X29.926000 Y17.687500
  X29.845000 Y17.776000
  X29.814000 Y17.800400
  X29.776000 Y17.830300
  X29.646900 Y17.901000
  X29.403600 Y17.999900
  X29.083900 Y18.096900
  X28.786900 Y18.170600
  X28.687400 Y18.192100
  X28.361800 Y18.268300
  X28.259900 Y18.289000
  X27.957600 Y18.370000
  X27.614900 Y18.497900
  X27.332800 Y18.650800
  X27.161100 Y18.778300
  X27.110700 Y18.827800
  X27.063200 Y18.873900
  X26.941300 Y19.033800
  X26.821100 Y19.275000
  X26.749400 Y19.551500
  X26.725700 Y19.785300
  Y19.863100
  X26.725400 Y19.911500
  X26.733500 Y20.056500
  X26.759700 Y20.239000
  X26.803900 Y20.410400
  X26.866300 Y20.570700
  X26.946500 Y20.719700
  X27.044600 Y20.857500
  X27.160300 Y20.983700
  X27.258600 Y21.071700
  X27.293500 Y21.098300
  X27.329000 Y21.125700
  X27.441900 Y21.199600
  X27.605800 Y21.287600
  X27.785000 Y21.362500
  X27.979300 Y21.423900
  X28.188600 Y21.471800
  X28.412900 Y21.506100
  X28.652100 Y21.526800
  X28.842400 Y21.533800
  X28.905800
  X28.991100 Y21.532600
  X29.406300 Y21.513900
  X29.803100 Y21.473200
  X29.879200 Y21.461000
  X29.954300 Y21.448200
  X30.316300 Y21.369200
  X30.656500 Y21.267800
  X30.720700 Y21.243600
G0 Z25.000000
  X22.911900 Y21.533800
F100	; set feedrate
G1 Z0.000000
F300	; set feedrate
G1 X22.985600 Y21.533300
  X23.206000 Y21.520100
  X23.484400 Y21.482500
  X23.747100 Y21.420700
  X23.993800 Y21.334600
  X24.224300 Y21.223900
  X24.438700 Y21.088600
  X24.636700 Y20.928600
  X24.775600 Y20.792200
  X24.818200 Y20.743600
  X24.861400 Y20.694200
  X24.980400 Y20.536500
  X25.121000 Y20.310400
  X25.240000 Y20.065400
  X25.337500 Y19.801400
  X25.413300 Y19.518300
  X25.467500 Y19.216400
  X25.500000 Y18.895400
  X25.511000 Y18.640400
  Y18.470600
  X25.500000 Y18.215800
  X25.467500 Y17.895400
  X25.413500 Y17.594000
  X25.337600 Y17.311500
  X25.240300 Y17.048100
  X25.121200 Y16.803200
  X24.980600 Y16.577100
  X24.861500 Y16.419200
  X24.818200 Y16.369600
  X24.775600 Y16.320800
  X24.636700 Y16.183700
  X24.439000 Y16.022600
  X24.225100 Y15.886400
  X23.995000 Y15.774900
  X23.748800 Y15.688200
  X23.486100 Y15.626400
  X23.207200 Y15.589300
  X22.985800 Y15.576900
  X22.837600
  X22.614400 Y15.589300
  X22.334000 Y15.626400
  X22.070600 Y15.688200
  X21.824000 Y15.775000
  X21.594200 Y15.886500
  X21.380800 Y16.022800
  X21.184000 Y16.183700
  X21.045800 Y16.320800
  X21.003300 Y16.369600
  X20.960000 Y16.419200
  X20.841000 Y16.577100
  X20.700400 Y16.803300
  X20.581800 Y17.048300
  X20.484900 Y17.312200
  X20.409700 Y17.594900
  X20.356000 Y17.896400
  X20.323900 Y18.216500
  X20.313200 Y18.470700
  Y18.555400
  X20.312900 Y18.640300
  X20.322900 Y18.894700
  X20.354700 Y19.215400
  X20.408600 Y19.517400
  X20.484300 Y19.800600
  X20.581800 Y20.064900
  X20.700800 Y20.310100
  X20.841400 Y20.536400
  X20.960100 Y20.694200
  X21.003300 Y20.743600
  X21.045700 Y20.792200
  X21.183500 Y20.928800
  X21.380600 Y21.089200
  X21.594300 Y21.225000
  X21.824700 Y21.336100
  X22.071900 Y21.422500
  X22.335600 Y21.484300
  X22.615600 Y21.521400
  X22.837900 Y21.533800
  X22.911900
G0 Z25.000000
  X23.627900 Y26.824900
F100	; set feedrate
G1 Z0.000000
F300	; set feedrate
G1 Y26.783900
  X23.611400 Y26.661000
  X23.563900 Y26.508300
  X23.488600 Y26.370300
  X23.389200 Y26.249900
  X23.268500 Y26.150600
  X23.130100 Y26.075700
  X22.977400 Y26.028300
  X22.854400 Y26.011700
  X22.772400
  X22.649600 Y26.028300
  X22.496900 Y26.075700
  X22.358700 Y26.150600
  X22.238500 Y26.249900
  X22.139200 Y26.370300
  X22.064200 Y26.508300
  X22.016800 Y26.661000
  X22.000300 Y26.783900
  Y26.865800
  X22.016800 Y26.988700
  X22.064200 Y27.141400
  X22.139200 Y27.279600
  X22.238500 Y27.399900
  X22.358700 Y27.499200
  X22.496900 Y27.574200
  X22.649600 Y27.621500
  X22.772400 Y27.638100
  X22.854400
  X22.977400 Y27.621500
  X23.130100 Y27.574200
  X23.268500 Y27.499200
  X23.389200 Y27.399900
  X23.488600 Y27.279600
  X23.563900 Y27.141400
  X23.611400 Y26.988700
  X23.627900 Y26.865800
  Y26.824900
G0 Z25.000000
  X15.821400 Y26.553600
F100	; set feedrate
G1 Z0.000000
F300	; set feedrate
G1 X22.524200 Y23.494300
  X22.562600 Y14.203600
  X15.782500 Y17.878800
  X15.821400 Y26.553600
G0 Z25.000000
  X18.776500 Y16.427600
F100	; set feedrate
G1 Z0.000000
F300	; set feedrate
G1 Y16.340000
  X18.766400 Y16.077500
  X18.736100 Y15.750800
  X18.685700 Y15.447400
  X18.615100 Y15.167200
  X18.524600 Y14.910300
  X18.413800 Y14.676400
  X18.282900 Y14.465600
  X18.172400 Y14.322200
  X18.131800 Y14.277800
  X18.091500 Y14.233900
  X17.959000 Y14.111900
  X17.765400 Y13.968500
  X17.550600 Y13.847300
  X17.314700 Y13.748300
  X17.057400 Y13.671500
  X16.778700 Y13.616700
  X16.478600 Y13.583900
  X16.237400 Y13.573000
  X16.156900
  X16.074400 Y13.572100
  X15.677800 Y13.590400
  X15.301000 Y13.635400
  X15.228200 Y13.647800
  X15.154700 Y13.660100
  X14.796900 Y13.742200
  X14.449000 Y13.851300
  X14.380600 Y13.877000
  Y14.789200
  X14.448500 Y14.751100
  X14.789000 Y14.591900
  X15.127500 Y14.472900
  X15.194600 Y14.454900
  X15.261300 Y14.436700
  X15.600000 Y14.373500
  X15.910300 Y14.346800
  X16.013700
  X16.069400 Y14.346700
  X16.236500 Y14.353600
  X16.444900 Y14.375700
  X16.638900 Y14.412900
  X16.818500 Y14.465100
  X16.983700 Y14.532400
  X17.134400 Y14.614600
  X17.270700 Y14.711500
  X17.363900 Y14.793500
  X17.392500 Y14.823200
  X17.421000 Y14.852800
  X17.499200 Y14.948800
  X17.591900 Y15.090100
  X17.670600 Y15.247100
  X17.735100 Y15.419600
  X17.785400 Y15.607400
  X17.821400 Y15.810600
  X17.843100 Y16.028600
  X17.850400 Y16.203500
  Y16.724000
  X17.815000 Y16.663100
  X17.694700 Y16.488600
  X17.519600 Y16.286000
  X17.324600 Y16.115600
  X17.165100 Y16.007200
  X17.109000 Y15.976400
  X17.052200 Y15.944600
  X16.872100 Y15.866500
  X16.612900 Y15.789400
  X16.331500 Y15.744000
  X16.103700 Y15.729000
  X15.964000
  X15.772600 Y15.741400
  X15.530000 Y15.778700
  X15.300400 Y15.840800
  X15.083500 Y15.927600
  X14.879200 Y16.039400
  X14.687800 Y16.176000
  X14.508900 Y16.337400
  X14.381800 Y16.475000
  X14.342800 Y16.523500
  X14.302500 Y16.573100
  X14.191700 Y16.730000
  X14.061200 Y16.952600
  X13.951200 Y17.191700
  X13.861600 Y17.446800
  X13.792100 Y17.718200
  X13.742600 Y18.005600
  X13.713100 Y18.309200
  X13.703200 Y18.548900
  Y18.628800
  X13.702800 Y18.708800
  X13.712100 Y18.948500
  X13.741600 Y19.252500
  X13.791400 Y19.540700
  X13.861700 Y19.812800
  X13.952100 Y20.068900
  X14.062400 Y20.308600
  X14.192800 Y20.532100
  X14.302800 Y20.689300
  X14.342800 Y20.739000
  X14.381500 Y20.787400
  X14.507800 Y20.924300
  X14.686300 Y21.085300
  X14.877800 Y21.221800
  X15.082400 Y21.333800
  X15.299700 Y21.421100
  X15.529900 Y21.483600
  X15.772600 Y21.521100
  X15.964000 Y21.533800
  X16.027900
  X16.103700 Y21.532900
  X16.331100 Y21.516400
  X16.612600 Y21.470100
  X16.871900 Y21.393900
  X17.052100 Y21.317200
  X17.109000 Y21.286100
  X17.165100 Y21.255300
  X17.324700 Y21.146400
  X17.520100 Y20.975400
  X17.695400 Y20.772800
  X17.815300 Y20.599300
  X17.850400 Y20.538800
  Y21.395400
  X18.776500
  Y16.427600
G0 Z25.000000
  X15.821400 Y26.553600
F100	; set feedrate
G1 Z0.000000
F300	; set feedrate
G1 X22.524200 Y23.494300
  X22.562600 Y14.203600
  X15.782500 Y17.878800
  X15.821400 Y26.553600
G0 Z25.000000
  X12.549600 Y18.798900
F100	; set feedrate
G1 Z0.000000
F300	; set feedrate
G1 Y18.341200
  X8.264260
  X8.267680 Y18.282500
  X8.285860 Y18.106900
  X8.322210 Y17.887200
  X8.373100 Y17.681800
  X8.438530 Y17.490700
  X8.518330 Y17.314000
  X8.612570 Y17.151800
  X8.721030 Y17.003900
  X8.811250 Y16.901900
  X8.843690 Y16.870300
  X8.875820 Y16.838800
  X8.979490 Y16.751700
  X9.128150 Y16.648700
  X9.289650 Y16.561900
  X9.464030 Y16.491000
  X9.651100 Y16.435700
  X9.850970 Y16.396400
  X10.063500 Y16.372800
  X10.232500 Y16.364900
  X10.288800
  X10.377900 Y16.364000
  X10.816500 Y16.396400
  X11.244800 Y16.474300
  X11.328700 Y16.496100
  X11.412500 Y16.517800
  X11.830200 Y16.659900
  X12.245800 Y16.846300
  X12.328500 Y16.890000
  Y16.005400
  X12.244900 Y15.969600
  X11.821100 Y15.819400
  X11.389300 Y15.704700
  X11.301600 Y15.686500
  X11.213800 Y15.667200
  X10.771700 Y15.602600
  X10.369000 Y15.576900
  X10.152100
  X9.904190 Y15.589200
  X9.591530 Y15.626200
  X9.296710 Y15.687900
  X9.019640 Y15.774300
  X8.760250 Y15.885400
  X8.518560 Y16.021400
  X8.294430 Y16.181800
  X8.136830 Y16.318200
  X8.087830 Y16.367100
  X8.038510 Y16.415600
  X7.901320 Y16.572100
  X7.740130 Y16.795100
  X7.604060 Y17.036200
  X7.493000 Y17.295000
  X7.406900 Y17.571400
  X7.345540 Y17.865300
  X7.308810 Y18.176400
  X7.296600 Y18.422600
  Y18.504600
  X7.296220 Y18.589200
  X7.307240 Y18.842800
  X7.341960 Y19.163500
  X7.400610 Y19.466800
  X7.483010 Y19.752400
  X7.589140 Y20.020300
  X7.718750 Y20.270100
  X7.871810 Y20.501900
  X8.001310 Y20.664700
  X8.048130 Y20.715600
  X8.094070 Y20.766000
  X8.242940 Y20.907200
  X8.454750 Y21.073500
  X8.683490 Y21.214000
  X8.928930 Y21.329200
  X9.190920 Y21.418600
  X9.469290 Y21.482600
  X9.764000 Y21.521000
  X9.997070 Y21.533800
  X10.074800
  X10.144200 Y21.533300
  X10.352200 Y21.521000
  X10.615200 Y21.485800
  X10.863700 Y21.428300
  X11.097600 Y21.348200
  X11.316700 Y21.245300
  X11.520900 Y21.119300
  X11.710100 Y20.970300
  X11.843000 Y20.843300
  X11.884100 Y20.798100
  X11.925400 Y20.751800
  X12.039900 Y20.604700
  X12.175000 Y20.395400
  X12.289400 Y20.170100
  X12.383000 Y19.928900
  X12.455900 Y19.671200
  X12.507900 Y19.397100
  X12.539200 Y19.106400
  X12.549600 Y18.875700
  Y18.798900
G0 Z25.000000
  X6.935440 Y20.524900
F100	; set feedrate
G1 Z0.000000
F300	; set feedrate
G1 X6.908640 Y20.539900
  X6.770830 Y20.604600
  X6.625220 Y20.653600
  X6.594510 Y20.660800
  X6.563750 Y20.668100
  X6.400760 Y20.693500
  X6.241380 Y20.704400
  X6.140190
  X5.996040 Y20.696100
  X5.815810 Y20.671900
  X5.647460 Y20.631700
  X5.490830 Y20.575400
  X5.345760 Y20.503200
  X5.212240 Y20.414900
  X5.090000 Y20.310300
  X5.004930 Y20.221400
  X4.979060 Y20.189700
  X4.952260 Y20.157400
  X4.879350 Y20.053900
  X4.793290 Y19.904000
  X4.720760 Y19.740300
  X4.661740 Y19.562500
  X4.616000 Y19.370800
  X4.583500 Y19.165000
  X4.564010 Y18.945300
  X4.557610 Y18.769900
  Y15.729000
  X3.617740
  Y21.395400
  X4.557610
  Y20.511000
  X4.592890 Y20.573600
  X4.714420 Y20.753100
  X4.894040 Y20.962500
  X5.096030 Y21.138900
  X5.261610 Y21.250400
  X5.319990 Y21.281800
  X5.379500 Y21.313100
  X5.566890 Y21.390400
  X5.839510 Y21.469300
  X6.137640 Y21.517500
  X6.379990 Y21.533800
  X6.460830
  X6.476350 Y21.532600
  X6.561080 Y21.528600
  X6.653490 Y21.522100
  X6.672850 Y21.519900
  X6.691400 Y21.516400
  X6.794110 Y21.501000
  X6.906850 Y21.483100
  X6.930440 Y21.478300
  X6.935440 Y20.524900
G0 Z25.000000
  X4.460890 Y24.161000
F100	; set feedrate
G1 Z0.000000
F300	; set feedrate
G1 Y24.115800
  X4.443250 Y23.980000
  X4.392850 Y23.811300
  X4.313040 Y23.658500
  X4.207360 Y23.525300
  X4.079260 Y23.415300
  X3.932180 Y23.332400
  X3.769690 Y23.279700
  X3.638780 Y23.261400
  X3.551540
  X3.420680 Y23.279700
  X3.258250 Y23.332400
  X3.111280 Y23.415300
  X2.983180 Y23.525300
  X2.877560 Y23.658500
  X2.797790 Y23.811300
  X2.747350 Y23.980000
  X2.729820 Y24.115800
  Y24.206400
  X2.747350 Y24.342500
  X2.797790 Y24.511500
  X2.877560 Y24.664400
  X2.983180 Y24.797600
  X3.111280 Y24.907500
  X3.258250 Y24.990300
  X3.420680 Y25.042800
  X3.551540 Y25.061000
  X3.638780
  X3.769690 Y25.042800
  X3.932180 Y24.990300
  X4.079260 Y24.907500
  X4.207360 Y24.797600
  X4.313040 Y24.664400
  X4.392850 Y24.511500
  X4.443250 Y24.342500
  X4.460890 Y24.206400
  Y24.161000
G0 Z25.000000
  X5.491320
F100	; set feedrate
G1 Z0.000000
F300	; set feedrate
G1 Y24.108700
  X5.481010 Y23.952100
  X5.450470 Y23.746700
  X5.400220 Y23.546100
  X5.330890 Y23.351900
  X5.242890 Y23.165600
  X5.136830 Y22.988100
  X5.013180 Y22.821300
  X4.909500 Y22.702900
  X4.872560 Y22.666000
  X4.835610 Y22.629000
  X4.717390 Y22.525400
  X4.550290 Y22.401700
  X4.372670 Y22.295400
  X4.185930 Y22.207100
  X3.991490 Y22.137400
  X3.790750 Y22.086900
  X3.585120 Y22.056300
  X3.428330 Y22.045800
  X3.323790
  X3.166990 Y22.056300
  X2.961430 Y22.086900
  X2.760690 Y22.137400
  X2.566290 Y22.207100
  X2.379560 Y22.295400
  X2.201930 Y22.401700
  X2.034830 Y22.525400
  X1.916560 Y22.629000
  X1.879610 Y22.666000
  X1.842610 Y22.702900
  X1.739040 Y22.821300
  X1.615460 Y22.988100
  X1.509390 Y23.165600
  X1.421390 Y23.351900
  X1.351940 Y23.546100
  X1.301700 Y23.746700
  X1.271160 Y23.952100
  X1.260850 Y24.108700
  Y24.215100
  X1.271760 Y24.377500
  X1.303770 Y24.587500
  X1.355900 Y24.790300
  X1.427030 Y24.984600
  X1.516060 Y25.169600
  X1.622010 Y25.344000
  X1.743760 Y25.506800
  X1.880320 Y25.656900
  X2.030490 Y25.793500
  X2.193310 Y25.915100
  X2.367740 Y26.021100
  X2.552630 Y26.110100
  X2.746960 Y26.181300
  X2.949710 Y26.233300
  X3.159780 Y26.265400
  X3.322000 Y26.276300
  X3.430120
  X3.592390 Y26.265400
  X3.802510 Y26.233300
  X4.005260 Y26.181300
  X4.199600 Y26.110100
  X4.384560 Y26.021100
  X4.558920 Y25.915100
  X4.721740 Y25.793500
  X4.871960 Y25.656900
  X5.008460 Y25.506800
  X5.130150 Y25.344000
  X5.236110 Y25.169600
  X5.325140 Y24.984600
  X5.396210 Y24.790300
  X5.448350 Y24.587500
  X5.480360 Y24.377500
  X5.491320 Y24.215100
  Y24.161000
G0 Z25.000000
  X16.073200 Y27.096500
F100	; set feedrate
G1 Z0.000000
F300	; set feedrate
G1 X22.853300 Y23.920100
  X29.554700 Y27.096500
  X22.736100 Y29.729700
  X16.073200 Y27.096500
G0 Z25.000000
  X29.845700 Y26.558900
F100	; set feedrate
G1 Z0.000000
F300	; set feedrate
G1 X23.065700 Y23.461100
  Y14.203600
  X29.806900 Y17.766900
  X29.845700 Y26.558900
  X23.065700 Y23.461100
  Y14.203600
  X29.806900 Y17.766900
  X29.845700 Y26.558900
G0 Z25.000000
  X22.914600 Y20.746000
F100	; set feedrate
G1 Z0.000000
F300	; set feedrate
G1 X22.868900 Y20.745800
  X22.732100 Y20.736500
  X22.559400 Y20.708900
  X22.396500 Y20.663200
  X22.243600 Y20.599200
  X22.100600 Y20.516800
  X21.967200 Y20.416400
  X21.843600 Y20.297500
  X21.756400 Y20.196000
  X21.729900 Y20.160300
  X21.702200 Y20.123300
  X21.626800 Y20.006900
  X21.537900 Y19.840300
  X21.462900 Y19.660000
  X21.401900 Y19.466200
  X21.354900 Y19.258900
  X21.321300 Y19.037900
  X21.301200 Y18.803500
  X21.294600 Y18.617400
  Y18.555400
  X21.294400 Y18.493300
  X21.300700 Y18.306700
  X21.320700 Y18.071900
  X21.354400 Y17.851000
  X21.402100 Y17.643600
  X21.463100 Y17.450000
  X21.537800 Y17.270000
  X21.626000 Y17.103500
  X21.700300 Y16.987200
  X21.727500 Y16.950400
  X21.753600 Y16.914300
  X21.839900 Y16.811900
  X21.962800 Y16.692400
  X22.096100 Y16.591700
  X22.239600 Y16.509600
  X22.393300 Y16.446100
  X22.557200 Y16.400800
  X22.731000 Y16.373900
  X22.868600 Y16.364900
  X22.914600
  X22.959900 Y16.364600
  X23.095700 Y16.373100
  X23.267100 Y16.400100
  X23.429000 Y16.446000
  X23.581400 Y16.510600
  X23.724000 Y16.593600
  X23.856900 Y16.695100
  X23.980400 Y16.815000
  X24.067500 Y16.917100
  X24.094000 Y16.952900
  X24.149300 Y17.027500
  X24.284400 Y17.273500
  X24.420400 Y17.647500
  X24.502200 Y18.074900
  X24.529400 Y18.435300
  Y18.555400
  X24.529000 Y18.674900
  X24.501400 Y19.032800
  X24.419900 Y19.459000
  X24.284200 Y19.833300
  X24.149200 Y20.080400
  X24.094000 Y20.155300
  X24.067500 Y20.191000
  X23.980400 Y20.292800
  X23.857100 Y20.412400
  X23.724000 Y20.513900
  X23.581500 Y20.597100
  X23.429200 Y20.662100
  X23.267400 Y20.708600
  X23.095700 Y20.736700
  X22.959900 Y20.746000
  X22.914600
G0 Z25.000000
  X17.850400 Y18.628800
F100	; set feedrate
G1 Z0.000000
F300	; set feedrate
G1 X17.850100 Y18.690100
  X17.843200 Y18.874300
  X17.823500 Y19.106100
  X17.790700 Y19.324000
  X17.745000 Y19.528100
  X17.686400 Y19.717900
  X17.614700 Y19.893600
  X17.529900 Y20.054900
  X17.458300 Y20.166400
  X17.431900 Y20.201700
  X17.406300 Y20.235800
  X17.321700 Y20.332500
  X17.201100 Y20.445800
  X17.070100 Y20.541800
  X16.928800 Y20.620300
  X16.776800 Y20.681300
  X16.614400 Y20.725000
  X16.441500 Y20.751100
  X16.303800 Y20.759900
  X16.257900
  X16.212100 Y20.759700
  X16.074600 Y20.750800
  X15.902100 Y20.724400
  X15.740300 Y20.680800
  X15.589300 Y20.619900
  X15.448800 Y20.541500
  X15.318700 Y20.445700
  X15.198900 Y20.332500
  X15.114900 Y20.235800
  X15.089300 Y20.201700
  X15.062600 Y20.166400
  X14.990400 Y20.055000
  X14.905000 Y19.894000
  X14.833100 Y19.718800
  X14.774400 Y19.529300
  X14.728900 Y19.325600
  X14.696700 Y19.107600
  X14.677400 Y18.875300
  X14.670800 Y18.690400
  Y18.628800
  X14.670700 Y18.567200
  X14.676800 Y18.382400
  X14.696100 Y18.150700
  X14.728600 Y17.933500
  X14.774600 Y17.730700
  X14.833800 Y17.542200
  X14.905800 Y17.367800
  X14.991100 Y17.207500
  X15.062900 Y17.096300
  X15.089300 Y17.061000
  X15.114600 Y17.026700
  X15.198200 Y16.929000
  X15.318100 Y16.815100
  X15.448500 Y16.719000
  X15.589600 Y16.640800
  X15.741100 Y16.580300
  X15.903100 Y16.537200
  X16.075400 Y16.511400
  X16.212400 Y16.502900
  X16.257900
  X16.303600 Y16.502600
  X16.440600 Y16.510700
  X16.613200 Y16.536400
  X16.775700 Y16.579900
  X16.927900 Y16.641100
  X17.069700 Y16.720000
  X17.201100 Y16.816400
  X17.321900 Y16.930100
  X17.406400 Y17.026900
  X17.431900 Y17.061000
  X17.458300 Y17.096000
  X17.529600 Y17.206400
  X17.614400 Y17.366500
  X17.686300 Y17.541200
  X17.745300 Y17.730400
  X17.791100 Y17.934000
  X17.824000 Y18.151500
  X17.843800 Y18.383200
  X17.850400 Y18.567400
  Y18.628800
G0 Z25.000000
  X11.623400 Y19.073600
F100	; set feedrate
G1 Z0.000000
F300	; set feedrate
G1 X11.621900 Y19.163900
  X11.592100 Y19.434300
  X11.510500 Y19.758200
  X11.378200 Y20.044200
  X11.246400 Y20.235000
  X11.194600 Y20.291200
  X11.143400 Y20.346000
  X10.967400 Y20.489300
  X10.707300 Y20.631400
  X10.413600 Y20.717200
  X10.167800 Y20.746000
  X10.085900
  X9.992740 Y20.745800
  X9.713370 Y20.718100
  X9.381290 Y20.635700
  X9.088760 Y20.498500
  X8.892740 Y20.360400
  X8.835010 Y20.306300
  X8.776580 Y20.251500
  X8.624140 Y20.063100
  X8.464310 Y19.776100
  X8.354710 Y19.444900
  X8.303060 Y19.163200
  X8.294650 Y19.068500
  X11.623400 Y19.073600
M5	; stop spindle
G0 Z25.000000
M2	; end program
