G40	; disable tool radius compensation
G49	; disable tool length compensation
G80	; cancel modal motion
G54	; select coordinate system 1
G90	; disable incremental moves
G21	; metric
F300	; set feedrate
S1000	; set spindle speed
G61	; exact path mode
M3	; start spindle
G04 P3.0	; wait for 3.0 seconds
G0 X6.678425 Y29.974945 Z25.000000
F100	; set feedrate
G1 Z0.000000
F300	; set feedrate
G1 X3.509055 Y15.062045
  X5.107475 Y15.926045
  X8.033085 Y29.687145
  X6.678425 Y29.974945
G0 Z25.000000
  X8.785485 Y29.855045
F100	; set feedrate
G1 Z0.000000
F300	; set feedrate
G1 X7.216025 Y17.066845
  X8.472685 Y17.747745
  X9.941585 Y29.713245
  X8.785485 Y29.855045
G0 Z25.000000
  X11.373485 Y32.794345
F100	; set feedrate
G1 Z0.000000
F300	; set feedrate
G1 X9.827285 Y18.480745
  X11.154485 Y19.198645
  X12.617685 Y32.737945
  X11.373485 Y32.794345
G0 Z25.000000
  X13.009385 Y32.144245
F100	; set feedrate
G1 Z0.000000
F300	; set feedrate
G1 X12.409685 Y19.878145
  X13.382585 Y20.405845
  X13.954485 Y32.097245
  X13.009385 Y32.144245
G0 Z25.000000
  X14.607885 Y30.149945
F100	; set feedrate
G1 Z0.000000
F300	; set feedrate
G1 Y21.067445
  X15.991285 Y21.817045
  Y30.149945
  X14.607885
G0 Z25.000000
  X16.793285 Y29.859245
F100	; set feedrate
G1 Z0.000000
F300	; set feedrate
G1 Y22.251345
  X17.957885 Y22.880845
  Y29.859245
  X16.793285
G0 Z25.000000
  X18.759685 Y32.481845
F100	; set feedrate
G1 Z0.000000
F300	; set feedrate
G1 Y23.314945
  X19.560485 Y23.747745
  Y32.481845
  X18.759685
G0 Z25.000000
  X20.609185
F100	; set feedrate
G1 Z0.000000
F300	; set feedrate
G1 Y24.315345
  X22.794685 Y25.497845
  Y32.481845
  X20.609185
G0 Z25.000000
  X23.668085 Y32.116345
F100	; set feedrate
G1 Z0.000000
F300	; set feedrate
G1 Y19.380745
  X24.616485 Y19.624545
  Y32.116345
  X23.668085
G0 Z25.000000
  X25.504085 Y31.023845
F100	; set feedrate
G1 Z0.000000
F300	; set feedrate
G1 Y19.853345
  X26.451985 Y20.097145
  Y31.023845
  X25.504085
G0 Z25.000000
  X27.587585 Y31.462045
F100	; set feedrate
G1 Z0.000000
F300	; set feedrate
G1 Y20.389345
  X29.846085 Y20.971045
  Y31.462045
  X27.587585
G0 Z25.000000
  X30.429185 Y32.626445
F100	; set feedrate
G1 Z0.000000
F300	; set feedrate
G1 Y21.119945
  X31.739385 Y21.458945
  Y32.626445
  X30.429185
G0 Z25.000000
  X34.507985 Y31.606545
F100	; set feedrate
G1 Z0.000000
F300	; set feedrate
G1 Y22.169745
  X35.891585 Y22.526745
  Y31.606545
  X34.507985
G0 Z25.000000
  X36.827185 Y32.750345
F100	; set feedrate
G1 Z0.000000
F300	; set feedrate
G1 Y22.766745
  X38.092185 Y23.092945
  Y32.750345
  X36.827185
G0 Z25.000000
  X32.395485 Y28.110645
F100	; set feedrate
G1 Z0.000000
F300	; set feedrate
G1 Y21.626845
  X33.706085 Y21.964545
  Y28.110645
  X32.395485
G0 Z25.000000
  X38.092185 Y22.443945
F100	; set feedrate
G1 Z0.000000
F300	; set feedrate
G1 X36.827185 Y21.800445
  Y7.227835
  X38.092185
  Y22.443945
G0 Z25.000000
  X35.891585 Y21.323845
F100	; set feedrate
G1 Z0.000000
F300	; set feedrate
G1 X34.507985 Y20.619645
  Y7.205655
  X35.891585
  Y21.323845
G0 Z25.000000
  X33.706085 Y20.212945
F100	; set feedrate
G1 Z0.000000
F300	; set feedrate
G1 X32.395485 Y19.546145
  Y7.205655
  X33.706085
  Y20.212945
G0 Z25.000000
  X31.739385 Y19.212445
F100	; set feedrate
G1 Z0.000000
F300	; set feedrate
G1 X30.429185 Y18.544245
  Y7.205655
  X31.739385
  Y19.212445
G0 Z25.000000
  X29.846085 Y18.249345
F100	; set feedrate
G1 Z0.000000
F300	; set feedrate
G1 X27.587585 Y17.100045
  Y7.205655
  X29.846085
  Y18.249345
G0 Z25.000000
  X26.451985 Y16.521045
F100	; set feedrate
G1 Z0.000000
F300	; set feedrate
G1 X25.504085 Y16.040245
  Y7.205655
  X26.451985
  Y16.521045
G0 Z25.000000
  X24.616485 Y15.587045
F100	; set feedrate
G1 Z0.000000
F300	; set feedrate
G1 X23.668085 Y15.104645
  Y7.205655
  X24.616485
  Y15.587045
G0 Z25.000000
  X22.794685 Y14.660845
F100	; set feedrate
G1 Z0.000000
F300	; set feedrate
G1 X20.609185 Y13.548945
  Y7.205655
  X22.794685
  Y14.660845
G0 Z25.000000
  X19.560485 Y13.015645
F100	; set feedrate
G1 Z0.000000
F300	; set feedrate
G1 X18.759685 Y12.607745
  Y7.205655
  X19.560485
  Y13.015645
G0 Z25.000000
  X17.957885 Y18.345645
F100	; set feedrate
G1 Z0.000000
F300	; set feedrate
G1 X16.793285 Y18.034045
  Y7.205655
  X17.957885
  Y18.345645
G0 Z25.000000
  X15.991285 Y17.819345
F100	; set feedrate
G1 Z0.000000
F300	; set feedrate
G1 X14.607885 Y17.448545
  Y7.205655
  X15.991285
  Y17.819345
G0 Z25.000000
  X13.219885 Y17.078145
F100	; set feedrate
G1 Z0.000000
F300	; set feedrate
G1 X12.259685 Y16.820145
  X11.792285 Y7.260665
  X12.739085 Y7.214115
  X13.219885 Y17.078145
G0 Z25.000000
  X10.858085 Y16.445645
F100	; set feedrate
G1 Z0.000000
F300	; set feedrate
G1 X9.569785 Y16.100845
  X8.627185 Y7.376705
  X9.871385 Y7.319955
  X10.858085 Y16.445645
G0 Z25.000000
  X8.227485 Y15.740045
F100	; set feedrate
G1 Z0.000000
F300	; set feedrate
G1 X7.013555 Y15.414745
  X6.025425 Y7.371075
  X7.181475 Y7.229255
  X8.227485 Y15.740045
G0 Z25.000000
  X4.877485 Y14.844345
F100	; set feedrate
G1 Z0.000000
F300	; set feedrate
G1 X3.376775 Y14.441845
  X1.907815 Y7.530905
  X3.262475 Y7.243025
  X4.877485 Y14.844345
M5	; stop spindle
G0 Z25.000000
M2	; end program
