G40	; disable tool radius compensation
G49	; disable tool length compensation
G80	; cancel modal motion
G54	; select coordinate system 1
G90	; disable incremental moves
G21	; metric
F300	; set feedrate
S1000	; set spindle speed
G61	; exact path mode
M3	; start spindle
G04 P3.0	; wait for 3.0 seconds
G0 X6.151045 Y11.996515 Z25.000000
F100	; set feedrate
G1 Z0.000000
F300	; set feedrate
G1 Y14.466015
  X13.078455 Y16.380115
  Y16.416115
  X6.151045
  Y18.168715
  X17.723755
  Y16.147415
  X9.276655 Y13.786515
  Y13.750815
  X17.723755
  Y11.996515
  X6.151045
G0 Z25.000000
  X17.889455 Y7.921615
F100	; set feedrate
G1 Z0.000000
F300	; set feedrate
G1 Y7.835815
  X17.877755 Y7.578615
  X17.842955 Y7.256415
  X17.784755 Y6.954885
  X17.703355 Y6.674085
  X17.598655 Y6.413875
  X17.470755 Y6.174295
  X17.319655 Y5.955335
  X17.191455 Y5.803805
  X17.145155 Y5.756935
  X17.098955 Y5.711405
  X16.949655 Y5.585375
  X16.735055 Y5.436615
  X16.501555 Y5.310635
  X16.248755 Y5.207445
  X15.976955 Y5.127205
  X15.685955 Y5.069805
  X15.375855 Y5.035345
  X15.128755 Y5.023845
  X8.747655
  X8.500555 Y5.035345
  X8.190255 Y5.069805
  X7.899055 Y5.127205
  X7.626955 Y5.207445
  X7.374025 Y5.310635
  X7.140245 Y5.436615
  X6.925565 Y5.585375
  X6.776315 Y5.711405
  X6.730095 Y5.756935
  X6.683705 Y5.803805
  X6.555615 Y5.955335
  X6.404405 Y6.174295
  X6.276485 Y6.413875
  X6.171765 Y6.674085
  X6.090385 Y6.954885
  X6.032235 Y7.256415
  X5.997345 Y7.578615
  X5.985735 Y7.835815
  Y8.007315
  X5.997345 Y8.264415
  X6.032235 Y8.586015
  X6.090385 Y8.886315
  X6.171765 Y9.165215
  X6.276485 Y9.423015
  X6.404405 Y9.659415
  X6.555615 Y9.874615
  X6.683705 Y10.022915
  X6.730095 Y10.068615
  X6.776265 Y10.115215
  X6.925565 Y10.244515
  X7.140245 Y10.397015
  X7.374025 Y10.526115
  X7.626955 Y10.631715
  X7.899055 Y10.713915
  X8.190255 Y10.772615
  X8.500555 Y10.807915
  X8.747655 Y10.819615
  X10.053955
  Y8.959415
  X8.651355
  X8.462355 Y8.944115
  X8.243955 Y8.898015
  X8.059255 Y8.821115
  X7.908055 Y8.713515
  X7.790555 Y8.575115
  X7.706555 Y8.406015
  X7.656155 Y8.206115
  X7.639355 Y8.033215
  Y7.917915
  X7.656155 Y7.744915
  X7.706555 Y7.545115
  X7.790555 Y7.375915
  X7.908055 Y7.237615
  X8.059255 Y7.130025
  X8.243955 Y7.053155
  X8.462355 Y7.007085
  X8.651355 Y6.991685
  X15.240755
  X15.426855 Y7.007085
  X15.641855 Y7.053155
  X15.823655 Y7.130025
  X15.972555 Y7.237615
  X16.088255 Y7.375915
  X16.170955 Y7.545115
  X16.220555 Y7.744915
  X16.237155 Y7.917915
  Y8.033215
  X16.220555 Y8.206115
  X16.170955 Y8.406015
  X16.088255 Y8.575115
  X15.972555 Y8.713515
  X15.823655 Y8.821115
  X15.641855 Y8.898015
  X15.426855 Y8.944115
  X15.240755 Y8.959415
  X13.409455
  Y10.819615
  X15.128755
  X15.375855 Y10.807915
  X15.685955 Y10.772615
  X15.976955 Y10.713915
  X16.248755 Y10.631715
  X16.501555 Y10.526115
  X16.735055 Y10.397015
  X16.949655 Y10.244515
  X17.098955 Y10.115215
  X17.145155 Y10.068615
  X17.191455 Y10.022915
  X17.319655 Y9.874615
  X17.470755 Y9.659415
  X17.598655 Y9.423015
  X17.703355 Y9.165215
  X17.784755 Y8.886315
  X17.842955 Y8.586015
  X17.877755 Y8.264415
  X17.889455 Y8.007315
  Y7.921615
G0 Z25.000000
  X24.370055 Y8.427515
F100	; set feedrate
G1 Z0.000000
F300	; set feedrate
G1 X24.341855 Y8.456015
  X24.269755 Y8.554015
  X24.187355 Y8.705915
  X24.131655 Y8.864315
  X24.111155 Y8.973815
  Y9.046815
  X24.131655 Y9.156215
  X24.187355 Y9.314515
  X24.269755 Y9.466215
  X24.341855 Y9.563715
  X24.370055 Y9.592015
  X24.398355 Y9.620315
  X24.495955 Y9.692315
  X24.647555 Y9.774715
  X24.805855 Y9.830415
  X24.915355 Y9.850915
  X24.988455
  X25.098455 Y9.830415
  X25.257255 Y9.774715
  X25.408955 Y9.692315
  X25.506455 Y9.620315
  X25.534655 Y9.592015
  X25.562955 Y9.563715
  X25.635055 Y9.466215
  X25.717555 Y9.314515
  X25.773355 Y9.156215
  X25.793955 Y9.046815
  Y8.973815
  X25.773355 Y8.864315
  X25.717555 Y8.705915
  X25.635055 Y8.554015
  X25.562955 Y8.456015
  X25.534655 Y8.427515
  X25.506455 Y8.399315
  X25.408955 Y8.327415
  X25.257255 Y8.245615
  X25.098455 Y8.190315
  X24.988455 Y8.169915
  X24.915355
  X24.805855 Y8.190315
  X24.647555 Y8.245615
  X24.495955 Y8.327415
  X24.398355 Y8.399315
  X24.370055 Y8.427515
G0 Z25.000000
  X24.461155 Y13.991815
F100	; set feedrate
G1 Z0.000000
F300	; set feedrate
G1 X24.424055 Y14.021115
  X24.322355 Y14.121415
  X24.219655 Y14.261015
  X24.152955 Y14.407915
  X24.122655 Y14.559315
  X24.128955 Y14.712415
  X24.172155 Y14.864315
  X24.252355 Y15.012215
  X24.337655 Y15.121115
  X24.370055 Y15.153515
  X24.401255 Y15.184715
  X24.507155 Y15.266515
  X24.651555 Y15.342615
  X24.800255 Y15.384715
  X24.949755 Y15.395615
  X25.096955 Y15.377815
  X25.238655 Y15.334315
  X25.371255 Y15.267615
  X25.491955 Y15.180815
  X25.597255 Y15.076415
  X25.683955 Y14.957215
  X25.748755 Y14.826015
  X25.788455 Y14.685415
  X25.799855 Y14.538515
  X25.779655 Y14.387615
  X25.724455 Y14.235815
  X25.657955 Y14.120715
  X25.631255 Y14.085715
  X25.606255 Y14.053115
  X25.517855 Y13.965415
  X25.387155 Y13.875615
  X25.242955 Y13.816415
  X25.089655 Y13.788215
  X24.930755 Y13.791415
  X24.770255 Y13.826115
  X24.612555 Y13.892915
  X24.496555 Y13.964015
  X24.461155 Y13.991815
G0 Z25.000000
  X24.452955 Y19.560815
F100	; set feedrate
G1 Z0.000000
F300	; set feedrate
G1 X24.424855 Y19.582815
  X24.347255 Y19.657115
  X24.262955 Y19.761515
  X24.199355 Y19.872115
  X24.155755 Y19.987115
  X24.131255 Y20.104315
  X24.125455 Y20.221815
  X24.137555 Y20.337615
  X24.166855 Y20.449715
  X24.212855 Y20.556115
  X24.274455 Y20.654715
  X24.351455 Y20.743615
  X24.442855 Y20.820815
  X24.547955 Y20.884415
  X24.666255 Y20.932415
  X24.796955 Y20.962515
  X24.903755 Y20.972915
  X24.976855
  X25.088955 Y20.962615
  X25.225955 Y20.933115
  X25.350055 Y20.886115
  X25.460155 Y20.823615
  X25.555755 Y20.747615
  X25.636155 Y20.659915
  X25.700555 Y20.562415
  X25.748655 Y20.456915
  X25.779155 Y20.345715
  X25.791955 Y20.230415
  X25.785955 Y20.112915
  X25.760555 Y19.995415
  X25.715355 Y19.879315
  X25.649155 Y19.767115
  X25.561655 Y19.660315
  X25.480955 Y19.583615
  X25.452155 Y19.560815
  X25.416955 Y19.533315
  X25.307255 Y19.456715
  X25.164755 Y19.371115
  X25.040855 Y19.313215
  X24.974055 Y19.291915
  X24.929755
  X24.863455 Y19.313215
  X24.740055 Y19.371115
  X24.597655 Y19.456715
  X24.487955 Y19.533315
  X24.452955 Y19.560815
G0 Z25.000000
  X30.523255 Y3.477625
F100	; set feedrate
G1 Z0.000000
F300	; set feedrate
G1 X30.512155 Y3.480395
  X30.479455 Y3.492005
  X30.401455 Y3.521685
  X30.290855 Y3.565905
  X30.149855 Y3.623735
  X29.980055 Y3.694475
  X29.783655 Y3.777165
  X29.562555 Y3.871075
  X29.318355 Y3.975345
  X29.053355 Y4.089165
  X28.769355 Y4.211685
  X28.467955 Y4.342045
  X28.151555 Y4.479525
  X27.821855 Y4.623135
  X27.480755 Y4.772225
  X27.130155 Y4.925825
  X26.861555 Y5.043825
  X26.772155 Y5.083155
  X26.630055 Y5.145705
  X26.204055 Y5.333805
  X25.698655 Y5.557975
  X25.250955 Y5.758225
  X24.857155 Y5.936835
  X24.512155 Y6.096165
  X24.211655 Y6.238635
  X23.951555 Y6.366625
  X23.726855 Y6.482515
  X23.533355 Y6.588575
  X23.366555 Y6.687325
  X23.221955 Y6.781075
  X23.095155 Y6.872155
  X22.981555 Y6.962975
  X22.876655 Y7.055915
  X22.775955 Y7.153405
  X22.700155 Y7.231315
  X22.675255 Y7.257715
  X22.604055 Y7.333015
  X22.403755 Y7.571615
  X22.190055 Y7.877915
  X22.032755 Y8.178315
  X21.950055 Y8.398815
  X21.930955 Y8.474415
  X21.924155 Y8.501515
  X21.912955 Y8.585415
  X21.895955 Y8.767515
  X21.880355 Y9.016315
  X21.865555 Y9.326915
  X21.852155 Y9.694515
  X21.839755 Y10.114515
  X21.828355 Y10.582215
  X21.818355 Y11.092615
  X21.809355 Y11.641515
  X21.801555 Y12.223615
  X21.794755 Y12.834615
  X21.789155 Y13.469415
  X21.784855 Y14.123715
  X21.781655 Y14.792515
  X21.779455 Y15.471115
  X21.778655 Y16.154915
  X21.778755 Y16.839015
  X21.780155 Y17.518815
  X21.782655 Y18.189615
  X21.786455 Y18.846415
  X21.791255 Y19.484915
  X21.797355 Y20.100015
  X21.804655 Y20.687415
  X21.812955 Y21.241815
  X21.822555 Y21.759015
  X21.833355 Y22.234015
  X21.845255 Y22.662115
  X21.858355 Y23.038615
  X21.872655 Y23.358915
  X21.888255 Y23.618215
  X21.904855 Y23.811715
  X21.916255 Y23.904315
  X21.922855 Y23.934615
  X21.940855 Y24.019215
  X22.012855 Y24.269015
  X22.134655 Y24.580315
  X22.288355 Y24.868315
  X22.474355 Y25.133215
  X22.692255 Y25.375015
  X22.942355 Y25.593915
  X23.224655 Y25.789915
  X23.458755 Y25.923615
  X23.539355 Y25.962915
  X23.609455 Y25.997415
  X23.826255 Y26.088315
  X24.117355 Y26.186715
  X24.410955 Y26.258315
  X24.705355 Y26.303915
  X24.998355 Y26.323815
  X25.288355 Y26.318315
  X25.573755 Y26.287915
  X25.852555 Y26.233215
  X26.122855 Y26.154415
  X26.383055 Y26.052215
  X26.631255 Y25.926915
  X26.865555 Y25.779015
  X27.084455 Y25.608915
  X27.285855 Y25.416915
  X27.468055 Y25.203815
  X27.592255 Y25.030115
  X27.629355 Y24.969615
  X27.642255 Y24.948815
  X27.675455 Y24.882515
  X27.740555 Y24.740415
  X27.823655 Y24.546915
  X27.923255 Y24.304715
  X28.038355 Y24.017415
  X28.167655 Y23.687915
  X28.309855 Y23.319415
  X28.464155 Y22.915315
  X28.628955 Y22.478515
  X28.803055 Y22.012215
  X28.985555 Y21.519715
  X29.175055 Y21.004315
  X29.370255 Y20.468915
  X29.570155 Y19.916815
  X29.773355 Y19.351115
  X29.927655 Y18.919315
  X29.978955 Y18.775115
  X30.031155 Y18.628115
  X30.188355 Y18.186515
  X30.402955 Y17.584215
  X30.620955 Y16.972415
  X30.840855 Y16.355715
  X31.060955 Y15.738515
  X31.280055 Y15.125115
  X31.496155 Y14.520015
  X31.707955 Y13.927615
  X31.913755 Y13.352415
  X32.111955 Y12.798515
  X32.301155 Y12.270615
  X32.479455 Y11.772915
  X32.645755 Y11.310015
  X32.797955 Y10.886115
  X32.934855 Y10.505815
  X33.024755 Y10.256515
  X33.054755 Y10.173415
  X33.095955 Y10.059015
  X33.219455 Y9.715915
  X33.366855 Y9.303015
  X33.497855 Y8.931215
  X33.613355 Y8.597515
  X33.714455 Y8.298415
  X33.801855 Y8.030715
  X33.876555 Y7.791115
  X33.939655 Y7.576415
  X33.991655 Y7.383215
  X34.033955 Y7.208315
  X34.067255 Y7.048375
  X34.092355 Y6.900205
  X34.110255 Y6.760505
  X34.122255 Y6.625905
  X34.128655 Y6.493255
  X34.130755 Y6.392665
  Y6.359145
  X34.130955 Y6.299945
  X34.128355 Y6.122205
  X34.117955 Y5.916325
  X34.097855 Y5.734365
  X34.066255 Y5.569265
  X34.021555 Y5.413935
  X33.961955 Y5.261265
  X33.885955 Y5.104255
  X33.816155 Y4.977305
  X33.791655 Y4.935695
  X33.760255 Y4.882305
  X33.657155 Y4.727195
  X33.507155 Y4.531615
  X33.343055 Y4.349485
  X33.166155 Y4.181455
  X32.977655 Y4.028085
  X32.778955 Y3.890015
  X32.571455 Y3.767725
  X32.356455 Y3.661935
  X32.135155 Y3.573115
  X31.908955 Y3.501935
  X31.679155 Y3.448985
  X31.447255 Y3.414805
  X31.214355 Y3.399985
  X30.981855 Y3.405085
  X30.750955 Y3.430805
  X30.579455 Y3.463305
  X30.523255 Y3.477625
G0 Z25.000000
  X17.889455 Y22.421515
F100	; set feedrate
G1 Z0.000000
F300	; set feedrate
G1 Y22.335815
  X17.877755 Y22.078715
  X17.842955 Y21.756715
  X17.784755 Y21.455115
  X17.703355 Y21.174215
  X17.598655 Y20.913715
  X17.470755 Y20.674015
  X17.319655 Y20.455015
  X17.191455 Y20.303315
  X17.145155 Y20.256515
  X17.098955 Y20.211015
  X16.949655 Y20.084915
  X16.735055 Y19.936115
  X16.501555 Y19.810115
  X16.248755 Y19.706915
  X15.976955 Y19.626815
  X15.685955 Y19.569315
  X15.375855 Y19.534915
  X15.128755 Y19.523515
  X8.747655
  X8.500555 Y19.534915
  X8.190255 Y19.569315
  X7.899055 Y19.626815
  X7.626955 Y19.706915
  X7.374025 Y19.810115
  X7.140245 Y19.936115
  X6.925565 Y20.084915
  X6.776315 Y20.211015
  X6.730095 Y20.256515
  X6.683705 Y20.303315
  X6.555615 Y20.455015
  X6.404405 Y20.674015
  X6.276485 Y20.913715
  X6.171765 Y21.174215
  X6.090385 Y21.455115
  X6.032235 Y21.756715
  X5.997345 Y22.078715
  X5.985735 Y22.335815
  Y22.507215
  X5.997345 Y22.764315
  X6.032235 Y23.085815
  X6.090385 Y23.386015
  X6.171765 Y23.665015
  X6.276485 Y23.922615
  X6.404405 Y24.159215
  X6.555615 Y24.374415
  X6.683705 Y24.522815
  X6.730095 Y24.568515
  X6.776265 Y24.615115
  X6.925565 Y24.744415
  X7.140245 Y24.896915
  X7.374025 Y25.026015
  X7.626955 Y25.131515
  X7.899055 Y25.213715
  X8.190255 Y25.272515
  X8.500555 Y25.307815
  X8.747655 Y25.319615
  X10.053955
  Y23.458915
  X8.651355
  X8.462355 Y23.443615
  X8.243955 Y23.397515
  X8.059255 Y23.320715
  X7.908055 Y23.213215
  X7.790555 Y23.074715
  X7.706555 Y22.905715
  X7.656155 Y22.705715
  X7.639355 Y22.532815
  Y22.417515
  X7.656155 Y22.244615
  X7.706555 Y22.044715
  X7.790555 Y21.875615
  X7.908055 Y21.737215
  X8.059255 Y21.629615
  X8.243955 Y21.552615
  X8.462355 Y21.506515
  X8.651355 Y21.491115
  X15.240755
  X15.426855 Y21.506515
  X15.641855 Y21.552615
  X15.823655 Y21.629615
  X15.972555 Y21.737215
  X16.088255 Y21.875615
  X16.170955 Y22.044715
  X16.220555 Y22.244615
  X16.237155 Y22.417515
  Y22.532815
  X16.220555 Y22.705715
  X16.170955 Y22.905715
  X16.088255 Y23.074715
  X15.972555 Y23.213215
  X15.823655 Y23.320715
  X15.641855 Y23.397515
  X15.426855 Y23.443615
  X15.240755 Y23.458915
  X13.409455
  Y25.319615
  X15.128755
  X15.375855 Y25.307815
  X15.685955 Y25.272515
  X15.976955 Y25.213715
  X16.248755 Y25.131515
  X16.501555 Y25.026015
  X16.735055 Y24.896915
  X16.949655 Y24.744415
  X17.098955 Y24.615115
  X17.145155 Y24.568515
  X17.191455 Y24.522815
  X17.319655 Y24.374415
  X17.470755 Y24.159215
  X17.598655 Y23.922615
  X17.703355 Y23.665015
  X17.784755 Y23.386015
  X17.842955 Y23.085815
  X17.877755 Y22.764315
  X17.889455 Y22.507215
  Y22.421515
G0 Z25.000000
  X32.282955 Y33.290115
F100	; set feedrate
G1 Z0.000000
F300	; set feedrate
G1 Y33.227215
  X32.257355 Y33.038215
  X32.184455 Y32.803515
  X32.068955 Y32.590815
  X31.915855 Y32.405715
  X31.730555 Y32.252815
  X31.517855 Y32.137415
  X31.282655 Y32.064315
  X31.093255 Y32.038915
  X30.967155
  X30.778255 Y32.064315
  X30.543355 Y32.137415
  X30.330855 Y32.252815
  X30.145555 Y32.405715
  X29.992655 Y32.590815
  X29.877255 Y32.803515
  X29.804355 Y33.038215
  X29.778955 Y33.227215
  Y33.353315
  X29.804355 Y33.542515
  X29.877255 Y33.777615
  X29.992655 Y33.990315
  X30.145555 Y34.175715
  X30.330855 Y34.328615
  X30.543355 Y34.444215
  X30.778255 Y34.517115
  X30.967155 Y34.542515
  X31.093255
  X31.282655 Y34.517115
  X31.517855 Y34.444215
  X31.730555 Y34.328615
  X31.915855 Y34.175715
  X32.068955 Y33.990315
  X32.184455 Y33.777615
  X32.257355 Y33.542515
  X32.282955 Y33.353315
  Y33.290115
G0 Z25.000000
  X33.427955
F100	; set feedrate
G1 Z0.000000
F300	; set feedrate
G1 Y33.228915
  X33.415555 Y33.045015
  X33.379355 Y32.806915
  X33.320155 Y32.577115
  X33.239455 Y32.356815
  X33.138455 Y32.147215
  X33.018455 Y31.949415
  X32.880455 Y31.765015
  X32.725755 Y31.594615
  X32.555455 Y31.439915
  X32.370855 Y31.301815
  X32.173055 Y31.181815
  X31.963455 Y31.080815
  X31.743255 Y31.000115
  X31.513355 Y30.941115
  X31.275355 Y30.904715
  X31.091455 Y30.892415
  X30.968955
  X30.785055 Y30.904715
  X30.546855 Y30.941115
  X30.317155 Y31.000115
  X30.096855 Y31.080815
  X29.887155 Y31.181815
  X29.689455 Y31.301815
  X29.504855 Y31.439915
  X29.334655 Y31.594615
  X29.179855 Y31.765015
  X29.041855 Y31.949415
  X28.921655 Y32.147215
  X28.820755 Y32.356815
  X28.740055 Y32.577115
  X28.680955 Y32.806915
  X28.644755 Y33.045015
  X28.632355 Y33.228915
  Y33.351515
  X28.644755 Y33.535315
  X28.680955 Y33.773315
  X28.740055 Y34.003115
  X28.820755 Y34.223315
  X28.921655 Y34.432915
  X29.041855 Y34.630615
  X29.179855 Y34.815115
  X29.334655 Y34.985415
  X29.504855 Y35.140315
  X29.689455 Y35.278215
  X29.887155 Y35.398315
  X30.096855 Y35.499315
  X30.317155 Y35.580015
  X30.546855 Y35.639015
  X30.785055 Y35.675315
  X30.968955 Y35.687615
  X31.091455
  X31.275355 Y35.675315
  X31.513355 Y35.639015
  X31.743255 Y35.580015
  X31.963455 Y35.499315
  X32.173055 Y35.398315
  X32.370855 Y35.278215
  X32.555455 Y35.140315
  X32.725755 Y34.985415
  X32.880455 Y34.815115
  X33.018455 Y34.630615
  X33.138455 Y34.432915
  X33.239455 Y34.223315
  X33.320155 Y34.003115
  X33.379355 Y33.773315
  X33.415555 Y33.535315
  X33.427955 Y33.351515
  Y33.290115
G0 Z25.000000
  X26.838455
F100	; set feedrate
G1 Z0.000000
F300	; set feedrate
G1 Y33.227215
  X26.812955 Y33.038215
  X26.740055 Y32.803515
  X26.624455 Y32.590815
  X26.471555 Y32.405715
  X26.286155 Y32.252815
  X26.073355 Y32.137415
  X25.838255 Y32.064315
  X25.648955 Y32.038915
  X25.522655
  X25.333255 Y32.064315
  X25.098055 Y32.137415
  X24.885255 Y32.252815
  X24.700055 Y32.405715
  X24.546955 Y32.590815
  X24.431455 Y32.803515
  X24.358455 Y33.038215
  X24.333055 Y33.227215
  Y33.353315
  X24.358455 Y33.542515
  X24.431455 Y33.777615
  X24.546955 Y33.990315
  X24.700055 Y34.175715
  X24.885255 Y34.328615
  X25.098055 Y34.444215
  X25.333255 Y34.517115
  X25.522655 Y34.542515
  X25.648955
  X25.838255 Y34.517115
  X26.073355 Y34.444215
  X26.286155 Y34.328615
  X26.471555 Y34.175715
  X26.624455 Y33.990315
  X26.740055 Y33.777615
  X26.812955 Y33.542515
  X26.838455 Y33.353315
  Y33.290115
G0 Z25.000000
  X27.983455
F100	; set feedrate
G1 Z0.000000
F300	; set feedrate
G1 Y33.228915
  X27.971155 Y33.045015
  X27.934855 Y32.806915
  X27.875755 Y32.577115
  X27.795155 Y32.356815
  X27.694155 Y32.147215
  X27.574055 Y31.949415
  X27.435955 Y31.765015
  X27.281255 Y31.594615
  X27.110955 Y31.439915
  X26.926455 Y31.301815
  X26.728655 Y31.181815
  X26.519055 Y31.080815
  X26.298755 Y31.000115
  X26.069055 Y30.941115
  X25.830855 Y30.904715
  X25.646955 Y30.892415
  X25.524455
  X25.340555 Y30.904715
  X25.102555 Y30.941115
  X24.872655 Y31.000115
  X24.652355 Y31.080815
  X24.442855 Y31.181815
  X24.245055 Y31.301815
  X24.060455 Y31.439915
  X23.890155 Y31.594615
  X23.735455 Y31.765015
  X23.597355 Y31.949415
  X23.477355 Y32.147215
  X23.376455 Y32.356815
  X23.295755 Y32.577115
  X23.236555 Y32.806915
  X23.200355 Y33.045015
  X23.187955 Y33.228915
  Y33.351515
  X23.200355 Y33.535315
  X23.236555 Y33.773315
  X23.295755 Y34.003115
  X23.376455 Y34.223315
  X23.477355 Y34.432915
  X23.597355 Y34.630615
  X23.735455 Y34.815115
  X23.890155 Y34.985415
  X24.060455 Y35.140315
  X24.245055 Y35.278215
  X24.442855 Y35.398315
  X24.652355 Y35.499315
  X24.872655 Y35.580015
  X25.102555 Y35.639015
  X25.340555 Y35.675315
  X25.524455 Y35.687615
  X25.646955
  X25.830855 Y35.675315
  X26.069055 Y35.639015
  X26.298755 Y35.580015
  X26.519055 Y35.499315
  X26.728655 Y35.398315
  X26.926455 Y35.278215
  X27.110955 Y35.140315
  X27.281255 Y34.985415
  X27.435955 Y34.815115
  X27.574055 Y34.630615
  X27.694155 Y34.432915
  X27.795155 Y34.223315
  X27.875755 Y34.003115
  X27.934855 Y33.773315
  X27.971155 Y33.535315
  X27.983455 Y33.351515
  Y33.290115
G0 Z25.000000
  X17.657755 Y31.570415
F100	; set feedrate
G1 Z0.000000
F300	; set feedrate
G1 X17.615055 Y31.526915
  X17.480955 Y31.402415
  X17.307555 Y31.260815
  X17.134055 Y31.144915
  X16.957955 Y31.052915
  X16.776255 Y30.983615
  X16.585955 Y30.935815
  X16.384155 Y30.908115
  X16.222155 Y30.899015
  X16.114355
  X15.953355 Y30.906815
  X15.746855 Y30.929415
  X15.548655 Y30.966415
  X15.359055 Y31.016815
  X15.178355 Y31.080015
  X15.006855 Y31.155415
  X14.844655 Y31.242215
  X14.692155 Y31.339715
  X14.549455 Y31.447215
  X14.417155 Y31.564015
  X14.295155 Y31.689615
  X14.183955 Y31.822915
  X14.083755 Y31.963315
  X13.994755 Y32.110415
  X13.917255 Y32.263215
  X13.851455 Y32.421115
  X13.797855 Y32.583315
  X13.756255 Y32.749215
  X13.727355 Y32.918115
  X13.711255 Y33.089215
  X13.708355 Y33.261915
  X13.718655 Y33.435415
  X13.742655 Y33.609015
  X13.780455 Y33.782215
  X13.832355 Y33.954015
  X13.898755 Y34.123915
  X13.979755 Y34.291115
  X14.075555 Y34.454915
  X14.186655 Y34.614615
  X14.313255 Y34.769615
  X14.455455 Y34.919015
  X14.572755 Y35.027915
  X14.613655 Y35.062215
  X14.669055 Y35.108915
  X14.845055 Y35.237215
  X15.083755 Y35.380115
  X15.328055 Y35.491315
  X15.576155 Y35.571115
  X15.825955 Y35.620115
  X16.075855 Y35.638615
  X16.324055 Y35.627115
  X16.568455 Y35.586015
  X16.807655 Y35.515615
  X17.039455 Y35.416515
  X17.262255 Y35.289015
  X17.474055 Y35.133615
  X17.673255 Y34.950715
  X17.857855 Y34.740715
  X18.025955 Y34.503915
  X18.141655 Y34.308315
  X18.175955 Y34.241015
  X18.221455 Y34.151715
  X18.337155 Y33.873215
  X18.435455 Y33.524015
  X18.470155 Y33.188815
  X18.440255 Y32.863215
  X18.345055 Y32.543115
  X18.183455 Y32.223815
  X17.954655 Y31.901015
  X17.735755 Y31.649415
  X17.657755 Y31.570415
G0 Z25.000000
  X11.131355 Y31.916115
F100	; set feedrate
G1 Z0.000000
F300	; set feedrate
G1 X11.109955 Y31.885615
  X11.037855 Y31.799215
  X10.919255 Y31.676915
  X10.780655 Y31.552915
  X10.626655 Y31.431015
  X10.462055 Y31.314715
  X10.291755 Y31.207615
  X10.120455 Y31.113315
  X9.995655 Y31.053315
  X9.953155 Y31.035615
  X9.894555 Y31.011115
  X9.717055 Y30.941915
  X9.513255 Y30.875115
  X9.331055 Y30.834915
  X9.159555 Y30.821515
  X8.987855 Y30.834915
  X8.805655 Y30.875115
  X8.601755 Y30.941915
  X8.424155 Y31.011115
  X8.365655 Y31.035615
  X8.277855 Y31.072215
  X8.023455 Y31.203815
  X7.717355 Y31.405615
  X7.450305 Y31.637215
  X7.225205 Y31.895015
  X7.044985 Y32.174715
  X6.912595 Y32.472515
  X6.830995 Y32.784615
  X6.803165 Y33.026315
  Y33.163115
  X6.811095 Y33.331715
  X6.834475 Y33.547615
  X6.872565 Y33.754415
  X6.924595 Y33.951915
  X6.989865 Y34.139915
  X7.067595 Y34.317815
  X7.157175 Y34.485715
  X7.257815 Y34.643115
  X7.368765 Y34.789915
  X7.489315 Y34.925715
  X7.618705 Y35.050315
  X7.756255 Y35.163515
  X7.901355 Y35.265015
  X8.052955 Y35.354615
  X8.210655 Y35.431915
  X8.373455 Y35.496815
  X8.540955 Y35.549015
  X8.712055 Y35.588215
  X8.886255 Y35.614015
  X9.062855 Y35.626515
  X9.240955 Y35.625115
  X9.420055 Y35.609715
  X9.599155 Y35.580115
  X9.777755 Y35.536015
  X9.955055 Y35.476915
  X10.130355 Y35.402915
  X10.302755 Y35.313615
  X10.471755 Y35.208715
  X10.636455 Y35.088115
  X10.796355 Y34.951215
  X10.950455 Y34.798115
  X11.062855 Y34.671915
  X11.098255 Y34.628315
  X11.122755 Y34.597915
  X11.189055 Y34.500715
  X11.268055 Y34.358215
  X11.335355 Y34.202615
  X11.391055 Y34.036115
  X11.434755 Y33.860715
  X11.466755 Y33.678215
  X11.486855 Y33.491015
  X11.495155 Y33.300715
  X11.491555 Y33.109415
  X11.475955 Y32.919415
  X11.448555 Y32.732615
  X11.409155 Y32.551015
  X11.357655 Y32.376515
  X11.294355 Y32.211115
  X11.218855 Y32.057115
  X11.155155 Y31.950015
  X11.131355 Y31.916115
G0 Z25.000000
  X9.994455 Y34.137515
F100	; set feedrate
G1 Z0.000000
F300	; set feedrate
G1 X9.963755 Y34.168215
  X9.870555 Y34.259215
  X9.757555 Y34.365115
  X9.653755 Y34.455615
  X9.557655 Y34.530615
  X9.467855 Y34.590615
  X9.382555 Y34.635415
  X9.300555 Y34.665315
  X9.219955 Y34.680615
  X9.139555 Y34.681115
  X9.057655 Y34.667415
  X8.972855 Y34.639215
  X8.883455 Y34.596915
  X8.787955 Y34.540715
  X8.684855 Y34.470615
  X8.572755 Y34.386715
  X8.480355 Y34.313915
  X8.449955 Y34.289315
  X8.405155 Y34.253115
  X8.282155 Y34.130615
  X8.148255 Y33.956715
  X8.046955 Y33.771015
  X7.977355 Y33.576915
  X7.938255 Y33.378315
  X7.928455 Y33.178515
  X7.947055 Y32.980815
  X7.992755 Y32.789215
  X8.064555 Y32.606815
  X8.161355 Y32.437415
  X8.282055 Y32.284415
  X8.425455 Y32.151315
  X8.590555 Y32.041715
  X8.776255 Y31.958915
  X8.981355 Y31.906815
  X9.148955 Y31.888615
  X9.230155
  X9.306055 Y31.897815
  X9.413255 Y31.924315
  X9.524655 Y31.966515
  X9.638455 Y32.022815
  X9.753055 Y32.091415
  X9.866855 Y32.170815
  X9.977855 Y32.259315
  X10.084455 Y32.355315
  X10.184955 Y32.457115
  X10.277655 Y32.563115
  X10.360855 Y32.671515
  X10.432755 Y32.781015
  X10.491655 Y32.889715
  X10.535855 Y32.996015
  X10.563655 Y33.098315
  X10.573255 Y33.170815
  Y33.216115
  X10.561455 Y33.279715
  X10.527655 Y33.381815
  X10.474055 Y33.497115
  X10.403255 Y33.621815
  X10.317555 Y33.752115
  X10.219255 Y33.884215
  X10.110755 Y34.013915
  X10.024455 Y34.107615
  X9.994455 Y34.137515
G0 Z25.000000
  X11.922255 Y34.975415
F100	; set feedrate
G1 Z0.000000
F300	; set feedrate
G1 X11.857855 Y35.072115
  X11.641155 Y35.346715
  X11.330155 Y35.667215
  X10.993955 Y35.937215
  X10.636855 Y36.156815
  X10.263155 Y36.325815
  X9.877355 Y36.444615
  X9.483855 Y36.512915
  X9.087055 Y36.531115
  X8.691355 Y36.499315
  X8.301155 Y36.417215
  X7.920855 Y36.285315
  X7.554865 Y36.103515
  X7.207585 Y35.871815
  X6.883365 Y35.590415
  X6.586695 Y35.259415
  X6.382225 Y34.977515
  X6.321995 Y34.878715
  X6.293685 Y34.832415
  X6.214955 Y34.689315
  X6.122885 Y34.496815
  X6.045585 Y34.302115
  X5.982585 Y34.105615
  X5.933765 Y33.907915
  X5.898765 Y33.709415
  X5.877275 Y33.510815
  X5.869045 Y33.312615
  X5.873805 Y33.115315
  X5.891225 Y32.919315
  X5.921065 Y32.725415
  X5.962945 Y32.534015
  X6.016705 Y32.345715
  X6.081985 Y32.160815
  X6.158475 Y31.980315
  X6.245985 Y31.804215
  X6.344135 Y31.633515
  X6.452635 Y31.468315
  X6.571295 Y31.309415
  X6.699705 Y31.157515
  X6.837685 Y31.012815
  X6.984865 Y30.876015
  X7.141065 Y30.747515
  X7.305885 Y30.628115
  X7.479055 Y30.518115
  X7.660355 Y30.418115
  X7.849355 Y30.328615
  X8.046055 Y30.250315
  X8.249855 Y30.183615
  X8.460655 Y30.129015
  X8.678055 Y30.087115
  X8.845755 Y30.063915
  X8.901855 Y30.058315
  X8.982355 Y30.050715
  X9.224755 Y30.033815
  X9.509655 Y30.026815
  X9.764855 Y30.039315
  X9.998755 Y30.072815
  X10.219555 Y30.129015
  X10.435555 Y30.209615
  X10.654955 Y30.316015
  X10.829455 Y30.414915
  X10.886255 Y30.450015
  X10.957455 Y30.493915
  X11.162055 Y30.641115
  X11.412555 Y30.856715
  X11.637155 Y31.094015
  X11.835155 Y31.350615
  X12.006155 Y31.623815
  X12.149155 Y31.911015
  X12.264055 Y32.209415
  X12.349855 Y32.516815
  X12.406155 Y32.830115
  X12.432255 Y33.147115
  X12.427655 Y33.464915
  X12.391655 Y33.780815
  X12.323755 Y34.092615
  X12.223355 Y34.397415
  X12.089755 Y34.692515
  X11.967955 Y34.907215
  X11.922255 Y34.975415
G0 Z25.000000
  X17.110555 Y34.050715
F100	; set feedrate
G1 Z0.000000
F300	; set feedrate
G1 X17.075955 Y34.094015
  X16.959055 Y34.213215
  X16.792655 Y34.342815
  X16.615155 Y34.440815
  X16.429655 Y34.508315
  X16.239655 Y34.546415
  X16.048355 Y34.556115
  X15.859355 Y34.538315
  X15.675855 Y34.494315
  X15.501455 Y34.425115
  X15.339155 Y34.331815
  X15.192655 Y34.215415
  X15.065155 Y34.076915
  X14.960355 Y33.917515
  X14.881155 Y33.738215
  X14.830955 Y33.540315
  X14.813655 Y33.378315
  Y33.291915
  X14.820855 Y33.194615
  X14.841655 Y33.064615
  X14.875055 Y32.935615
  X14.920355 Y32.808915
  X14.976155 Y32.685615
  X15.041655 Y32.566815
  X15.115955 Y32.453815
  X15.198055 Y32.347615
  X15.286955 Y32.249615
  X15.381555 Y32.160815
  X15.481155 Y32.082615
  X15.584455 Y32.015815
  X15.690555 Y31.961915
  X15.798755 Y31.921915
  X15.907655 Y31.897215
  X15.989455 Y31.888615
  X16.065755
  X16.213055 Y31.903915
  X16.398755 Y31.947815
  X16.572555 Y32.017615
  X16.732955 Y32.110715
  X16.878455 Y32.224415
  X17.007955 Y32.355815
  X17.119755 Y32.502415
  X17.212855 Y32.661315
  X17.285455 Y32.829715
  X17.336455 Y33.005115
  X17.364455 Y33.184715
  X17.368055 Y33.366015
  X17.345855 Y33.545715
  X17.296455 Y33.721715
  X17.218455 Y33.891015
  X17.140555 Y34.013215
  X17.110555 Y34.050715
G0 Z25.000000
  X18.886855 Y34.990615
F100	; set feedrate
G1 Z0.000000
F300	; set feedrate
G1 X18.863255 Y35.028915
  X18.784455 Y35.138715
  X18.662155 Y35.286415
  X18.521955 Y35.432415
  X18.366255 Y35.575115
  X18.197155 Y35.713815
  X18.016655 Y35.846815
  X17.827255 Y35.973115
  X17.630855 Y36.091415
  X17.429755 Y36.200415
  X17.226155 Y36.298915
  X17.022255 Y36.385715
  X16.820055 Y36.459615
  X16.621855 Y36.519215
  X16.429855 Y36.563215
  X16.246155 Y36.590615
  X16.116255 Y36.600015
  X15.993255
  X15.753655 Y36.581515
  X15.441155 Y36.527615
  X15.137555 Y36.440315
  X14.844455 Y36.321515
  X14.564055 Y36.173215
  X14.298055 Y35.997415
  X14.048355 Y35.796315
  X13.816955 Y35.571715
  X13.605755 Y35.325615
  X13.416555 Y35.060115
  X13.251255 Y34.777415
  X13.111855 Y34.479215
  X12.999855 Y34.167615
  X12.917755 Y33.844615
  X12.867155 Y33.512415
  X12.849755 Y33.257615
  Y33.100015
  X12.862255 Y32.882115
  X12.898755 Y32.603315
  X12.958255 Y32.336515
  X13.039155 Y32.082215
  X13.140255 Y31.840715
  X13.260555 Y31.612415
  X13.398355 Y31.397615
  X13.552655 Y31.196715
  X13.721955 Y31.010015
  X13.905155 Y30.838115
  X14.100755 Y30.681115
  X14.307655 Y30.539415
  X14.524655 Y30.413515
  X14.750155 Y30.303615
  X14.983055 Y30.210115
  X15.222155 Y30.133515
  X15.465955 Y30.074015
  X15.713455 Y30.032115
  X15.963055 Y30.008115
  X16.213755 Y30.002215
  X16.463955 Y30.015015
  X16.712655 Y30.046815
  X16.958355 Y30.097915
  X17.200055 Y30.168815
  X17.436155 Y30.259615
  X17.665455 Y30.370815
  X17.886655 Y30.502815
  X18.098655 Y30.656115
  X18.300055 Y30.830715
  X18.489455 Y31.027415
  X18.665755 Y31.246115
  X18.789755 Y31.425615
  X18.827555 Y31.487515
  X18.854755 Y31.531915
  X18.927855 Y31.670715
  X19.015255 Y31.869615
  X19.090055 Y32.081915
  X19.151955 Y32.305415
  X19.201255 Y32.537615
  X19.237655 Y32.776115
  X19.261155 Y33.018815
  X19.271855 Y33.262915
  X19.269455 Y33.506215
  X19.254155 Y33.746715
  X19.225755 Y33.981415
  X19.184155 Y34.208515
  X19.129655 Y34.425115
  X19.061955 Y34.629315
  X18.980955 Y34.818615
  X18.912655 Y34.949015
  X18.886855 Y34.990615
G0 Z25.000000
  X32.101155 Y4.101705
F100	; set feedrate
G1 Z0.000000
F300	; set feedrate
G1 X32.149455 Y4.121895
  X32.291255 Y4.189375
  X32.470855 Y4.288555
  X32.639355 Y4.398695
  X32.796455 Y4.519025
  X32.941655 Y4.649125
  X33.074755 Y4.788225
  X33.195355 Y4.935795
  X33.302855 Y5.091185
  X33.396955 Y5.253775
  X33.477555 Y5.423005
  X33.543755 Y5.598185
  X33.595555 Y5.778685
  X33.632555 Y5.964015
  X33.654155 Y6.153455
  X33.660055 Y6.346395
  X33.654455 Y6.493475
  X33.649855 Y6.542235
  X33.648455 Y6.556625
  X33.641255 Y6.599435
  X33.624455 Y6.678955
  X33.599355 Y6.780195
  X33.566455 Y6.902265
  X33.525855 Y7.044575
  X33.478055 Y7.206315
  X33.423055 Y7.386715
  X33.361255 Y7.585215
  X33.293055 Y7.800915
  X33.218355 Y8.033115
  X33.137755 Y8.281215
  X33.051455 Y8.544215
  X32.959455 Y8.821715
  X32.862355 Y9.112715
  X32.760155 Y9.416615
  X32.653355 Y9.732715
  X32.541955 Y10.060115
  X32.426555 Y10.398315
  X32.306955 Y10.746415
  X32.183955 Y11.103615
  X32.057255 Y11.469415
  X31.927655 Y11.843115
  X31.795055 Y12.223615
  X31.659755 Y12.610415
  X31.522255 Y13.002815
  X31.382555 Y13.400115
  X31.240955 Y13.801415
  X31.097855 Y14.206315
  X30.953355 Y14.613615
  X30.807755 Y15.022915
  X30.661555 Y15.433315
  X30.514655 Y15.844215
  X30.367555 Y16.254915
  X30.220455 Y16.664415
  X30.073455 Y17.072215
  X29.927155 Y17.477615
  X29.781455 Y17.879715
  X29.636855 Y18.277915
  X29.493655 Y18.671515
  X29.351855 Y19.059615
  X29.211955 Y19.441715
  X29.074155 Y19.816815
  X28.938655 Y20.184315
  X28.805755 Y20.543515
  X28.675755 Y20.893815
  X28.548755 Y21.234015
  X28.425355 Y21.563915
  X28.305455 Y21.882515
  X28.189455 Y22.189215
  X28.077655 Y22.483115
  X27.970455 Y22.763515
  X27.867655 Y23.029915
  X27.770055 Y23.281115
  X27.677555 Y23.516915
  X27.590555 Y23.736215
  X27.509355 Y23.938615
  X27.434055 Y24.123115
  X27.365055 Y24.288915
  X27.302555 Y24.435615
  X27.246955 Y24.562115
  X27.198355 Y24.667915
  X27.156955 Y24.752215
  X27.123255 Y24.814315
  X27.104655 Y24.844315
  X27.097355 Y24.853515
  X27.053055 Y24.909015
  X26.908655 Y25.066415
  X26.703755 Y25.254715
  X26.484455 Y25.418215
  X26.252955 Y25.556815
  X26.011155 Y25.670315
  X25.761155 Y25.758315
  X25.504855 Y25.821015
  X25.244155 Y25.857815
  X24.981555 Y25.868815
  X24.718455 Y25.853715
  X24.457255 Y25.812415
  X24.199855 Y25.744615
  X23.948355 Y25.650115
  X23.704655 Y25.528915
  X23.470755 Y25.380715
  X23.301655 Y25.251815
  X23.248655 Y25.205115
  X23.226555 Y25.185815
  X23.160155 Y25.128115
  X23.077355 Y25.056015
  X23.000155 Y24.987115
  X22.928355 Y24.919615
  X22.861655 Y24.851715
  X22.799855 Y24.781515
  X22.742955 Y24.707415
  X22.690455 Y24.627415
  X22.642355 Y24.539715
  X22.598455 Y24.442615
  X22.558655 Y24.334215
  X22.522555 Y24.212815
  X22.490155 Y24.076515
  X22.461155 Y23.923515
  X22.435255 Y23.751915
  X22.412655 Y23.560115
  X22.392655 Y23.346315
  X22.375455 Y23.108315
  X22.360755 Y22.844915
  X22.348255 Y22.553615
  X22.337955 Y22.233215
  X22.329455 Y21.881515
  X22.322655 Y21.496915
  X22.317355 Y21.077515
  X22.313455 Y20.621715
  X22.310755 Y20.127215
  X22.308955 Y19.592615
  X22.307855 Y19.016115
  X22.307355 Y18.395715
  X22.307255 Y17.729715
  Y17.016215
  X22.307355 Y16.444215
  Y15.614215
  X22.307655 Y15.011715
  X22.307955 Y14.445015
  X22.308455 Y13.912915
  X22.309155 Y13.414215
  X22.310155 Y12.947615
  X22.311555 Y12.512115
  X22.313255 Y12.106515
  X22.315255 Y11.729415
  X22.317655 Y11.379915
  X22.320555 Y11.056515
  X22.323955 Y10.758315
  X22.327755 Y10.483915
  X22.332255 Y10.232315
  X22.337255 Y10.002215
  X22.342955 Y9.792415
  X22.349055 Y9.601815
  X22.356155 Y9.429215
  X22.363755 Y9.273315
  X22.372255 Y9.133015
  X22.381555 Y9.007215
  X22.391555 Y8.894515
  X22.402555 Y8.793915
  X22.414355 Y8.704215
  X22.427155 Y8.624115
  X22.440855 Y8.552515
  X22.455755 Y8.488215
  X22.471455 Y8.430015
  X22.488355 Y8.376715
  X22.506455 Y8.327215
  X22.525455 Y8.280215
  X22.540555 Y8.245815
  X22.545855 Y8.234515
  X22.558655 Y8.206615
  X22.600255 Y8.124215
  X22.664055 Y8.009515
  X22.734755 Y7.893715
  X22.810155 Y7.780315
  X22.887655 Y7.672515
  X22.965155 Y7.573615
  X23.040355 Y7.487115
  X23.092355 Y7.433015
  X23.110755 Y7.416015
  X23.120755 Y7.406815
  X23.155155 Y7.383715
  X23.234055 Y7.336315
  X23.344655 Y7.274915
  X23.485155 Y7.200615
  X23.653255 Y7.114345
  X23.846555 Y7.017125
  X24.063055 Y6.910025
  X24.300455 Y6.794025
  X24.556555 Y6.670165
  X24.829155 Y6.539415
  X25.116155 Y6.402865
  X25.415155 Y6.261545
  X25.724055 Y6.116345
  X26.040555 Y5.968455
  X26.362655 Y5.818775
  X26.687955 Y5.668335
  X27.014355 Y5.518205
  X27.339455 Y5.369335
  X27.661155 Y5.222845
  X27.977355 Y5.079685
  X28.285855 Y4.940845
  X28.584155 Y4.807435
  X28.870455 Y4.680375
  X29.142255 Y4.560755
  X29.397555 Y4.449585
  X29.633755 Y4.347845
  X29.849155 Y4.256595
  X30.041155 Y4.176845
  X30.207755 Y4.109575
  X30.346655 Y4.055865
  X30.455755 Y4.016695
  X30.513355 Y3.998085
  X30.532855 Y3.993045
  X30.579755 Y3.980985
  X30.723255 Y3.953325
  X30.921255 Y3.929125
  X31.124055 Y3.920395
  X31.328355 Y3.926905
  X31.531255 Y3.948445
  X31.729755 Y3.984905
  X31.920755 Y4.036055
  X32.056955 Y4.083205
  X32.101155 Y4.101705
M5	; stop spindle
G0 Z25.000000
M2	; end program
