G21 (metric ftw)
G90 (absolute mode)
G92 X0.00 Y0.00 Z0.00 (you are here)

M300 S30 (pen down)
G4 P50 (wait 50ms)
M300 S50 (pen up)
G4 P50 (wait 50ms)
M18 (disengage drives)
M01 (Was registration test successful?)
M17 (engage drives if YES, and continue)

(Header end)












G1  X11.638218  Y37.183347

M300 S30 (pen down)
G4 P50 (wait 50ms)

G1  X11.638709  Y37.066322
G1  X11.640261  Y36.715165
G1  X11.642304  Y36.216337
G1  X11.644266  Y35.685719
G1  X11.646227  Y35.122412
G1  X11.648107  Y34.525355
G1  X11.650068  Y33.893403
G1  X11.652029  Y33.225656
G1  X11.653500  Y32.697163
G1  X11.654072  Y32.521135
G1  X11.681122  Y23.325913
G1  X12.476272  Y22.161463
G1  X12.498256  Y22.129265
G1  X12.564205  Y22.032670
G1  X12.663496  Y21.886960
G1  X12.773003  Y21.726051
G1  X12.891745  Y21.551657
G1  X13.018495  Y21.365168
G1  X13.152273  Y21.168465
G1  X13.291771  Y20.963017
G1  X13.436092  Y20.750541
G1  X13.583926  Y20.532590
G1  X13.734375  Y20.310798
G1  X13.886214  Y20.086881
G1  X14.038379  Y19.862392
G1  X14.189809  Y19.639047
G1  X14.339196  Y19.418235
G1  X14.485723  Y19.201837
G1  X14.592533  Y19.044032
G1  X14.628082  Y18.991404
G1  X14.647204  Y18.962883
G1  X14.704981  Y18.877402
G1  X14.795774  Y18.743052
G1  X14.900132  Y18.588762
G1  X15.017239  Y18.415431
G1  X15.146850  Y18.223875
G1  X15.288636  Y18.014341
G1  X15.441864  Y17.787891
G1  X15.606288  Y17.544933
G1  X15.781335  Y17.286366
G1  X15.966680  Y17.012599
G1  X16.161667  Y16.724367
G1  X16.366135  Y16.422570
G1  X16.579264  Y16.107615
G1  X16.800975  Y15.780320
G1  X17.030530  Y15.441258
G1  X17.267523  Y15.091245
G1  X17.511707  Y14.730771
G1  X17.762428  Y14.360491
G1  X18.019279  Y13.981303
G1  X18.281768  Y13.593698
G1  X18.549406  Y13.198329
G1  X18.821948  Y12.796014
G1  X19.098820  Y12.387325
G1  X19.379452  Y11.972915
G1  X19.663597  Y11.553439
G1  X19.950603  Y11.129713
G1  X20.240143  Y10.702228
G1  X20.531725  Y10.271686
G1  X20.824942  Y9.838873
G1  X21.119221  Y9.404327
G1  X21.414236  Y8.968808
G1  X21.635701  Y8.641865
G1  X21.709577  Y8.532881
G1  X21.845562  Y8.332263
G1  X22.253270  Y7.730033
G1  X22.784787  Y6.943847
G1  X23.301757  Y6.177986
G1  X23.801648  Y5.436134
G1  X24.282007  Y4.722044
G1  X24.740301  Y4.039359
G1  X25.174242  Y3.391724
G1  X25.479636  Y2.935147
G1  X25.581379  Y2.782850
M300 S50 (pen up)
G4 P50 (wait 50ms)
G1  X25.112788  Y2.756914

M300 S30 (pen down)
G4 P50 (wait 50ms)

G1  X25.063918  Y2.828695
G1  X24.917146  Y3.044126
G1  X24.706142  Y3.354303
G1  X24.482388  Y3.683592
G1  X24.248338  Y4.028310
G1  X24.006851  Y4.384607
G1  X23.760297  Y4.748791
G1  X23.511373  Y5.117045
G1  X23.324721  Y5.393492
G1  X23.262531  Y5.485625
G1  X23.209494  Y5.564233
G1  X23.050219  Y5.800008
G1  X22.807914  Y6.158561
G1  X22.538397  Y6.557198
G1  X22.244526  Y6.991736
G1  X21.928999  Y7.458121
G1  X21.594595  Y7.952250
G1  X21.244091  Y8.469931
G1  X20.880431  Y9.007111
G1  X20.506310  Y9.559679
G1  X20.124507  Y10.123509
G1  X19.737801  Y10.694546
G1  X19.349051  Y11.268476
G1  X18.960874  Y11.841507
G1  X18.576375  Y12.409227
G1  X18.198004  Y12.967630
G1  X17.921131  Y13.376401
G1  X17.828786  Y13.512630
G1  X17.737258  Y13.647716
G1  X17.462510  Y14.052891
G1  X17.093619  Y14.597402
G1  X16.724320  Y15.142321
G1  X16.357390  Y15.684053
G1  X15.994955  Y16.219002
G1  X15.639794  Y16.743572
G1  X15.294112  Y17.254004
G1  X14.960525  Y17.746785
G1  X14.641320  Y18.218237
G1  X14.339278  Y18.664599
G1  X14.056603  Y19.082360
G1  X13.795830  Y19.468004
G1  X13.559409  Y19.817445
G1  X13.349875  Y20.127496
G1  X13.169679  Y20.394235
G1  X13.058211  Y20.559149
G1  X13.021110  Y20.614229
G1  X11.742005  Y22.507227
G1  X11.615745  Y22.069199
G1  X11.592209  Y21.988132
G1  X11.509670  Y21.748197
G1  X11.386026  Y21.458249
G1  X11.242850  Y21.196577
G1  X11.078017  Y20.960974
G1  X10.889568  Y20.748743
G1  X10.675457  Y20.557351
G1  X10.433480  Y20.384183
G1  X10.231301  Y20.263154
G1  X10.161838  Y20.226706
G1  X10.138302  Y20.214448
G1  X10.064671  Y20.183067
G1  X9.951715  Y20.144413
G1  X9.825578  Y20.111315
G1  X9.688752  Y20.083530
G1  X9.543819  Y20.061220
G1  X9.393247  Y20.044467
G1  X9.239619  Y20.033108
G1  X9.085508  Y20.027387
G1  X8.933384  Y20.027306
G1  X8.785786  Y20.032944
G1  X8.645323  Y20.044304
G1  X8.514487  Y20.061465
G1  X8.395844  Y20.084429
G1  X8.291878  Y20.113195
G1  X8.205196  Y20.147927
G1  X8.153630  Y20.176774
G1  X8.138290  Y20.188706
G1  X8.122821  Y20.200637
G1  X8.076354  Y20.236349
G1  X8.031709  Y20.269528
G1  X8.004038  Y20.287425
G1  X7.993218  Y20.289468
G1  X7.998939  Y20.275330
G1  X8.021061  Y20.243868
G1  X8.059323  Y20.194916
G1  X8.099906  Y20.144576
G1  X8.113512  Y20.127905
G1  X8.117321  Y20.123083
G1  X8.128141  Y20.108373
G1  X8.153989  Y20.072171
G1  X8.190747  Y20.019787
G1  X8.238089  Y19.951795
G1  X8.295776  Y19.868439
G1  X8.363433  Y19.770210
G1  X8.440848  Y19.657516
G1  X8.527702  Y19.530847
G1  X8.623643  Y19.390532
G1  X8.728467  Y19.237140
G1  X8.841880  Y19.070919
G1  X8.963498  Y18.892521
G1  X9.093092  Y18.702191
G1  X9.230392  Y18.500339
G1  X9.375064  Y18.287700
G1  X9.526796  Y18.064273
G1  X9.685336  Y17.830795
G1  X9.850397  Y17.587673
G1  X10.021685  Y17.335154
G1  X10.198857  Y17.073890
G1  X10.381668  Y16.804046
G1  X10.569791  Y16.526438
G1  X10.762981  Y16.241066
G1  X10.960911  Y15.948749
G1  X11.163335  Y15.649648
G1  X11.369845  Y15.344173
G1  X11.580278  Y15.033141
G1  X11.794225  Y14.716470
G1  X12.011522  Y14.394896
G1  X12.231762  Y14.068663
G1  X12.454698  Y13.738509
G1  X12.623780  Y13.488032
G1  X12.680086  Y13.404513
G1  X12.736964  Y13.320258
G1  X12.907762  Y13.067248
G1  X13.137318  Y12.727123
G1  X13.368508  Y12.384710
G1  X13.600842  Y12.040499
G1  X13.833912  Y11.695307
G1  X14.067227  Y11.349544
G1  X14.300623  Y11.003862
G1  X14.533530  Y10.658997
G1  X14.765537  Y10.315268
G1  X14.996237  Y9.973427
G1  X15.225302  Y9.634078
G1  X15.452406  Y9.297786
G1  X15.676895  Y8.965163
G1  X15.898688  Y8.636765
G1  X16.117047  Y8.313197
G1  X16.331975  Y7.995088
G1  X16.542571  Y7.683035
G1  X16.748836  Y7.377551
G1  X16.950198  Y7.079301
G1  X17.146330  Y6.788895
G1  X17.336823  Y6.506866
G1  X17.521105  Y6.233851
G1  X17.699094  Y5.970446
G1  X17.870056  Y5.717191
G1  X18.033825  Y5.474756
G1  X18.189832  Y5.243713
G1  X18.337748  Y5.024609
G1  X18.477246  Y4.818083
G1  X18.607919  Y4.624689
G1  X18.729194  Y4.445081
G1  X18.840907  Y4.279832
G1  X18.917072  Y4.167089
G1  X18.942487  Y4.129489
G1  X19.001326  Y4.042497
G1  X19.302879  Y3.596207
G1  X19.611051  Y3.140201
G1  X19.673241  Y3.048383
M300 S50 (pen up)
G4 P50 (wait 50ms)
G1  X19.083375  Y3.162242

M300 S30 (pen down)
G4 P50 (wait 50ms)

G1  X19.012114  Y3.268120
G1  X18.797758  Y3.585698
G1  X18.500292  Y4.026847
G1  X18.190404  Y4.486179
G1  X17.948753  Y4.844642
G1  X17.868339  Y4.964095
G1  X17.801491  Y5.063223
G1  X17.600865  Y5.360542
G1  X17.325463  Y5.769060
G1  X17.043851  Y6.186542
G1  X16.758234  Y6.609868
G1  X16.470738  Y7.035988
G1  X16.183405  Y7.461749
G1  X15.898361  Y7.884102
G1  X15.617566  Y8.299852
G1  X15.343308  Y8.706016
G1  X15.077632  Y9.099415
G1  X14.822579  Y9.476944
G1  X14.580274  Y9.835546
G1  X14.352843  Y10.172100
G1  X14.142165  Y10.483459
G1  X13.950692  Y10.766542
G1  X13.822879  Y10.955401
G1  X13.780221  Y11.018326
G1  X13.739442  Y11.078473
G1  X13.617350  Y11.258915
G1  X13.447614  Y11.509554
G1  X13.272485  Y11.768285
G1  X13.093106  Y12.033144
G1  X12.911113  Y12.302008
G1  X12.727730  Y12.572996
G1  X12.544265  Y12.843985
G1  X12.362271  Y13.112930
G1  X12.182974  Y13.377953
G1  X12.007763  Y13.636929
G1  X11.837946  Y13.887732
G1  X11.675075  Y14.128565
G1  X11.520376  Y14.357386
G1  X11.375239  Y14.572068
G1  X11.241134  Y14.770570
G1  X11.149687  Y14.905900
G1  X11.119287  Y14.950929
G1  X11.088723  Y14.996121
G1  X10.997031  Y15.131370
G1  X10.862354  Y15.330362
G1  X10.716563  Y15.545535
G1  X10.560965  Y15.775172
G1  X10.397114  Y16.017068
G1  X10.226234  Y16.269260
G1  X10.049797  Y16.529707
G1  X9.869070  Y16.796446
G1  X9.685556  Y17.067271
G1  X9.500539  Y17.340221
G1  X9.315432  Y17.613497
G1  X9.131615  Y17.884813
G1  X8.950455  Y18.152124
G1  X8.773332  Y18.413551
G1  X8.601619  Y18.666969
G1  X8.477868  Y18.849617
G1  X8.436688  Y18.910418
G1  X8.396424  Y18.969666
G1  X8.276269  Y19.147900
G1  X8.118391  Y19.384239
G1  X7.963913  Y19.618044
G1  X7.813799  Y19.847600
G1  X7.668858  Y20.071926
G1  X7.530086  Y20.289141
G1  X7.398310  Y20.498022
G1  X7.274478  Y20.696932
G1  X7.159471  Y20.884564
G1  X7.054173  Y21.059530
G1  X6.959556  Y21.219949
G1  X6.876478  Y21.364678
G1  X6.805797  Y21.492409
G1  X6.748469  Y21.601262
G1  X6.705418  Y21.690093
G1  X6.683599  Y21.740270
G1  X6.677486  Y21.757268
G1  X6.673146  Y21.769200
G1  X6.660864  Y21.805402
G1  X6.645214  Y21.855906
G1  X6.630496  Y21.910414
G1  X6.616701  Y21.970234
G1  X6.603797  Y22.036756
G1  X6.591744  Y22.111531
G1  X6.580474  Y22.196194
G1  X6.570022  Y22.291890
G1  X6.560305  Y22.400335
G1  X6.551349  Y22.522917
G1  X6.543095  Y22.661026
G1  X6.535527  Y22.816052
G1  X6.528556  Y22.989710
G1  X6.522223  Y23.183309
G1  X6.516503  Y23.398400
G1  X6.511313  Y23.636373
G1  X6.506614  Y23.898535
G1  X6.502438  Y24.186604
G1  X6.498761  Y24.502049
G1  X6.495484  Y24.846014
G1  X6.492599  Y25.220217
G1  X6.490123  Y25.626210
G1  X6.487990  Y26.065299
G1  X6.486176  Y26.538957
G1  X6.484623  Y27.048654
G1  X6.483340  Y27.595861
G1  X6.482269  Y28.181968
G1  X6.481428  Y28.808609
G1  X6.480758  Y29.477009
G1  X6.480194  Y30.188885
G1  X6.479736  Y30.945544
G1  X6.479475  Y31.547750
G1  X6.479434  Y31.748458
G1  X6.479434  Y31.959627
G1  X6.479385  Y32.593050
G1  X6.479295  Y33.389426
G1  X6.479344  Y34.139384
G1  X6.479524  Y34.844069
G1  X6.479965  Y35.505359
G1  X6.480758  Y36.124645
G1  X6.482008  Y36.703397
G1  X6.483250  Y37.108163
G1  X6.483781  Y37.243086
M300 S50 (pen up)
G4 P50 (wait 50ms)
G1  X6.908439  Y37.149678

M300 S30 (pen down)
G4 P50 (wait 50ms)

G1  X6.908439  Y23.964484
G1  X7.182002  Y24.289981
G1  X7.197382  Y24.308287
G1  X7.247126  Y24.360098
G1  X7.327948  Y24.435282
G1  X7.421241  Y24.513163
G1  X7.523786  Y24.591370
G1  X7.632361  Y24.667616
G1  X7.743837  Y24.739368
G1  X7.854897  Y24.804255
G1  X7.935139  Y24.846832
G1  X7.962409  Y24.859907
G1  X7.995842  Y24.876088
G1  X8.097904  Y24.921198
G1  X8.232197  Y24.972601
G1  X8.367429  Y25.014606
G1  X8.505629  Y25.047867
G1  X8.649017  Y25.072383
G1  X8.799663  Y25.089054
G1  X8.959763  Y25.098044
G1  X9.088564  Y25.100168
G1  X9.131476  Y25.099841
G1  X9.198039  Y25.099188
G1  X9.397594  Y25.087828
G1  X9.642955  Y25.056774
G1  X9.871375  Y25.005208
G1  X10.086736  Y24.931250
G1  X10.292919  Y24.833593
G1  X10.493709  Y24.710438
G1  X10.693109  Y24.559989
G1  X10.846092  Y24.427437
G1  X10.894961  Y24.381019
G1  X11.247508  Y24.046615
G1  X11.247508  Y37.149678
M300 S50 (pen up)
G4 P50 (wait 50ms)
G1  X21.200370  Y33.001984

M300 S30 (pen down)
G4 P50 (wait 50ms)

G1  X23.483179  Y33.001984
G1  X25.253594  Y26.070530
G1  X25.286119  Y26.070530
G1  X25.286119  Y33.001984
G1  X26.907719  Y33.001984
G1  X26.907719  Y21.421720
G1  X25.038503  Y21.421720
G1  X22.854904  Y29.875728
G1  X22.820826  Y29.875728
G1  X22.820826  Y21.421720
G1  X21.200370  Y21.421720
G1  X21.200370  Y33.001984
M300 S50 (pen up)
G4 P50 (wait 50ms)
G1  X17.431211  Y21.256152

M300 S30 (pen down)
G4 P50 (wait 50ms)

G1  X17.351859  Y21.256152
G1  X17.113886  Y21.267920
G1  X16.815930  Y21.302733
G1  X16.536933  Y21.360837
G1  X16.277222  Y21.442068
G1  X16.036470  Y21.546835
G1  X15.814923  Y21.674811
G1  X15.612417  Y21.825996
G1  X15.472020  Y21.954462
G1  X15.429034  Y22.000635
G1  X15.386621  Y22.047216
G1  X15.270167  Y22.196358
G1  X15.132467  Y22.411040
G1  X15.015932  Y22.644927
G1  X14.920563  Y22.897855
G1  X14.846278  Y23.170070
G1  X14.793322  Y23.461407
G1  X14.761533  Y23.772112
G1  X14.750827  Y24.019483
G1  X14.750827  Y30.404139
G1  X14.761533  Y30.651347
G1  X14.793322  Y30.961725
G1  X14.846278  Y31.253144
G1  X14.920563  Y31.525277
G1  X15.015932  Y31.778368
G1  X15.132467  Y32.012419
G1  X15.270167  Y32.227346
G1  X15.386621  Y32.376570
G1  X15.429034  Y32.423069
G1  X15.472020  Y32.469324
G1  X15.612417  Y32.597626
G1  X15.814923  Y32.748975
G1  X16.036470  Y32.876869
G1  X16.277222  Y32.981554
G1  X16.536933  Y33.062867
G1  X16.815930  Y33.121053
G1  X17.113886  Y33.155866
G1  X17.351859  Y33.167471
G1  X17.510317  Y33.167471
G1  X17.747882  Y33.155866
G1  X18.045021  Y33.121053
G1  X18.322548  Y33.062867
G1  X18.580542  Y32.981554
G1  X18.819006  Y32.876869
G1  X19.037692  Y32.748975
G1  X19.237011  Y32.597626
G1  X19.374630  Y32.469324
G1  X19.416717  Y32.423069
G1  X19.459947  Y32.376570
G1  X19.579343  Y32.227346
G1  X19.720476  Y32.012419
G1  X19.839871  Y31.778368
G1  X19.937610  Y31.525277
G1  X20.013611  Y31.253144
G1  X20.067956  Y30.961725
G1  X20.100562  Y30.651347
G1  X20.111431  Y30.404139
G1  X20.111431  Y29.097576
G1  X18.390622  Y29.097576
G1  X18.390622  Y30.500734
G1  X18.376484  Y30.689838
G1  X18.333825  Y30.908443
G1  X18.262727  Y31.093297
G1  X18.163272  Y31.244482
G1  X18.035296  Y31.362079
G1  X17.878963  Y31.446089
G1  X17.694109  Y31.496429
G1  X17.534017  Y31.513182
G1  X17.427452  Y31.513182
G1  X17.267359  Y31.496429
G1  X17.082505  Y31.446089
G1  X16.926009  Y31.362079
G1  X16.798114  Y31.244482
G1  X16.698659  Y31.093297
G1  X16.627643  Y30.908443
G1  X16.585067  Y30.689838
G1  X16.570847  Y30.500734
G1  X16.570847  Y23.907034
G1  X16.585067  Y23.720873
G1  X16.627643  Y23.505782
G1  X16.698659  Y23.323870
G1  X16.798114  Y23.175055
G1  X16.926009  Y23.059255
G1  X17.082505  Y22.976635
G1  X17.267359  Y22.927030
G1  X17.427452  Y22.910522
G1  X17.534017  Y22.910522
G1  X17.694109  Y22.927030
G1  X17.878963  Y22.976635
G1  X18.035296  Y23.059255
G1  X18.163272  Y23.175055
G1  X18.262727  Y23.323870
G1  X18.333825  Y23.505782
G1  X18.376484  Y23.720873
G1  X18.390622  Y23.907034
G1  X18.390622  Y25.739149
G1  X20.111431  Y25.739149
G1  X20.111431  Y24.019483
G1  X20.100562  Y23.772112
G1  X20.067956  Y23.461407
G1  X20.013611  Y23.170070
G1  X19.937610  Y22.897855
G1  X19.839871  Y22.644927
G1  X19.720476  Y22.411040
G1  X19.579343  Y22.196358
G1  X19.459947  Y22.047053
G1  X19.416717  Y22.000635
G1  X19.374630  Y21.954462
G1  X19.237011  Y21.825996
G1  X19.037692  Y21.674811
G1  X18.819006  Y21.546835
G1  X18.580542  Y21.442068
G1  X18.322548  Y21.360837
G1  X18.045021  Y21.302733
G1  X17.747882  Y21.267920
G1  X17.510317  Y21.256152
G1  X17.431211  Y21.256152
M300 S50 (pen up)
G4 P50 (wait 50ms)
G1  X11.797085  Y17.432893

M300 S30 (pen down)
G4 P50 (wait 50ms)

G1  X11.772569  Y17.464110
G1  X11.704249  Y17.561686
G1  X11.637891  Y17.680672
G1  X11.597848  Y17.791895
G1  X11.584200  Y17.898133
G1  X11.597031  Y18.001511
G1  X11.636175  Y18.104807
G1  X11.701716  Y18.210146
G1  X11.769218  Y18.293992
G1  X11.793571  Y18.320225
G1  X11.818496  Y18.346784
G1  X11.902914  Y18.417474
G1  X12.021901  Y18.487754
G1  X12.147507  Y18.531148
G1  X12.276545  Y18.547329
G1  X12.405992  Y18.536542
G1  X12.532660  Y18.498541
G1  X12.653526  Y18.433164
G1  X12.739824  Y18.365989
G1  X12.765403  Y18.340410
G1  X12.784771  Y18.321042
G1  X12.836909  Y18.256809
G1  X12.891908  Y18.166670
G1  X12.930889  Y18.071873
G1  X12.954670  Y17.973971
G1  X12.963823  Y17.874516
G1  X12.959001  Y17.775306
G1  X12.940778  Y17.677812
G1  X12.909969  Y17.583587
G1  X12.867146  Y17.494511
G1  X12.812965  Y17.412136
G1  X12.747996  Y17.337769
G1  X12.673058  Y17.273372
G1  X12.588721  Y17.220499
G1  X12.495559  Y17.180700
G1  X12.394306  Y17.155612
G1  X12.312829  Y17.146868
G1  X12.254889  Y17.146868
G1  X12.162462  Y17.167870
G1  X12.032933  Y17.226546
G1  X11.907572  Y17.316848
G1  X11.821683  Y17.401512
G1  X11.797085  Y17.432893
M300 S50 (pen up)
G4 P50 (wait 50ms)
G1  X15.006616  Y12.680624

M300 S30 (pen down)
G4 P50 (wait 50ms)

G1  X14.988800  Y12.700400
G1  X14.943363  Y12.767412
G1  X14.893513  Y12.869972
G1  X14.857801  Y12.982993
G1  X14.836553  Y13.101408
G1  X14.830506  Y13.219822
G1  X14.840312  Y13.333252
G1  X14.866545  Y13.436384
G1  X14.896373  Y13.503723
G1  X14.909776  Y13.523908
G1  X14.926937  Y13.549650
G1  X14.987493  Y13.620830
G1  X15.076406  Y13.697648
G1  X15.173981  Y13.755261
G1  X15.278176  Y13.794488
G1  X15.386784  Y13.815817
G1  X15.497517  Y13.820067
G1  X15.608249  Y13.808054
G1  X15.716694  Y13.780513
G1  X15.820644  Y13.738018
G1  X15.917892  Y13.681549
G1  X16.006315  Y13.611513
G1  X16.083623  Y13.528811
G1  X16.147530  Y13.434178
G1  X16.195990  Y13.328348
G1  X16.226636  Y13.212059
G1  X16.237423  Y13.117507
G1  X16.237423  Y13.062999
G1  X16.227453  Y12.994026
G1  X16.198932  Y12.907809
G1  X16.153904  Y12.827886
G1  X16.094492  Y12.755154
G1  X16.022659  Y12.690103
G1  X15.940611  Y12.633552
G1  X15.850227  Y12.586072
G1  X15.753795  Y12.548398
G1  X15.653196  Y12.521185
G1  X15.550472  Y12.505086
G1  X15.447748  Y12.500836
G1  X15.347231  Y12.509090
G1  X15.250636  Y12.530501
G1  X15.160415  Y12.565723
G1  X15.078285  Y12.615573
G1  X15.022796  Y12.662808
G1  X15.006616  Y12.680624
M300 S50 (pen up)
G4 P50 (wait 50ms)
G1  X27.120522  Y15.359782

M300 S30 (pen down)
G4 P50 (wait 50ms)

G1  X27.224962  Y15.359782
G1  X27.538364  Y15.338616
G1  X27.944111  Y15.276753
G1  X28.335802  Y15.176153
G1  X28.711313  Y15.038780
G1  X29.068436  Y14.866674
G1  X29.405455  Y14.662043
G1  X29.720083  Y14.426849
G1  X30.010276  Y14.163215
G1  X30.274073  Y13.873104
G1  X30.509349  Y13.558558
G1  X30.714143  Y13.221702
G1  X30.886249  Y12.864497
G1  X31.023541  Y12.489068
G1  X31.124304  Y12.097541
G1  X31.186330  Y11.691875
G1  X31.207414  Y11.378473
G1  X31.207414  Y11.169593
G1  X31.186330  Y10.856191
G1  X31.124304  Y10.450525
G1  X31.023541  Y10.058826
G1  X30.886249  Y9.683381
G1  X30.714143  Y9.326111
G1  X30.509349  Y8.989157
G1  X30.274073  Y8.674545
G1  X30.010276  Y8.384320
G1  X29.720083  Y8.120506
G1  X29.405455  Y7.885214
G1  X29.068436  Y7.680469
G1  X28.711313  Y7.508355
G1  X28.335802  Y7.370899
G1  X27.944111  Y7.270218
G1  X27.538364  Y7.208233
G1  X27.224962  Y7.187132
G1  X27.016163  Y7.187132
G1  X26.702843  Y7.208233
G1  X26.297341  Y7.270218
G1  X25.905813  Y7.370899
G1  X25.530466  Y7.508355
G1  X25.173425  Y7.680469
G1  X24.836651  Y7.885214
G1  X24.522023  Y8.120506
G1  X24.231912  Y8.384320
G1  X23.968278  Y8.674545
G1  X23.733002  Y8.989157
G1  X23.528289  Y9.326111
G1  X23.356266  Y9.683381
G1  X23.218810  Y10.058826
G1  X23.118129  Y10.450525
G1  X23.056184  Y10.856191
G1  X23.035018  Y11.169593
G1  X23.035018  Y11.378473
G1  X23.056184  Y11.691875
G1  X23.118129  Y12.097541
G1  X23.218810  Y12.489068
G1  X23.356266  Y12.864497
G1  X23.528289  Y13.221702
G1  X23.733002  Y13.558558
G1  X23.968278  Y13.873104
G1  X24.231912  Y14.163215
G1  X24.522023  Y14.426849
G1  X24.836651  Y14.662043
G1  X25.173425  Y14.866674
G1  X25.530466  Y15.038780
G1  X25.905813  Y15.176153
G1  X26.297341  Y15.276753
G1  X26.702843  Y15.338616
G1  X27.016163  Y15.359782
G1  X27.120522  Y15.359782
M300 S50 (pen up)
G4 P50 (wait 50ms)
G1  X30.841629  Y21.256152

M300 S30 (pen down)
G4 P50 (wait 50ms)

G1  X30.762114  Y21.256152
G1  X30.524141  Y21.267920
G1  X30.225939  Y21.302733
G1  X29.946860  Y21.360837
G1  X29.686904  Y21.442068
G1  X29.446234  Y21.546835
G1  X29.224687  Y21.674811
G1  X29.022263  Y21.825996
G1  X28.882111  Y21.954462
G1  X28.839043  Y22.000635
G1  X28.796630  Y22.047053
G1  X28.679932  Y22.196358
G1  X28.542149  Y22.411040
G1  X28.425614  Y22.644927
G1  X28.330409  Y22.897855
G1  X28.256369  Y23.170070
G1  X28.203495  Y23.461407
G1  X28.171787  Y23.772112
G1  X28.161245  Y24.019483
G1  X28.161245  Y30.404139
G1  X28.171787  Y30.651347
G1  X28.203495  Y30.961725
G1  X28.256369  Y31.253144
G1  X28.330409  Y31.525277
G1  X28.425614  Y31.778368
G1  X28.542149  Y32.012419
G1  X28.679932  Y32.227346
G1  X28.796630  Y32.376570
G1  X28.839043  Y32.423069
G1  X28.882111  Y32.469324
G1  X29.022263  Y32.597626
G1  X29.224687  Y32.748975
G1  X29.446234  Y32.876869
G1  X29.686904  Y32.981554
G1  X29.946860  Y33.062867
G1  X30.225939  Y33.121053
G1  X30.524141  Y33.155866
G1  X30.762114  Y33.167471
G1  X30.920735  Y33.167471
G1  X31.158136  Y33.155866
G1  X31.455276  Y33.121053
G1  X31.732802  Y33.062867
G1  X31.990715  Y32.981554
G1  X32.228933  Y32.876869
G1  X32.447620  Y32.748975
G1  X32.646612  Y32.597626
G1  X32.783822  Y32.469324
G1  X32.825827  Y32.423069
G1  X32.869221  Y32.376570
G1  X32.988943  Y32.227346
G1  X33.130158  Y32.012419
G1  X33.249553  Y31.778368
G1  X33.347129  Y31.525277
G1  X33.423130  Y31.253144
G1  X33.477311  Y30.961725
G1  X33.509836  Y30.651347
G1  X33.520705  Y30.404139
G1  X33.520705  Y29.097576
G1  X31.801040  Y29.097576
G1  X31.801040  Y30.500734
G1  X31.786738  Y30.689838
G1  X31.743916  Y30.908443
G1  X31.672818  Y31.093297
G1  X31.573200  Y31.244482
G1  X31.445224  Y31.362079
G1  X31.288809  Y31.446089
G1  X31.104118  Y31.496429
G1  X30.944353  Y31.513182
G1  X30.837706  Y31.513182
G1  X30.677696  Y31.496429
G1  X30.492842  Y31.446089
G1  X30.336263  Y31.362079
G1  X30.208369  Y31.244482
G1  X30.108832  Y31.093297
G1  X30.037816  Y30.908443
G1  X29.995239  Y30.689838
G1  X29.981020  Y30.500734
G1  X29.981020  Y23.907034
G1  X29.995239  Y23.720873
G1  X30.037816  Y23.505782
G1  X30.108832  Y23.323870
G1  X30.208369  Y23.175055
G1  X30.336263  Y23.059255
G1  X30.492842  Y22.976635
G1  X30.677696  Y22.927030
G1  X30.837706  Y22.910522
G1  X30.944353  Y22.910522
G1  X31.104118  Y22.927030
G1  X31.288809  Y22.976635
G1  X31.445224  Y23.059255
G1  X31.573200  Y23.175055
G1  X31.672818  Y23.323870
G1  X31.743916  Y23.505782
G1  X31.786738  Y23.720873
G1  X31.801040  Y23.907034
G1  X31.801040  Y25.739149
G1  X33.520705  Y25.739149
G1  X33.520705  Y24.019483
G1  X33.509836  Y23.772112
G1  X33.477311  Y23.461407
G1  X33.423130  Y23.170070
G1  X33.347129  Y22.897855
G1  X33.249553  Y22.644927
G1  X33.130158  Y22.411040
G1  X32.988943  Y22.196358
G1  X32.869221  Y22.047053
G1  X32.825827  Y22.000635
G1  X32.783822  Y21.954462
G1  X32.646612  Y21.825996
G1  X32.447620  Y21.674811
G1  X32.228933  Y21.546835
G1  X31.990715  Y21.442068
G1  X31.732802  Y21.360837
G1  X31.455276  Y21.302733
G1  X31.158136  Y21.267920
G1  X30.920735  Y21.256152
G1  X30.841629  Y21.256152
M300 S50 (pen up)
G4 P50 (wait 50ms)
G1  X8.563798  Y23.005074

M300 S30 (pen down)
G4 P50 (wait 50ms)

G1  X8.585291  Y23.029917
G1  X8.663555  Y23.092434
G1  X8.789684  Y23.160835
G1  X8.931079  Y23.205373
G1  X9.040063  Y23.221227
G1  X9.112591  Y23.221227
G1  X9.221272  Y23.204474
G1  X9.371386  Y23.158384
G1  X9.509937  Y23.089737
G1  X9.595736  Y23.029427
G1  X9.620114  Y23.005074
G1  X9.635813  Y22.989383
G1  X9.686578  Y22.945989
G1  X9.758754  Y22.898019
G1  X9.840958  Y22.860100
G1  X9.937479  Y22.831416
G1  X10.052739  Y22.810822
G1  X10.190930  Y22.797338
G1  X10.356580  Y22.789983
G1  X10.504578  Y22.787695
G1  X11.271207  Y22.787695
G1  X11.197985  Y23.076008
G1  X11.184174  Y23.131252
G1  X11.126397  Y23.292734
G1  X11.022774  Y23.508315
G1  X10.891039  Y23.717931
G1  X10.735523  Y23.916677
G1  X10.560230  Y24.099734
G1  X10.369492  Y24.262441
G1  X10.167313  Y24.399897
G1  X10.011960  Y24.484152
G1  X9.958008  Y24.507360
G1  X9.900893  Y24.531877
G1  X9.726752  Y24.598725
G1  X9.511710  Y24.666064
G1  X9.308959  Y24.709294
G1  X9.114585  Y24.728662
G1  X8.924656  Y24.724576
G1  X8.735193  Y24.696873
G1  X8.542289  Y24.645797
G1  X8.391284  Y24.592269
G1  X8.342112  Y24.571594
G1  X8.280878  Y24.546178
G1  X8.102913  Y24.455712
G1  X7.880386  Y24.314825
G1  X7.675812  Y24.150646
G1  X7.490574  Y23.964484
G1  X7.325954  Y23.758138
G1  X7.183285  Y23.532913
G1  X7.063922  Y23.290364
G1  X6.989490  Y23.097746
G1  X6.969264  Y23.032124
G1  X6.963233  Y23.012674
G1  X6.947322  Y22.953508
G1  X6.941291  Y22.893769
G1  X6.958232  Y22.850457
G1  X7.005222  Y22.820792
G1  X7.089419  Y22.802405
G1  X7.217869  Y22.792516
G1  X7.397730  Y22.788430
G1  X7.576496  Y22.787695
G1  X7.688095  Y22.787695
G1  X7.844248  Y22.789738
G1  X8.016149  Y22.796684
G1  X8.156735  Y22.809596
G1  X8.270949  Y22.829700
G1  X8.363793  Y22.858057
G1  X8.440227  Y22.896057
G1  X8.505228  Y22.944682
G1  X8.550142  Y22.989138
G1  X8.563798  Y23.005074
M300 S50 (pen up)
G4 P50 (wait 50ms)
G1  X10.268811  Y20.767376

M300 S30 (pen down)
G4 P50 (wait 50ms)

G1  X10.310326  Y20.794671
G1  X10.429149  Y20.885463
G1  X10.580987  Y21.021775
G1  X10.722365  Y21.173450
G1  X10.850913  Y21.337220
G1  X10.964670  Y21.510306
G1  X11.061428  Y21.689766
G1  X11.139145  Y21.872496
G1  X11.184174  Y22.009297
G1  X11.195696  Y22.055715
G1  X11.271207  Y22.354080
G1  X10.472298  Y22.354080
G1  X10.312369  Y22.352283
G1  X10.139528  Y22.345827
G1  X10.001582  Y22.333405
G1  X9.893145  Y22.313792
G1  X9.808719  Y22.285680
G1  X9.742802  Y22.247597
G1  X9.690035  Y22.198483
G1  X9.655050  Y22.152882
G1  X9.644900  Y22.136783
G1  X9.636041  Y22.122482
G1  X9.605306  Y22.082111
G1  X9.559248  Y22.036184
G1  X9.505548  Y21.998592
G1  X9.443040  Y21.968845
G1  X9.370455  Y21.946535
G1  X9.286657  Y21.931090
G1  X9.190496  Y21.922264
G1  X9.108161  Y21.919240
G1  X9.052877  Y21.919240
G1  X8.969341  Y21.922101
G1  X8.873212  Y21.930600
G1  X8.790894  Y21.945718
G1  X8.720932  Y21.967619
G1  X8.661864  Y21.997284
G1  X8.612300  Y22.034958
G1  X8.570752  Y22.081131
G1  X8.543539  Y22.122318
G1  X8.535866  Y22.136783
G1  X8.527121  Y22.152964
G1  X8.496304  Y22.199382
G1  X8.448252  Y22.249068
G1  X8.385874  Y22.287232
G1  X8.303401  Y22.315181
G1  X8.194956  Y22.334386
G1  X8.054853  Y22.346235
G1  X7.877198  Y22.352364
G1  X7.711467  Y22.354080
G1  X7.594990  Y22.354080
G1  X7.411214  Y22.353345
G1  X7.226336  Y22.349259
G1  X7.094159  Y22.339207
G1  X7.007306  Y22.320656
G1  X6.958444  Y22.290991
G1  X6.940139  Y22.247761
G1  X6.945067  Y22.188267
G1  X6.960046  Y22.129346
G1  X6.965807  Y22.109815
G1  X6.987218  Y22.038227
G1  X7.067477  Y21.827876
G1  X7.197512  Y21.562608
G1  X7.353135  Y21.317361
G1  X7.531541  Y21.094997
G1  X7.729953  Y20.898866
G1  X7.945558  Y20.731908
G1  X8.175629  Y20.597313
G1  X8.355408  Y20.518452
G1  X8.417345  Y20.498348
G1  X8.466345  Y20.482413
G1  X8.619042  Y20.452257
G1  X8.850346  Y20.431827
G1  X9.100708  Y20.435913
G1  X9.359594  Y20.462718
G1  X9.616396  Y20.510688
G1  X9.860555  Y20.578435
G1  X10.081587  Y20.664652
G1  X10.224436  Y20.737956
G1  X10.268811  Y20.767376
M300 S50 (pen up)
G4 P50 (wait 50ms)
G1  X12.528983  Y17.826954

M300 S30 (pen down)
G4 P50 (wait 50ms)

G1  X12.532660  Y17.846404
G1  X12.529391  Y17.907123
G1  X12.502342  Y17.977485
G1  X12.453717  Y18.035344
G1  X12.389321  Y18.077757
G1  X12.315199  Y18.102110
G1  X12.237155  Y18.105134
G1  X12.161154  Y18.084295
G1  X12.107545  Y18.051034
G1  X12.093162  Y18.036570
G1  X12.078697  Y18.022105
G1  X12.045437  Y17.968496
G1  X12.024516  Y17.892576
G1  X12.027621  Y17.814614
G1  X12.051893  Y17.740493
G1  X12.094306  Y17.676096
G1  X12.152165  Y17.627390
G1  X12.222609  Y17.600259
G1  X12.283328  Y17.596990
G1  X12.302696  Y17.600667
G1  X12.322554  Y17.604508
G1  X12.379351  Y17.629760
G1  X12.447506  Y17.682143
G1  X12.499808  Y17.750299
G1  X12.525224  Y17.807177
G1  X12.528983  Y17.826954
M300 S50 (pen up)
G4 P50 (wait 50ms)
G1  X15.764583  Y13.295251

M300 S30 (pen down)
G4 P50 (wait 50ms)

G1  X15.757555  Y13.313393
G1  X15.722659  Y13.362344
G1  X15.659979  Y13.411623
G1  X15.585204  Y13.438509
G1  X15.525547  Y13.441941
G1  X15.506588  Y13.438264
G1  X15.485585  Y13.434259
G1  X15.425765  Y13.407536
G1  X15.360715  Y13.353355
G1  X15.313071  Y13.282421
G1  X15.284224  Y13.201271
G1  X15.275561  Y13.116363
G1  X15.288636  Y13.034478
G1  X15.325084  Y12.962073
G1  X15.368805  Y12.916554
G1  X15.386049  Y12.905766
G1  X15.402801  Y12.895469
G1  X15.462213  Y12.878471
G1  X15.540257  Y12.883375
G1  X15.615032  Y12.915246
G1  X15.681717  Y12.968855
G1  X15.735081  Y13.038891
G1  X15.770140  Y13.120204
G1  X15.781581  Y13.207400
G1  X15.772346  Y13.274739
G1  X15.764583  Y13.295251

M300 S50 (pen up)
G4 P50 (wait 50ms)


(Footer begin)
(end of print job)
M300 S50.00 (pen up)
G4 P50 (wait 50ms)
M300 S255 (turn off servo)
G1 X0 Y0 F3000.00
G1 Z0.00 F150.00 (go up to finished level)
G1 X0.00 Y0.00 F3000.00 (go home)
M18 (drives off)
