G21 (metric ftw)
G90 (absolute mode)
G92 X0.00 Y0.00 Z0.00 (you are here)

M300 S30 (pen down)
G4 P50 (wait 50ms)
M300 S50 (pen up)
G4 P50 (wait 50ms)
M18 (disengage drives)
M01 (Was registration test successful?)
M17 (engage drives if YES, and continue)

(Header end)












G1  X6.678425  Y29.974945

M300 S30 (pen down)
G4 P50 (wait 50ms)

G1  X3.509055  Y15.062045
G1  X5.107475  Y15.926045
G1  X8.033085  Y29.687145
G1  X6.678425  Y29.974945
M300 S50 (pen up)
G4 P50 (wait 50ms)
G1  X8.785485  Y29.855045

M300 S30 (pen down)
G4 P50 (wait 50ms)

G1  X7.216025  Y17.066845
G1  X8.472685  Y17.747745
G1  X9.941585  Y29.713245
G1  X8.785485  Y29.855045
M300 S50 (pen up)
G4 P50 (wait 50ms)
G1  X11.373485  Y32.794345

M300 S30 (pen down)
G4 P50 (wait 50ms)

G1  X9.827285  Y18.480745
G1  X11.154485  Y19.198645
G1  X12.617685  Y32.737945
G1  X11.373485  Y32.794345
M300 S50 (pen up)
G4 P50 (wait 50ms)
G1  X13.009385  Y32.144245

M300 S30 (pen down)
G4 P50 (wait 50ms)

G1  X12.409685  Y19.878145
G1  X13.382585  Y20.405845
G1  X13.954485  Y32.097245
G1  X13.009385  Y32.144245
M300 S50 (pen up)
G4 P50 (wait 50ms)
G1  X14.607885  Y30.149945

M300 S30 (pen down)
G4 P50 (wait 50ms)

G1  X14.607885  Y21.067445
G1  X15.991285  Y21.817045
G1  X15.991285  Y30.149945
G1  X14.607885  Y30.149945
M300 S50 (pen up)
G4 P50 (wait 50ms)
G1  X16.793285  Y29.859245

M300 S30 (pen down)
G4 P50 (wait 50ms)

G1  X16.793285  Y22.251345
G1  X17.957885  Y22.880845
G1  X17.957885  Y29.859245
G1  X16.793285  Y29.859245
M300 S50 (pen up)
G4 P50 (wait 50ms)
G1  X18.759685  Y32.481845

M300 S30 (pen down)
G4 P50 (wait 50ms)

G1  X18.759685  Y23.314945
G1  X19.560485  Y23.747745
G1  X19.560485  Y32.481845
G1  X18.759685  Y32.481845
M300 S50 (pen up)
G4 P50 (wait 50ms)
G1  X20.609185  Y32.481845

M300 S30 (pen down)
G4 P50 (wait 50ms)

G1  X20.609185  Y24.315345
G1  X22.794685  Y25.497845
G1  X22.794685  Y32.481845
G1  X20.609185  Y32.481845
M300 S50 (pen up)
G4 P50 (wait 50ms)
G1  X23.668085  Y32.116345

M300 S30 (pen down)
G4 P50 (wait 50ms)

G1  X23.668085  Y19.380745
G1  X24.616485  Y19.624545
G1  X24.616485  Y32.116345
G1  X23.668085  Y32.116345
M300 S50 (pen up)
G4 P50 (wait 50ms)
G1  X25.504085  Y31.023845

M300 S30 (pen down)
G4 P50 (wait 50ms)

G1  X25.504085  Y19.853345
G1  X26.451985  Y20.097145
G1  X26.451985  Y31.023845
G1  X25.504085  Y31.023845
M300 S50 (pen up)
G4 P50 (wait 50ms)
G1  X27.587585  Y31.462045

M300 S30 (pen down)
G4 P50 (wait 50ms)

G1  X27.587585  Y20.389345
G1  X29.846085  Y20.971045
G1  X29.846085  Y31.462045
G1  X27.587585  Y31.462045
M300 S50 (pen up)
G4 P50 (wait 50ms)
G1  X30.429185  Y32.626445

M300 S30 (pen down)
G4 P50 (wait 50ms)

G1  X30.429185  Y21.119945
G1  X31.739385  Y21.458945
G1  X31.739385  Y32.626445
G1  X30.429185  Y32.626445
M300 S50 (pen up)
G4 P50 (wait 50ms)
G1  X34.507985  Y31.606545

M300 S30 (pen down)
G4 P50 (wait 50ms)

G1  X34.507985  Y22.169745
G1  X35.891585  Y22.526745
G1  X35.891585  Y31.606545
G1  X34.507985  Y31.606545
M300 S50 (pen up)
G4 P50 (wait 50ms)
G1  X36.827185  Y32.750345

M300 S30 (pen down)
G4 P50 (wait 50ms)

G1  X36.827185  Y22.766745
G1  X38.092185  Y23.092945
G1  X38.092185  Y32.750345
G1  X36.827185  Y32.750345
M300 S50 (pen up)
G4 P50 (wait 50ms)
G1  X32.395485  Y28.110645

M300 S30 (pen down)
G4 P50 (wait 50ms)

G1  X32.395485  Y21.626845
G1  X33.706085  Y21.964545
G1  X33.706085  Y28.110645
G1  X32.395485  Y28.110645
M300 S50 (pen up)
G4 P50 (wait 50ms)
G1  X38.092185  Y22.443945

M300 S30 (pen down)
G4 P50 (wait 50ms)

G1  X36.827185  Y21.800445
G1  X36.827185  Y7.227835
G1  X38.092185  Y7.227835
G1  X38.092185  Y22.443945
M300 S50 (pen up)
G4 P50 (wait 50ms)
G1  X35.891585  Y21.323845

M300 S30 (pen down)
G4 P50 (wait 50ms)

G1  X34.507985  Y20.619645
G1  X34.507985  Y7.205655
G1  X35.891585  Y7.205655
G1  X35.891585  Y21.323845
M300 S50 (pen up)
G4 P50 (wait 50ms)
G1  X33.706085  Y20.212945

M300 S30 (pen down)
G4 P50 (wait 50ms)

G1  X32.395485  Y19.546145
G1  X32.395485  Y7.205655
G1  X33.706085  Y7.205655
G1  X33.706085  Y20.212945
M300 S50 (pen up)
G4 P50 (wait 50ms)
G1  X31.739385  Y19.212445

M300 S30 (pen down)
G4 P50 (wait 50ms)

G1  X30.429185  Y18.544245
G1  X30.429185  Y7.205655
G1  X31.739385  Y7.205655
G1  X31.739385  Y19.212445
M300 S50 (pen up)
G4 P50 (wait 50ms)
G1  X29.846085  Y18.249345

M300 S30 (pen down)
G4 P50 (wait 50ms)

G1  X27.587585  Y17.100045
G1  X27.587585  Y7.205655
G1  X29.846085  Y7.205655
G1  X29.846085  Y18.249345
M300 S50 (pen up)
G4 P50 (wait 50ms)
G1  X26.451985  Y16.521045

M300 S30 (pen down)
G4 P50 (wait 50ms)

G1  X25.504085  Y16.040245
G1  X25.504085  Y7.205655
G1  X26.451985  Y7.205655
G1  X26.451985  Y16.521045
M300 S50 (pen up)
G4 P50 (wait 50ms)
G1  X24.616485  Y15.587045

M300 S30 (pen down)
G4 P50 (wait 50ms)

G1  X23.668085  Y15.104645
G1  X23.668085  Y7.205655
G1  X24.616485  Y7.205655
G1  X24.616485  Y15.587045
M300 S50 (pen up)
G4 P50 (wait 50ms)
G1  X22.794685  Y14.660845

M300 S30 (pen down)
G4 P50 (wait 50ms)

G1  X20.609185  Y13.548945
G1  X20.609185  Y7.205655
G1  X22.794685  Y7.205655
G1  X22.794685  Y14.660845
M300 S50 (pen up)
G4 P50 (wait 50ms)
G1  X19.560485  Y13.015645

M300 S30 (pen down)
G4 P50 (wait 50ms)

G1  X18.759685  Y12.607745
G1  X18.759685  Y7.205655
G1  X19.560485  Y7.205655
G1  X19.560485  Y13.015645
M300 S50 (pen up)
G4 P50 (wait 50ms)
G1  X17.957885  Y18.345645

M300 S30 (pen down)
G4 P50 (wait 50ms)

G1  X16.793285  Y18.034045
G1  X16.793285  Y7.205655
G1  X17.957885  Y7.205655
G1  X17.957885  Y18.345645
M300 S50 (pen up)
G4 P50 (wait 50ms)
G1  X15.991285  Y17.819345

M300 S30 (pen down)
G4 P50 (wait 50ms)

G1  X14.607885  Y17.448545
G1  X14.607885  Y7.205655
G1  X15.991285  Y7.205655
G1  X15.991285  Y17.819345
M300 S50 (pen up)
G4 P50 (wait 50ms)
G1  X13.219885  Y17.078145

M300 S30 (pen down)
G4 P50 (wait 50ms)

G1  X12.259685  Y16.820145
G1  X11.792285  Y7.260665
G1  X12.739085  Y7.214115
G1  X13.219885  Y17.078145
M300 S50 (pen up)
G4 P50 (wait 50ms)
G1  X10.858085  Y16.445645

M300 S30 (pen down)
G4 P50 (wait 50ms)

G1  X9.569785  Y16.100845
G1  X8.627185  Y7.376705
G1  X9.871385  Y7.319955
G1  X10.858085  Y16.445645
M300 S50 (pen up)
G4 P50 (wait 50ms)
G1  X8.227485  Y15.740045

M300 S30 (pen down)
G4 P50 (wait 50ms)

G1  X7.013555  Y15.414745
G1  X6.025425  Y7.371075
G1  X7.181475  Y7.229255
G1  X8.227485  Y15.740045
M300 S50 (pen up)
G4 P50 (wait 50ms)
G1  X4.877485  Y14.844345

M300 S30 (pen down)
G4 P50 (wait 50ms)

G1  X3.376775  Y14.441845
G1  X1.907815  Y7.530905
G1  X3.262475  Y7.243025
G1  X4.877485  Y14.844345

M300 S50 (pen up)
G4 P50 (wait 50ms)


(Footer begin)
(end of print job)
M300 S50.00 (pen up)
G4 P50 (wait 50ms)
M300 S255 (turn off servo)
G1 X0 Y0 F3000.00
G1 Z0.00 F150.00 (go up to finished level)
G1 X0.00 Y0.00 F3000.00 (go home)
M18 (drives off)
