<?xml version="1.0" encoding="UTF-8" standalone="no"?>
<!-- Created with Inkscape (http://www.inkscape.org/) -->

<svg
   xmlns:dc="http://purl.org/dc/elements/1.1/"
   xmlns:cc="http://creativecommons.org/ns#"
   xmlns:rdf="http://www.w3.org/1999/02/22-rdf-syntax-ns#"
   xmlns:svg="http://www.w3.org/2000/svg"
   xmlns="http://www.w3.org/2000/svg"
   xmlns:sodipodi="http://sodipodi.sourceforge.net/DTD/sodipodi-0.dtd"
   xmlns:inkscape="http://www.inkscape.org/namespaces/inkscape"
   width="44mm"
   height="44mm"
   viewBox="0 0 44 44"
   version="1.1"
   id="svg8"
   inkscape:version="0.92.1 r15371"
   sodipodi:docname="expo_BioIncuba.svg">
  <defs
     id="defs2">
    <clipPath
       clipPathUnits="userSpaceOnUse"
       id="clipPath5859">
      <rect
         style="opacity:1;vector-effect:none;fill:#ffffff;fill-opacity:1;stroke:#ffffff;stroke-width:0.75;stroke-linecap:butt;stroke-linejoin:miter;stroke-miterlimit:4;stroke-dasharray:none;stroke-dashoffset:0;stroke-opacity:1"
         id="rect5861"
         width="45.735119"
         height="44.979168"
         x="-1.3229166"
         y="252.77678" />
    </clipPath>
  </defs>
  <sodipodi:namedview
     id="base"
     pagecolor="#ffffff"
     bordercolor="#666666"
     borderopacity="1.0"
     inkscape:pageopacity="0.0"
     inkscape:pageshadow="2"
     inkscape:zoom="1.979899"
     inkscape:cx="69.766013"
     inkscape:cy="61.265593"
     inkscape:document-units="mm"
     inkscape:current-layer="text5869"
     showgrid="true"
     units="mm"
     objecttolerance="1"
     guidetolerance="1"
     inkscape:window-width="1366"
     inkscape:window-height="715"
     inkscape:window-x="0"
     inkscape:window-y="0"
     inkscape:window-maximized="1" />
  <metadata
     id="metadata5">
    <rdf:RDF>
      <cc:Work
         rdf:about="">
        <dc:format>image/svg+xml</dc:format>
        <dc:type
           rdf:resource="http://purl.org/dc/dcmitype/StillImage" />
        <dc:title></dc:title>
      </cc:Work>
    </rdf:RDF>
  </metadata>
  <g
     inkscape:label="Layer 1"
     inkscape:groupmode="layer"
     id="layer1"
     transform="translate(0,-253)">
    <g
       id="g5787" />
    <g
       id="g5865"
       transform="matrix(0.09997551,0,0,0.09997551,11.543083,269.33187)">
      <g
         id="g5808">
        <g
           id="g5806">
          <path
             id="path5804"
             d="M 198.238,53.948 C 192.4,44.5 181.817,31.014 164.55,20.423 147.402,9.904 127.533,4.571 105.495,4.571 c -0.312,0 -1.488,0 -1.8,0 C 81.657,4.571 61.788,9.904 44.64,20.423 27.373,31.014 16.79,44.5 10.952,53.948 1.824,68.721 -2.257,84.526 1.247,91.53 c 1.315,2.63 4.908,5.418 22.151,7.986 9.847,1.467 22.978,2.659 38.191,3.472 -5.144,14.173 -8.49,27.331 -9.957,39.168 -2.303,18.589 0.19,33.337 7.41,43.835 8.501,12.361 23.345,18.629 44.118,18.629 0.514,0 2.356,0 2.871,0 20.773,0 35.617,-6.268 44.118,-18.629 7.219,-10.498 9.712,-25.246 7.41,-43.835 -1.467,-11.837 -4.813,-24.995 -9.957,-39.168 15.213,-0.813 28.344,-2.005 38.191,-3.472 17.242,-2.569 20.836,-5.356 22.149,-7.985 3.505,-7.004 -0.576,-22.81 -9.704,-37.583 z m 3.731,34.432 c -2.024,1.964 -16.852,6.096 -59.3,8.098 -1.082,0.051 -2.074,0.618 -2.666,1.525 -0.593,0.907 -0.715,2.043 -0.326,3.054 8.109,21.167 19.532,59.848 4.911,81.109 -7.166,10.421 -20.14,15.704 -38.557,15.704 -0.514,0 -2.357,0 -2.871,0 -18.418,0 -31.39,-5.283 -38.556,-15.704 -14.153,-20.579 -3.905,-57.479 4.121,-79.019 10.19,0.378 20.983,0.574 31.767,0.574 3.189,0 6.377,-0.017 9.547,-0.051 1.864,-0.02 3.359,-1.547 3.34,-3.411 -0.021,-1.852 -1.527,-3.339 -3.374,-3.339 -0.013,0 -0.025,0 -0.037,0 C 67.656,98.645 12.08,92.12 7.223,88.38 5.509,84.557 7.812,71.873 16.696,57.496 25.274,43.613 50.924,11.321 103.697,11.321 c 0.312,0 1.488,0 1.8,0 52.773,0 78.423,32.292 87.001,46.175 8.881,14.376 11.185,27.058 9.471,30.884 z"
             inkscape:connector-curvature="0" />
        </g>
      </g>
      <g
         id="g5810" />
      <g
         id="g5812" />
      <g
         id="g5814" />
      <g
         id="g5816" />
      <g
         id="g5818" />
      <g
         id="g5820" />
      <g
         id="g5822" />
      <g
         id="g5824" />
      <g
         id="g5826" />
      <g
         id="g5828" />
      <g
         id="g5830" />
      <g
         id="g5832" />
      <g
         id="g5834" />
      <g
         id="g5836" />
      <g
         id="g5838" />
    </g>
    <g
       aria-label="BIOINCUBA"
       style="font-style:normal;font-weight:normal;font-size:5.64444447px;line-height:1.25;font-family:sans-serif;letter-spacing:0px;word-spacing:0px;fill:#000000;fill-opacity:1;stroke:none;stroke-width:0.26458332"
       id="text5869">
      <g
         aria-label="BIOFABRICACION"
         style="font-style:normal;font-weight:normal;font-size:6.82097149px;line-height:1.25;font-family:sans-serif;letter-spacing:0px;word-spacing:0px;fill:#000000;fill-opacity:1;stroke:none;stroke-width:0.04511788"
         id="text6427">
        <path
           d="m 6.7147499,263.36164 h 1.1322813 q 0.5797825,0 0.8458004,0.27284 0.2660179,0.26602 0.2660179,0.82534 v 0.19099 q 0,0.36833 -0.1227775,0.60024 -0.1159565,0.23191 -0.3615115,0.33423 v 0.0136 q 0.5593197,0.19099 0.5593197,0.99586 v 0.40926 q 0,0.5525 -0.2933018,0.8458 -0.2864808,0.28648 -0.8458004,0.28648 H 6.7147499 Z m 1.0436086,1.94398 q 0.2250921,0 0.3342276,-0.11596 0.1159566,-0.11595 0.1159566,-0.38879 v -0.26602 q 0,-0.2592 -0.095494,-0.37515 -0.088673,-0.11596 -0.2864809,-0.11596 H 7.4650568 v 1.26188 z m 0.1364195,2.1486 q 0.1978081,0 0.2933017,-0.10231 0.095494,-0.10914 0.095494,-0.36833 v -0.41608 q 0,-0.32741 -0.1159565,-0.45019 -0.1091355,-0.12959 -0.3683324,-0.12959 H 7.4650568 v 1.4665 z"
           style="font-style:normal;font-variant:normal;font-weight:normal;font-stretch:normal;font-family:'Bebas Neue';-inkscape-font-specification:'Bebas Neue';stroke-width:0.04511788"
           id="path6429" />
        <path
           d="m 9.4724472,263.36164 h 0.7503068 v 4.77468 H 9.4724472 Z"
           style="font-style:normal;font-variant:normal;font-weight:normal;font-stretch:normal;font-family:'Bebas Neue';-inkscape-font-specification:'Bebas Neue';stroke-width:0.04511788"
           id="path6431" />
        <path
           d="m 11.862558,268.20453 q -0.552498,0 -0.8458,-0.31376 -0.293302,-0.31377 -0.293302,-0.88673 v -2.51012 q 0,-0.57296 0.293302,-0.88672 0.293302,-0.31377 0.8458,-0.31377 0.552499,0 0.845801,0.31377 0.293302,0.31376 0.293302,0.88672 v 2.51012 q 0,0.57296 -0.293302,0.88673 -0.293302,0.31376 -0.845801,0.31376 z m 0,-0.6821 q 0.388796,0 0.388796,-0.47064 v -2.60561 q 0,-0.47065 -0.388796,-0.47065 -0.388795,0 -0.388795,0.47065 v 2.60561 q 0,0.47064 0.388795,0.47064 z"
           style="font-style:normal;font-variant:normal;font-weight:normal;font-stretch:normal;font-family:'Bebas Neue';-inkscape-font-specification:'Bebas Neue';stroke-width:0.04511788"
           id="path6433" />
        <path
           d="m 13.509077,263.36164 h 1.984902 v 0.6821 h -1.234595 v 1.33009 h 0.968577 v 0.6821 h -0.968577 v 2.08039 h -0.750307 z"
           style="font-style:normal;font-variant:normal;font-weight:normal;font-stretch:normal;font-family:'Bebas Neue';-inkscape-font-specification:'Bebas Neue';stroke-width:0.04511788"
           id="path6435" />
        <path
           d="m 16.220413,263.36164 h 1.016325 l 0.77759,4.77468 h -0.750306 l -0.13642,-0.94811 v 0.0136 h -0.852621 l -0.13642,0.93447 h -0.695739 z m 0.818516,3.19222 -0.334227,-2.36006 h -0.01364 l -0.327407,2.36006 z"
           style="font-style:normal;font-variant:normal;font-weight:normal;font-stretch:normal;font-family:'Bebas Neue';-inkscape-font-specification:'Bebas Neue';stroke-width:0.04511788"
           id="path6437" />
        <path
           d="m 18.371684,263.36164 h 1.132281 q 0.579783,0 0.8458,0.27284 0.266018,0.26602 0.266018,0.82534 v 0.19099 q 0,0.36833 -0.122777,0.60024 -0.115957,0.23191 -0.361512,0.33423 v 0.0136 q 0.55932,0.19099 0.55932,0.99586 v 0.40926 q 0,0.5525 -0.293302,0.8458 -0.286481,0.28648 -0.8458,0.28648 h -1.180028 z m 1.043608,1.94398 q 0.225092,0 0.334228,-0.11596 0.115956,-0.11595 0.115956,-0.38879 v -0.26602 q 0,-0.2592 -0.09549,-0.37515 -0.08867,-0.11596 -0.286481,-0.11596 h -0.361511 v 1.26188 z m 0.13642,2.1486 q 0.197808,0 0.293302,-0.10231 0.09549,-0.10914 0.09549,-0.36833 v -0.41608 q 0,-0.32741 -0.115956,-0.45019 -0.109136,-0.12959 -0.368333,-0.12959 h -0.334227 v 1.4665 z"
           style="font-style:normal;font-variant:normal;font-weight:normal;font-stretch:normal;font-family:'Bebas Neue';-inkscape-font-specification:'Bebas Neue';stroke-width:0.04511788"
           id="path6439" />
        <path
           d="m 21.129381,263.36164 h 1.111818 q 0.579783,0 0.845801,0.27284 0.266017,0.26602 0.266017,0.82534 v 0.2933 q 0,0.74349 -0.491109,0.94129 v 0.0136 q 0.272838,0.0819 0.381974,0.33422 0.115956,0.25238 0.115956,0.67528 v 0.83898 q 0,0.20463 0.01364,0.33423 0.01364,0.12277 0.06821,0.24555 h -0.763949 q -0.04093,-0.11595 -0.05457,-0.21827 -0.01364,-0.10231 -0.01364,-0.36833 v -0.87309 q 0,-0.3274 -0.109136,-0.457 -0.102315,-0.1296 -0.361511,-0.1296 h -0.259197 v 2.04629 h -0.750307 z m 1.023146,2.04629 q 0.225092,0 0.334227,-0.11595 0.115957,-0.11596 0.115957,-0.3888 v -0.36833 q 0,-0.2592 -0.09549,-0.37515 -0.08867,-0.11596 -0.286481,-0.11596 h -0.341048 v 1.36419 z"
           style="font-style:normal;font-variant:normal;font-weight:normal;font-stretch:normal;font-family:'Bebas Neue';-inkscape-font-specification:'Bebas Neue';stroke-width:0.04511788"
           id="path6441" />
        <path
           d="m 23.873756,263.36164 h 0.750307 v 4.77468 h -0.750307 z"
           style="font-style:normal;font-variant:normal;font-weight:normal;font-stretch:normal;font-family:'Bebas Neue';-inkscape-font-specification:'Bebas Neue';stroke-width:0.04511788"
           id="path6443" />
        <path
           d="m 26.236583,268.20453 q -0.538857,0 -0.825338,-0.30694 -0.279659,-0.30695 -0.279659,-0.86627 v -2.56468 q 0,-0.55932 0.279659,-0.86626 0.286481,-0.30695 0.825338,-0.30695 0.538857,0 0.818516,0.30695 0.286481,0.30694 0.286481,0.86626 v 0.50475 h -0.709381 v -0.5525 q 0,-0.44336 -0.375153,-0.44336 -0.375154,0 -0.375154,0.44336 v 2.667 q 0,0.43654 0.375154,0.43654 0.375153,0 0.375153,-0.43654 v -0.72984 h 0.709381 v 0.67527 q 0,0.55932 -0.286481,0.86627 -0.279659,0.30694 -0.818516,0.30694 z"
           style="font-style:normal;font-variant:normal;font-weight:normal;font-stretch:normal;font-family:'Bebas Neue';-inkscape-font-specification:'Bebas Neue';stroke-width:0.04511788"
           id="path6445" />
        <path
           d="m 28.370269,263.36164 h 1.016325 l 0.777591,4.77468 h -0.750307 l -0.136419,-0.94811 v 0.0136 h -0.852622 l -0.136419,0.93447 h -0.695739 z m 0.818517,3.19222 -0.334228,-2.36006 h -0.01364 l -0.327407,2.36006 z"
           style="font-style:normal;font-variant:normal;font-weight:normal;font-stretch:normal;font-family:'Bebas Neue';-inkscape-font-specification:'Bebas Neue';stroke-width:0.04511788"
           id="path6447" />
        <path
           d="m 31.565467,268.20453 q -0.538857,0 -0.825338,-0.30694 -0.279659,-0.30695 -0.279659,-0.86627 v -2.56468 q 0,-0.55932 0.279659,-0.86626 0.286481,-0.30695 0.825338,-0.30695 0.538857,0 0.818517,0.30695 0.28648,0.30694 0.28648,0.86626 v 0.50475 h -0.709381 v -0.5525 q 0,-0.44336 -0.375153,-0.44336 -0.375153,0 -0.375153,0.44336 v 2.667 q 0,0.43654 0.375153,0.43654 0.375153,0 0.375153,-0.43654 v -0.72984 h 0.709381 v 0.67527 q 0,0.55932 -0.28648,0.86627 -0.27966,0.30694 -0.818517,0.30694 z"
           style="font-style:normal;font-variant:normal;font-weight:normal;font-stretch:normal;font-family:'Bebas Neue';-inkscape-font-specification:'Bebas Neue';stroke-width:0.04511788"
           id="path6449" />
        <path
           d="m 33.119369,263.36164 h 0.750307 v 4.77468 h -0.750307 z"
           style="font-style:normal;font-variant:normal;font-weight:normal;font-stretch:normal;font-family:'Bebas Neue';-inkscape-font-specification:'Bebas Neue';stroke-width:0.04511788"
           id="path6451" />
        <path
           d="m 35.509482,268.20453 q -0.552499,0 -0.845801,-0.31376 -0.293301,-0.31377 -0.293301,-0.88673 v -2.51012 q 0,-0.57296 0.293301,-0.88672 0.293302,-0.31377 0.845801,-0.31377 0.552499,0 0.8458,0.31377 0.293302,0.31376 0.293302,0.88672 v 2.51012 q 0,0.57296 -0.293302,0.88673 -0.293301,0.31376 -0.8458,0.31376 z m 0,-0.6821 q 0.388795,0 0.388795,-0.47064 v -2.60561 q 0,-0.47065 -0.388795,-0.47065 -0.388796,0 -0.388796,0.47065 v 2.60561 q 0,0.47064 0.388796,0.47064 z"
           style="font-style:normal;font-variant:normal;font-weight:normal;font-stretch:normal;font-family:'Bebas Neue';-inkscape-font-specification:'Bebas Neue';stroke-width:0.04511788"
           id="path6453" />
        <path
           d="m 37.156,263.36164 h 0.941294 l 0.729844,2.85799 h 0.01364 v -2.85799 h 0.668455 v 4.77468 h -0.77077 l -0.900368,-3.48551 h -0.01364 v 3.48551 H 37.156 Z"
           style="font-style:normal;font-variant:normal;font-weight:normal;font-stretch:normal;font-family:'Bebas Neue';-inkscape-font-specification:'Bebas Neue';stroke-width:0.04511788"
           id="path6455" />
      </g>
    </g>
  </g>
</svg>
