<?xml version="1.0" encoding="UTF-8" standalone="no"?>
<!-- Created with Inkscape (http://www.inkscape.org/) -->

<svg
   xmlns:dc="http://purl.org/dc/elements/1.1/"
   xmlns:cc="http://creativecommons.org/ns#"
   xmlns:rdf="http://www.w3.org/1999/02/22-rdf-syntax-ns#"
   xmlns:svg="http://www.w3.org/2000/svg"
   xmlns="http://www.w3.org/2000/svg"
   xmlns:sodipodi="http://sodipodi.sourceforge.net/DTD/sodipodi-0.dtd"
   xmlns:inkscape="http://www.inkscape.org/namespaces/inkscape"
   width="44mm"
   height="44mm"
   viewBox="0 0 44 44"
   version="1.1"
   id="svg8"
   inkscape:version="0.92.4 5da689c313, 2019-01-14"
   sodipodi:docname="expo_cnc12svg.svg">
  <defs
     id="defs2">
    <clipPath
       clipPathUnits="userSpaceOnUse"
       id="clipPath5859">
      <rect
         style="opacity:1;vector-effect:none;fill:#ffffff;fill-opacity:1;stroke:#ffffff;stroke-width:0.75;stroke-linecap:butt;stroke-linejoin:miter;stroke-miterlimit:4;stroke-dasharray:none;stroke-dashoffset:0;stroke-opacity:1"
         id="rect5861"
         width="45.735119"
         height="44.979168"
         x="-1.3229166"
         y="252.77678" />
    </clipPath>
    <clipPath
       clipPathUnits="userSpaceOnUse"
       id="clipPath5863">
      <rect
         style="opacity:1;vector-effect:none;fill:#ffffff;fill-opacity:1;stroke:#ffffff;stroke-width:0.75;stroke-linecap:butt;stroke-linejoin:miter;stroke-miterlimit:4;stroke-dasharray:none;stroke-dashoffset:0;stroke-opacity:1"
         id="rect5865"
         width="45.735119"
         height="44.979168"
         x="-1.3229166"
         y="252.77678"
         transform="rotate(90)" />
    </clipPath>
  </defs>
  <sodipodi:namedview
     id="base"
     pagecolor="#ffffff"
     bordercolor="#666666"
     borderopacity="1.0"
     inkscape:pageopacity="0.0"
     inkscape:pageshadow="2"
     inkscape:zoom="5.135322"
     inkscape:cx="83.149606"
     inkscape:cy="83.149606"
     inkscape:document-units="mm"
     inkscape:current-layer="layer1"
     showgrid="true"
     units="mm"
     objecttolerance="1"
     guidetolerance="1"
     inkscape:window-width="1920"
     inkscape:window-height="1051"
     inkscape:window-x="0"
     inkscape:window-y="0"
     inkscape:window-maximized="1" />
  <metadata
     id="metadata5">
    <rdf:RDF>
      <cc:Work
         rdf:about="">
        <dc:format>image/svg+xml</dc:format>
        <dc:type
           rdf:resource="http://purl.org/dc/dcmitype/StillImage" />
        <dc:title></dc:title>
      </cc:Work>
    </rdf:RDF>
  </metadata>
  <g
     inkscape:label="Layer 1"
     inkscape:groupmode="layer"
     id="layer1"
     transform="translate(0,-253)">
    <g
       id="g5787"
       style="fill:none;stroke:#000000;stroke-width:0.1;stroke-miterlimit:4;stroke-dasharray:none" />
    <g
       aria-label="CNC"
       clip-path="url(#clipPath5859)"
       style="font-style:normal;font-weight:normal;font-size:20.2447319px;line-height:1.25;font-family:sans-serif;letter-spacing:0px;word-spacing:0px;fill:none;fill-opacity:1;stroke:#000000;stroke-width:0.1;stroke-miterlimit:4;stroke-dasharray:none"
       id="text5855">
      <path
         id="path5875"
         style="font-style:normal;font-variant:normal;font-weight:normal;font-stretch:normal;font-family:'Bebas Neue';-inkscape-font-specification:'Bebas Neue';stroke-width:0.1;fill:none;stroke:#000000;stroke-miterlimit:4;stroke-dasharray:none"
         d="m 35.545807,273.82394 q -1.599334,0 -2.449612,-0.91102 -0.830034,-0.91101 -0.830034,-2.57108 v -7.61202 q 0,-1.66006 0.830034,-2.57108 0.850278,-0.91101 2.449612,-0.91101 1.599334,0 2.429368,0.91101 0.850279,0.91102 0.850279,2.57108 v 1.49811 h -2.105452 v -1.63982 q 0,-1.31591 -1.11346,-1.31591 -1.113461,0 -1.113461,1.31591 v 7.91569 q 0,1.29566 1.113461,1.29566 1.11346,0 1.11346,-1.29566 v -2.16618 h 2.105452 v 2.00422 q 0,1.66007 -0.850279,2.57108 -0.830034,0.91102 -2.429368,0.91102 z m -11.7973,-14.37376 h 2.793773 l 2.166186,8.48254 h 0.04049 v -8.48254 h 1.983983 v 14.17131 H 28.445285 L 25.77298,263.27643 h -0.04049 v 10.34506 h -1.983984 z m -4.612003,14.37376 q -1.599334,0 -2.449613,-0.91102 -0.830034,-0.91101 -0.830034,-2.57108 v -7.61202 q 0,-1.66006 0.830034,-2.57108 0.850279,-0.91101 2.449613,-0.91101 1.599333,0 2.429367,0.91101 0.850279,0.91102 0.850279,2.57108 v 1.49811 h -2.105452 v -1.63982 q 0,-1.31591 -1.11346,-1.31591 -1.11346,0 -1.11346,1.31591 v 7.91569 q 0,1.29566 1.11346,1.29566 1.11346,0 1.11346,-1.29566 v -2.16618 h 2.105452 v 2.00422 q 0,1.66007 -0.850279,2.57108 -0.830034,0.91102 -2.429367,0.91102 z m 11.857545,7.21476 a 5,5 0 0 1 5,5 5,5 0 0 1 -5,5 5,5 0 0 1 -5,-5 5,5 0 0 1 5,-5 z M 12.047873,254.33333 c 0.007,1.479 0.01249,3.34448 0.01943,5.70524 l 0.03307,11.25202 0.973188,1.42454 c 0.535241,0.78349 1.719948,2.52959 2.632635,3.88019 0.912697,1.35063 4.812538,7.10919 8.666255,12.79684 1.791303,2.64375 3.455216,5.11691 4.73677,7.03687 m -7.951339,-0.46516 c -0.45575,-0.67603 -0.949847,-1.40923 -1.485988,-2.20464 -1.712764,-2.54105 -3.963807,-5.87446 -5.002303,-7.40759 -1.038496,-1.53316 -2.504284,-3.69868 -3.25731,-4.81227 -0.753026,-1.11361 -2.2301441,-3.29385 -3.2824552,-4.84497 -1.0523284,-1.55113 -2.0206822,-3.11888 -2.1519063,-3.48392 -0.2226188,-0.61924 -0.2388401,-1.43797 -0.2421927,-12.2261 -8.996e-4,-2.8356 -0.00204,-5.02427 0.00531,-6.72379 m 22.7954723,42.19944 c -0.610703,-0.89512 -1.455097,-2.13955 -2.264744,-3.33878 -1.281527,-1.89818 -4.273522,-6.31838 -6.648841,-9.82268 -2.375347,-3.50431 -5.022761,-7.41433 -5.883127,-8.68894 l -1.564328,-2.31747 -0.155362,0.53663 c -0.318618,1.10046 -0.841197,1.76304 -1.777864,2.25417 -0.5782309,0.30317 -2.1102567,0.33235 -2.4772674,0.0472 -0.2304619,-0.17909 -0.2321579,-0.17503 -0.030707,0.0737 0.1172226,0.14475 2.6323422,3.84712 5.5891552,8.22751 2.956835,4.38039 6.405019,9.48749 7.662669,11.34915 0.28765,0.4258 0.590404,0.87409 0.893872,1.32354 m -5.710268,-11.78721 c -0.227724,-0.25164 -0.28791,-0.77728 -0.118097,-1.03159 0.466886,-0.69923 1.624002,-0.31765 1.624002,0.53553 0,0.6177 -1.075289,0.97189 -1.505905,0.49606 v 0 m 0.927144,-0.75231 c -0.04626,-0.12057 -0.188114,-0.19917 -0.315276,-0.1747 -0.287747,0.0554 -0.389052,0.50209 -0.147739,0.65128 0.239686,0.14816 0.571628,-0.19354 0.463015,-0.47658 v 0 m -4.853878,-5.06247 c -0.346366,-0.44033 -0.34751,-0.71714 -0.0045,-1.08535 0.337548,-0.36231 0.841564,-0.37292 1.18948,-0.025 0.522051,0.52207 0.144481,1.46011 -0.587686,1.46011 -0.189996,0 -0.43513,-0.14351 -0.597332,-0.34973 l 3.8e-5,-3e-5 v 0 m 0.894617,-0.48178 c 0.05285,-0.27432 -0.330353,-0.45916 -0.532593,-0.25691 -0.202245,0.20224 -0.0173,0.58542 0.25691,0.53259 0.127139,-0.0245 0.251208,-0.14854 0.275683,-0.27568 v 0 m -2.764535,-3.59817 c 0.533832,-0.35328 0.985662,-0.98137 1.134257,-1.57672 l 0.0911,-0.36503 H 10.68679 c -0.7678785,0 -0.9377881,0.0419 -1.0774298,0.26547 -0.1204005,0.19281 -0.309557,0.26548 -0.690952,0.26548 -0.3893169,0 -0.5619197,-0.0687 -0.6672426,-0.26548 -0.121398,-0.22683 -0.2779258,-0.26547 -1.0755305,-0.26547 -0.905914,0 -0.9308179,0.009 -0.8443418,0.29866 0.2817458,0.94444 0.9707653,1.70945 1.7756664,1.9715 0.5978782,0.19466 1.7218191,0.0318 2.2660923,-0.32841 v 0 m -2.0863111,-2.73814 c 0.133844,-0.15632 0.3915648,-0.26548 0.6268162,-0.26548 0.2225344,0 0.5171265,0.11761 0.6649944,0.26548 0.2119194,0.21192 0.4424605,0.26549 1.1426695,0.26549 h 0.87719 l -0.0884,-0.35223 c -0.17675,-0.70419 -0.827275,-1.45524 -1.5177543,-1.75228 -0.785254,-0.3378 -1.3075134,-0.35858 -1.9776466,-0.0786 -0.8055436,0.33649 -1.4128819,1.01765 -1.6802881,1.88449 -0.089333,0.28961 -0.064592,0.29867 0.816491,0.29867 0.744343,0 0.9497041,-0.048 1.135925,-0.26549 l 2.9e-6,-5e-5 v 0 M 6.260086,254.3751 l 3e-7,6.58778 v 9.54682 l 0.3349342,-0.39806 c 0.184232,-0.21893 0.6141331,-0.5332 0.9553667,-0.69839 0.4458801,-0.21585 0.8484095,-0.29818 1.4309453,-0.29271 0.9060775,0.009 1.4910415,0.24685 2.1568985,0.87874 l 0.431405,0.40939 v -9.46083 -6.57266" />
    </g>
  </g>
</svg>
